Original sentence,Expected sentence (Annotation 1),Mistake categories (Annotation 1),Expected sentence (Annotation 2),Mistake categories (Annotation 2),Expected sentence (Annotation 3),Mistake categories (Annotation 3),Expected sentence (Annotation 4),Mistake categories (Annotation 4),Expected sentence (Annotation 5),Mistake categories (Annotation 5),Expected sentence (Annotation 6),Mistake categories (Annotation 6),Expected sentence (Annotation 7),Mistake categories (Annotation 7),Expected sentence (Annotation 8),Mistake categories (Annotation 8),Expected sentence (Annotation 9),Mistake categories (Annotation 9),Expected sentence (Annotation 10),Mistake categories (Annotation 10)
And both are not what we want since most of us just want to live as normal people.,,,,,,,Yet neither are what we want since most of us just want to live as normal people.,Trans Pform Rloc-,,,,,,,,,,,And both are not what we want because most of us just want to live as normal people.,Trans
"Surrounded by such concerns, it is very likely that we are distracted to worry about these problems.",,,,,,,,,"Surrounded by such concerns, it is very likely that we will be distracted and worry about these problems.",Vt Trans,,,"Surrounded by such concerns, it is very likely that we are distracted and worry about these problems.",Trans,,,,,,
And we keep track of all family members health conditions.,,,,,,,,,,,,,so we keep track of all family members health conditions.,Trans,,,whilst keeping track of all family members' health conditions.,Trans Rloc- Vform Npos,"Furthermore, we can keep track of all family members' health conditions.",Trans Vm Npos
"At the same time, we are prepared to know when there are other members got this disease.","and at the same time, we are prepared for when a member gets the disease.",Trans Rloc- Prep Rloc- Wform Nn Vform ArtOrDet,"At the same time, we are prepared if other members develop this disease.",Rloc- Trans Rloc- Wci,,,,,,,,,,,,,,,,
Do one who suffered from this disease keep it a secret of infrom their relatives?,,,,,,,,,,,,,Does one who suffers from this disease keep it a secret or inform their relatives?,SVA Vt Trans Mec,,,,,,
"For example, within a family, regardless of who had first received genetic information, parents were seen as having the primary responsibility to pass on information to any offspring, either adult at risk.",,,,,"For example, within a family, regardless of who had first received the information, parents were seen as having the primary responsibility for passing on information to any offspring, or adult, at risk.",ArtOrDet Prep Vform Trans Mec,,,,,,,,,,,,,,
"In addition, a woman testing positive for BRCA1 would be expected to allow her brother or sister to disclose such information to a niece or nephew rather than do it herself, although this may be further complicated by an individual's response to risk information as they not want to know.",,,"In addition, a woman testing positive for BRCA1 would be expected to allow her brothers or sisters to disclose such information to nieces or nephews, rather than do it herself, although this may be further complicated by an individual's response to risk information if they do not want to know.",Nn Nn ArtOrDet Nn Nn Trans V0,,,,,,,,,,,,,,,,
Focus on the negative side of the annouance of genetic risk first.,,,,,,,,,,,,,,,"Firstly, in opposition to announcing genetic risk,",Trans Prep Wci Prep ArtOrDet Wform Prep Rloc- Mec,,,,
"Furthermore, the annouance of genetic risk would affect the relationship with the relatives as sometimes others may think not to stay too close to the carrier so that they have less chance to get the potential disease.","Furthermore, announcing a genetic risk could affect the relationships between the relatives as sometimes the relatives may think that if they stay away from the carrier they will have less chance of getting the potential disease.",ArtOrDet Vform ArtOrDet Vm Nn Trans Wci Ssub Rloc- Vform Rloc- Wci Rloc- Vt Vform,,,,,,,,,,,,,,,,,,
"Secondly, genetic disease has a close relationship with the born gene together with their daily habits.","Secondly, genetic diseases have a close relationship with the genes people are born with and their daily habits.",Nn Vt WOinc Nn WOinc Trans,,,,,,,,,"Secondly, genetic diseases have a close link between the inherited gene and daily habits.",Nn SVA Wci Prep Wci Rloc- Trans Trans,,,,,,,,
"In conclusion, we could tell the benefits of telling genetic risk to the carriers relatives overweights the costs.",,,,,"In conclusion, we can see that the benefits of disclosing genetic risk to the carriers' relatives outweigh the costs.",Vm Wci Trans Wci Npos Wci,,,,,"In conclusion, we could say that the benefits of revealing a genetic risk to the carrier's relatives outweighs the costs.",Wci Trans ArtOrDet Wci ArtOrDet Mec Mec,,,,,,,,
Genetic disorder may or may not be hirataged hereditary disease and it is sometimes hard to find out one has these kinds of diseases.,Genetic disorders may or may not be hirataged hereditary diseases and it is sometimes difficult to find out whether one has these kinds of diseases.,Nn Um Nn Wci Trans,A genetic disorder may or may not be hirataged hereditary disease and it is sometimes hard to find out if one has these kinds of diseases.,ArtOrDet Um Trans,Genetic disorders may or may not be hereditary diseases and it is sometimes hard to find out whether one has these kinds of diseases.,Nn Rloc- Nn Trans,,,Genetic disorders may or may not be inherited hereditary diseases and it is sometimes hard to find out if one has one of these kinds of diseases.,Nn Mec Nn Trans Prep,Genetic disorders may or may not be hereditary diseases and it is sometimes hard to find out if one has this kind of disease.,Nn Rloc- Nn Trans ArtOrDet Nn Npos,,,Genetic disorders may or may not be inherited hereditary diseases and it is sometimes hard to find out if one has these kinds of diseases.,Nn Wci Nn Trans,"A genetic disorder may or may not be a hereditary disease, and it is sometimes hard to find out if one has these kinds of diseases.",ArtOrDet Rloc- ArtOrDet Mec Trans,,
We can't make a law to push a carrier of a known genetic risk to tell his or her relatives about his genetic problem.,,,,,,,We can't make a law to push a carrier of a known genetic risk to tell his or her relatives about his genetic problem as,Trans,,,,,,,,,,,,
"Firstly, someone having what kinds of disease belongs to his or her privacy.",,,,,,,,,,,"Firstly, whether someone has a disease is his or her own business.",Trans Vform ArtOrDet Rloc- Wci Prep Wci,,,,,,,,
"If you say only need to tell direct relatives, it will be against the fairness of law.",,,,,,,,,,,,,,,"If you suggest it is only necessary to tell direct relatives, it will be against the fairness of law, as",Wci V0 Wci Trans,,,,
People usually get this kind of hypertesion after they become adult.,,,,,,,,,,,,,People usually get this kind of hypertesion when they become adult.,Trans,,,,,,
"However, if they already know they have a gene that may make them have higher possibilities to get hypertention.",,,,,,,,,,,"However, if they already know that they have a gene that may give them a higher chance of getting hypertention.",Trans Wci Rloc- ArtOrDet Wci Prep Vform,,,,,,,,
They can build a daily habit to eat less salt and fat and thus to avoid hypertension.,,,,,,,then they can purposefully eat less salt and fat and thus avoid hypertension.,Trans Wci Prep,,,,,,,,,,,,
"In a nutshell, our society can't push genetic problem carrier to tell his or her disease to his or her relatives but he or she should be willing to tell his or her relatives about his or her genetic problem.",,,,,,,,,,,,,,,"In a nutshell, our society can't push carriers of genetic problems to tell his or her disease to his or her relatives. However, he or she should be willing to tell his or her relatives about his or her genetic problem.",WOadv Nn Rloc- Srun Trans,,,,
Genetic testing is made possible and available for one's decision to undergo.,,,,,,,Genetic testing is now available for individuals to decide to undergo.,Trans Wci Wform,,,,,,,,,,,,
"However, some think that it might be better for those who are ignorant about it and will continue leading a happy life.","However, some may think that it is better for those who are ignorant about it as they will continue leading a happy life.",WOinc WOinc Vform Trans Pform,"However, some think that it might be better for those who are ignorant about it as they will continue leading a happy life.",Trans,"However, some think that it might be better for those who are ignorant of it because they will continue leading a happy life.",Prep Trans Pref,,,,,,,"However, some think that it might be better for relatives to remain ignorant about it because they will continue leading a happy life.",Pref Ssub Trans Pref,,,,,,
"Genectic testing is a personal decision, with the kowledge that there is a possiblity that one could be a carrier or not.",,,,,,,,,,,,,Having genetic testing can cause a difficult personal decision because a patient can be given the kowledge that there is a possiblity that he or she could be a carrier.,V0 Wci Others Ssub Prep Pref Trans,,,,,,
Early pre-examination is healthy as it will cast away unwanted doubts and affect the psychological thoughts of those who are affected.,,,,,,,,,,,,,Early pre-examination is preferable as it will cast away unwanted doubts but will affect the psychological thoughts of those who are affected.,Wci Trans Vt,,,,,,
Such patients are still emotionally volatile or they may be unaware of the consequences of such genetic disorder due to their young age.,These patients are still emotionally volatile and may be unaware of the consequences of genetic disorders due to their young age.,ArtOrDet Trans Rloc- ArtOrDet Nn,Such patients are still emotionally volatile and they may be unaware of the consequences of their genetic disorder due to their young age.,Trans ArtOrDet,,,,,Such patients are still emotionally volatile and they may be unaware of the consequences of a genetic disorder on account of to their young age.,Trans ArtOrDet Trans,Such patients are still emotionally volatile and they may be unaware of the consequences of such a genetic disorder due to their young age.,Trans ArtOrDet,,,,,,,,
"And if the results turn out to be otherwise, then the family can be prepared emotionally and psychologically of the future outcome and aid them in making upcoming decisions.",,,,,,,"Also, if the results turn out to be otherwise, then the family can be emotionally and psychologically prepared for the future outcome and help them to make future decisions.",Trans WOadv WOadv Prep Wci Prep Vform Wci,"And if the results turned out to be otherwise, then the family would be prepared both emotionally and psychologically for the future outcome and be aided in making upcoming decisions.",Vt Vm Trans Prep Vform Pform,,,,,,,,,,
"A person with a disorder, regardless of mental or physical disorder, is always easy to be awared by his or her families.",,,,,,,,,,,"A person with a disorder, whether a mental or physical disorder, is always keen to tell his or her family.",Trans ArtOrDet Wci Rloc- Wci Rloc- Nn,,,"A person with a disorder, either mental or physical, can always easily be made aware of the disorder by his or her family.",Trans Rloc- Rloc- Wci WOadv Vform Others Nn,,,,
"Afterward, the carrier will face a serious ethical issue, which is to reveal the problem to his or her relatives or not.","Afterwards, the carrier will face a serious ethical issue, which is whether to reveal the problem to their relatives or not.",Mec Trans Pform,"Afterward, the carrier will face a serious ethical issue, which is whether to reveal the problem to his or her relatives or not.",Trans,"Afterwards, the carrier will face a serious ethical issue, which is whether to reveal the problem to his or her relatives or not.",Mec Trans,"Afterward, the carrier will face a serious ethical issue, which is whether to reveal the problem to his or her relatives or not.",Trans,,,"Afterward, the carrier will face a serious ethical issue, which is whether to reveal the problem to his or her relatives or not.",Trans,"Afterwards the carrier will face a serious ethical issue, which is to reveal the problem to his or her relatives or not.",Trans,"Afterwards, the carrier will face a serious ethical issue, which is whether to reveal the problem to his or her relatives or not.",Mec Trans,,,,
"On contrary, if the carrier is an adult, who has his own choice to choose whether to inform his or her relatives about the risk, that will be more complex.",,,,,,,"However, if the carrier is an adult, who has his own ability to choose whether to inform his or her relatives about the risk, then the situation will be more complex.",Trans Others Trans,,,,,"In contrast, if the carrier is an adult, and is responsible to choose whether to inform his or her relatives about the risk, that will be more complex.",Trans Ssub,"On the contrary, if the carrier is an adult, who has his own choice as to whether to inform his or her relatives about the risk, that would be more complex.",ArtOrDet Trans Rloc- Vt,,,,
This kind of ethical issue cannot be judged by the others because they will not understand the position and duty of the carrier in the family.,,,,,,,,,,,This kind of ethical issue cannot be judged by other people as they will not understand the position and duty of the carrier in the family.,ArtOrDet Wci Trans,,,,,,,,
"By making sure that they are aware of this genetic problem, they could have a full check-up for themselves and it will be better if they could even prevent it from happening to themselves.","By making sure that they are aware of this genetic problem, they could have a full check-up as it would be better if they could prevent it from happening to themselves.",Prep Rloc- Trans Vt Rloc-,,,,,,,,,,,,,,,,,,
"I find that it is important to inform especially if it is contagious, the carrier could prevent the disease from spreading out to the society.","I find that it is important to inform the relatives, especially if it is contagious, as the carrier could prevent the disease from spreading out to the society.",Others Srun Trans,"I find that it is important to inform, especially if it is contagious and the carrier could prevent the disease from spreading out into society.",Mec Mec Trans Prep ArtOrDet,,,"I find that it is important to inform, especially if the disease is contagious, as the carrier could prevent the disease from spreading out to the society.",Mec Wform Trans,,,I find that it is important to inform people especially if it is contagious and the carrier could prevent the disease from spreading out to society.,Others Trans Prep,,,"I find that it is important to inform relatives, especially if it is contagious, as the carrier could prevent the disease from spreading out in society.",Others Trans Prep ArtOrDet,,,"I find that it is important to inform, especially if it is contagious, so the carrier could prevent the disease from spreading.",Mec Trans Rloc-
"In the end, I believe that the support in terms of mental or even monetary from your family could help the carrier to fight against the genetic disease.","In the end, I believe that the support, both mental and monetary, from their family could help the carrier to fight against the genetic disease.",Srun Trans Trans Rloc- Srun Pform,,,"Finally, I believe that support, whether mental or even financial, from their family could help the carrier to fight against the genetic disease.",Wci ArtOrDet Mec Trans Wci Mec Pref,,,,,"In the end, I believe that the support, whether psychological or even monetary, from their family could help the carrier to fight against the genetic disease.",Mec Trans Rloc- Prep Wci Mec Pref,,,,,,,,
Some people might say that it is a form of prevention of giving birth to disabled lives and making them suffer in real-life.,,,,,,,,,,,,,,,,,"Some people might say that it is a form of prevention of giving birth to disabled people, making them suffer in real-life.",Wci Trans,,
I belive that even the carrier has the right not to know the true fact.,,,,,,,,,,,,,I also believe that even the carrier has the right not to know the truth.,Trans Wci,,,,,,
"After realizing the he or she is tshe carrier, the emotional damage would be hard to bear.",,,,,"After he or she realizes that he or she is the carrier, the emotional damage would be hard to bear.",Smod Trans Mec,,,,,,,,,,,"After realizing that they are the carrier, the emotional damage would be hard to bear.",Trans Pref SVA Mec,,
"Debates have been around for years, that should a carrier for a known genetic risk be obligated to inform his or her relatives.",,,,,"Debates have been around for years, as to whether a carrier of a known genetic risk should be obligated to inform his or her relatives.",Trans WOinc,Debates have been around for years about whether a carrier for a known genetic risk should be obligated to inform his or her relatives.,Trans Vm,"Debates have been going on for years, about whether a carrier for a known genetic risk should be obligated to inform their relatives about it.",V0 Prep Prep Trans Vm Pref Prep,It has been debated for years whether a carrier of a known genetic risk should be obligated to inform his or her relatives.,Pref SVA Wci Mec Trans WOinc Prep WOinc,,,Debates have been around for years about whether a carrier for a known genetic risk should be obligated to inform his or her relatives.,Mec Trans Trans Vm,,,Debates that ask whether a carrier for a known genetic risk should be obligated to inform his or her relatives have been around for years.,WOinc V0 WOinc Trans WOinc WOinc
"By doing so, one will feel less stressful in facing such disorder risk.","By doing so, one might feel less stressed when facing a disorder risk.",Vm Vform Prep Trans ArtOrDet,,,,,,,,,,,,,,,,,,
"On top of that, as the genetic risk may pass down to next generation, thus it will involve more than just one family.",,,,,"On top of that, as the genetic risk may pass down to the next generation, it will involve more than just one family.",ArtOrDet Trans,"On top of that, as the genetic risk may pass down to next generation, it will involve more than just one family.",Trans,"On top of that, because the genetic risk may pass down to the next generation, it will involve more than just one family.",Trans ArtOrDet Rloc-,,,"On top of that, as the genetic risk may pass down to the next generation, it will involve more than just one family.",ArtOrDet Trans,,,,,,
"However, it leads to a new problem that "" should a carrier of a known genetic risk be obligated to tell his or her relatives?",,,,,,,"However, it leads to a new problem - "" should a carrier of a known genetic risk be obligated to tell his or her relatives?",Trans,,,,,,,,,,,,
"Firstly, I believe most of us will agree with the sentences below: "" I will be anxious about my families when he or she told me that he or she was a carrier of a known genetic risk "".","Firstly, I believe most of us will agree with the following sentence: "" I would be anxious about a family member if they told me that they were a carrier of a known genetic risk "".",Wci Vt ArtOrDet Wci Trans Pform Pform SVA,"Firstly, I believe most of us will agree with the following sentence: "" I would be anxious about my family if a family member told me that he or she was a carrier of a known genetic risk "".",Wci Vm Nn Trans Pref,"Firstly, I believe most of us will agree with the sentences below: "" I would be anxious about my family member if he or she told me that he or she was a carrier of a known genetic risk "".",Vm Nn Trans,,,"Firstly, I believe most of us will agree with the following sentence: "" I would be anxious about my family member if they told me that they were a carrier of a known genetic risk "".",Others Prep Vm Others Trans Pref Pref SVA,,,,,,,,,"Firstly, I believe most would agree with the sentence, "" I would be anxious about my family member if he or she told me that he or she was a carrier of a known genetic risk "".",Pref Vm Nn Prep Mec Vm Others Trans
"Frequently, the intention of the carriers does not want to tell their families are to continue their own life without the anxious of families.",,,,,,,,,,,,,,,"Frequently, the carriers do not want to tell their families, instead they intend to continue their own life without the anxiety of families.",Rloc- Vform Mec Trans V0 Wform,"Frequently, the intentions of the carriers are that they do not want to tell their families and to continue their own life without the anxiety of families.",Nn Others Rloc- Trans Wform,,
It is obvious that there will be better for one person to be worried than many.,,,,,,,,,,,,,,,"It is obvious that it would be better for one person to be worried, rather than many.",Pform Vt Mec Trans,,,,
We cannot blame them that they are liable to the undesired consequences.,We cannot blame them or say that they are liable for the undesired consequences.,Trans V0 Prep,,,,,We cannot blame them if they are liable for the undesired consequences.,Trans Prep,We cannot blame them if they are liable for the undesired consequences.,Trans Prep,We cannot blame them as they are liable for the undesired consequences.,Trans Prep,,,,,,,,
"However, there may be some special case that is hard to be defined.",,,,,,,"However, there may be some special cases which are hard to define.",Nn Trans SVA Vt,,,,,,,,,,,,
This obeys their own willingness as in they have to accept the truth which may make their following life miserable.,,,,,,,,,,,,,,,"This ignores their own willingness, they have to accept the truth which may make their following life miserable.",Wci Mec Trans,,,,
"More people (relatives) know her problem, more information channel is provided.","If more people (relatives) who know her problem, then more information can be provided.",Trans Ssub Trans Rloc- Vform,,,,,,,,,,,,,"If more people (relatives) know her problem, more information channels are provided.",Trans Nn SVA,,,,
If all efforts have been made but the children still suffer from the syndrome then the family have to accept this fact and do whatever they can to bring a good environment for their children's growth.,If every effort has been made and the children still suffer from the syndrome then the family has to accept this fact and do whatever they can to create a good environment for their children's development.,ArtOrDet Nn SVA Trans SVA Wci Wci,,,,,,,,,,,,,,,,,,
If the parents know that one of them is a carrier and disclose the information to their relatives then they can bring their children to undergo genetic testing and don't need to be shy of it because it is for the sake of their children's health.,If the parents know that one of them is a carrier and discloses the information to their relatives then they can take their children to undergo genetic testing. They do not need to be shy of it because it is for the sake of their children's health.,SVA Wci Srun Trans Pform,,,,,,,,,,,"If the parents know that one of them is a carrier and discloses the information to their relatives, they can bring their children to undergo genetic testing and need not be scared because it is for the sake of their children's health.",SVA Mec Trans Vm Vform Wci Prep Rloc-,,,,,,
A strong mental condition and conviction must be build from within and from the closest ones.,A strong mental attitude and conviction must be built from within by their closest ones.,Wci Vform Trans Prep ArtOrDet,,,,,,,,,,,,,,,,,,
If not their family then who else that are willing to do that?,,,,,,,,,,,,,"If not their family, who else is willing to do that?",Mec Trans Ssub SVA,,,,,,
"In comparison, in the field of genetic testing which enables people to be aware of the risk of a possible genetic disorder, as the technology has been very mature already, an even more popular topic arises.","In comparison, in the field of genetic testing, which enables people to be aware of the risk of a possible genetic disorder, the technology is already very mature, therefore, an even more popular topic has arisen.",Srun Prep Vform WOinc WOinc Trans V0 Vform,,,,,"In comparison, in the field of genetic testing, which enables people to be made aware of the risk of a possible genetic disorder, the technology has been very mature already, an even more popular topic arises.",Mec Wci Trans Um,,,,,"In addition, in the field of genetic testing, people can find about the risk of a possible genetic disorder, as the technology is very advanced already. an even more popular topic arises.",Trans Mec Ssub Wci Vt Wci Mec Um,"In comparison, in the field of genetic testing, which enables people to be aware of the risk of a possible genetic disorder, the technology was very developed already, and thus, an even more widespread topic arises.",Mec Prep Vt Wci Trans Wci,,,,
"In my opinion, the patients, which are carriers of some known genetic risk are supposed to share the truth with their family members.",,,,,,,"In my opinion, the patients who are carriers of some known genetic risk should share the truth with their family members.",Trans Vm,,,,,,,,,,,,
"Hence, it is essential to tell their family members about the risk of their genetic disorder both as a social responsibility and a favor to conserve the family basis.","Hence, it is essential for them to tell their family members about the risk of their genetic disorder both as a social responsibility and as a way to conserve the basis of family.",Prep Pform Trans Wci WOinc,"Hence, it is essential for a person to tell their family members about the risk of their genetic disorder both as a social responsibility and as a favor to preserve the family unit.",Others Trans Wci Wci,,,,,,,,,,,,,,,,
The courage to take the genetic testing and yet to inform their relatives about the risk that they may have may result in people being judgmental while actually it is just a risk and not a confirmed case.,The courage to undergo genetic testing and inform relatives about the risk may result in people being judgmental when actually it is just a risk and not a confirmed case.,Wci ArtOrDet Rloc- Prep ArtOrDet Rloc- Trans,,,,,,,,,The courage to have the genetic testing done and yet not to inform their relatives about the risk that they may have may result in people being judgmental but it is actually just a risk and not a confirmed case.,Wci Wci Others Trans WOadv WOadv,,,,,,,,
Many people in our society are not well informed about many genetic diseases and many of them will most likely to judge or at least differentiate those who have genetic diseases since they feel that the patients are abnormal or 'weird'.,Many people in our society are not well informed about genetic diseases and many of them will most likely judge or at least discriminate against those who have genetic diseases because they feel that the patients are abnormal or 'weird'.,Rloc- Prep Wci Prep Trans,,,,,,,,,,,,,"Many people in our society are not well informed about many genetic diseases, and many of them will most likely judge, or at least differentiate those who have genetic diseases, because they feel that the patients are abnormal or 'weird'.",Mec Vform Mec Mec Trans,,,,
"There may be some people who say that it is necessary to tell the family members about the risk since some of them may be affected, while I do think that this view has a point, how much you can trust your family regarding this issue may also be a case.","There may be some people who say that it is necessary to tell family members about the risk because some of them may be affected. While I do think that they have a point, how well you can trust your family regarding this issue may also be a factor.",ArtOrDet Trans Srun Mec Wci SVA Wci Wci,,,,,,,,,,,,,,,"There may be some people who say that it is necessary to tell the family members about the risk since some of them may be affected, and while I do think that this view has a point, how much you can trust your family regarding this issue may also be a case.",Trans,,
"Furthermore, since the genetic risk or genetic disease is a very personal case, it is up to the person's call to tell the relatives about it.","Furthermore, since genetic risk and genetic diseases are very personal cases, it is up to the person to tell their relatives about it.",ArtOrDet Trans Nn SVA ArtOrDet Nn Npos Rloc- ArtOrDet,,,"Furthermore, since the genetic risk or genetic disease is a very personal case, it is up to the person whether to tell the relatives about it.",Rloc- Trans,,,"Furthermore, since the genetic risk or genetic disease is a very personal case, it is the person's call whether to tell their relatives about it.",Prep Trans ArtOrDet,,,,,"Furthermore, since the genetic risk or genetic disease is a very personal case, it is up to the person's decision whether to tell the relatives about it.",Wci Trans,,,,
One of the reasons that the parents should be informed is that they have to decide whether they are capable to raise a child with genetic risk.,One of the reasons why parents should be informed is because they have to decide whether they are capable of raising a child with a genetic risk.,Ssub ArtOrDet Trans Prep Vform ArtOrDet,,,,,,,One of the reasons why parents should be informed is that they have to decide whether they are capable of raising a child with a genetic risk.,Trans ArtOrDet Prep Vform ArtOrDet,,,,,,,,,,
"However, the problem is, will the people really enjoy their life if they have to stay at hospital everyday and with all the needles and endless pain?","However, the problem is, will people really enjoy their lives if they have to stay in hospital everyday with all the needles and endless pain?",ArtOrDet Nn Prep Trans,,,,,"However, the problem is whether people really enjoy their life if they have to stay in hospital everyday and with all the needles and endless pain.",Mec Trans ArtOrDet Prep Mec,"However the problem is, would a person really enjoy their life if they had to stay at the hospital every day, with all the needles and endless pain?",Mec Vm ArtOrDet Wform Vt ArtOrDet Mec Trans,"However, the problem is, will the people really enjoy their life if they have to stay at hospital every day with all the needles and endless pain?",Mec Trans,,,,,"However, the problem is will people really enjoy their life if they have to stay at hospital every day, with all the needles and endless pain?",Mec ArtOrDet Mec Trans,"However, the problem is, will people really enjoy their lives if they have to stay in hospital every day, with all the needles and endless pain?",ArtOrDet Nn Prep Mec Trans
"As far as I am concerned, when a couple are going to have babies, they are going to run a few tests and see whether their could have some genetic diseases.","As far as I am concerned, when a couple decide to have babies, they are going to run a few test to see whether they have any genetic diseases.",Wci Prep Trans Pform Rloc- ArtOrDet,,,,,,,,,,,,,,,,,,
"Most people care about their relatives, if there is no serious consequence of telling them so, I assume most of them will tell their relatives to be careful.","Most people care about their relatives, if there are no serious consequences of telling them, I assume most of them would tell their relatives to be careful.",SVA Nn Trans Vt,,,"Most people care about their relatives, so, if there is no serious consequence of telling them, I assume most of them will tell their relatives to be careful.",Trans Rloc-,,,"Most people care about their relatives, and if there is no serious consequence in telling them so, I assume that most of them will tell their relatives to be careful.",Trans Prep Ssub,,,,,,,,,,
"After he takes the test and be obliged to tell his relatives, everyone know that he is a carrier.",,,,,,,"then after he takes the test and is obliged to tell his relatives, everyone will know that he is a carrier.",Trans Vform V0,,,,,,,"then after he takes the test and is obligated to tell his relatives, everyone will know that he is a carrier.",Trans Vform Wform Vt,"and after he takes the test is obliged to tell his relatives, everyone will know that he is a carrier.",Trans Trans Vform Vt,"After he takes the test he is obliged to tell his relatives, everyone will know that he is a carrier.",Pref Trans SVA Vt
So all the married couples go run a test and know they are not carriers.They might subconsiously see him as different and worry that he will find a wife who will carry this gene as well.,,,So all married couples should go and run a test to prove they are not carriers. They might subconsiously see the carrier as different and worry that he will find a wife who carries this gene as well.,ArtOrDet Vt Trans Prep Rloc- Wci Mec Others Vt,"So, if all the married couples run a test and find out they are not carriers, they might subconsciously see him as different and worry that he will find a wife who will carry this gene as well.",Mec Trans Rloc- Wci Sfrag Mec,,,,,,,,,"Thus, all the married couples will run a test and know they are not carriers.They might then subconsiously see him as different, and worry that he would find a wife who carries this gene as well.",Trans Vform Trans Mec Vt Vt Vt,,,,
"In less than a week half of the town knows person A has a risked gene, and his family might be a genetically risked family.","In less than a week half of the town knows person A has a genetic risk, and that his family might also be at risk.",Wci Ssub Trans Prep ArtOrDet Rloc- Wform Rloc-,,,,,,,,,,,,,,,,,,
"The debatable question, an ethical dilemma, is that are people responsible for telling their relatives that they carry a known genetic risk?",,,,,"The debatable question, an ethical dilemma, is whether people are responsible for telling their relatives that they carry a known genetic risk.",Trans WOinc Mec,"The debatable question, an ethical dilemma, is whether people are responsible for telling their relatives that they carry a known genetic risk.",Trans WOinc Mec,"The question in debate, an ethical dilemma, is whether people are responsible for telling their relatives that they carry a known genetic risk.",WOadv Trans WOinc Mec,,,,,"The debatable question and ethical dilemma, is whether people are responsible for telling their relatives that they carry a known genetic risk.",Mec Trans Trans Vform Mec,,,,
"Being the parent, you are not responsible to you next generations, since you allow the genetic risk to be passed on by generation and generation and being aware of it.","Being the parent, you are responsible for your future generations, since you allowed the genetic risk to be passed on from generation to generation when you were aware of it.",Rloc- Prep Pform Wci Vt Prep Prep Trans Trans Vform,"Being the parent, you would hence not be showing responsibility for your next generation, since you allowed the genetic risk to be passed on generation by generation despite being aware of it.",Vt Others Wci Prep Wform Nn Vt Wci Trans,,,,,"Being a parent, you are not being responsible for the next generations, since you allow the genetic risk to be passed on from generation to generation while being aware of it.",ArtOrDet V0 Prep ArtOrDet Prep Prep Trans,"As the parent, you are not being responsible for future generations, since you are allowing the genetic risk to be passed on from generation to generation whilst being aware of it.",Prep Vform Prep ArtOrDet Wci Vform Vform Prep Prep Trans,,,"Being the parent, you would be being irresponsible to your next generations if you allow the genetic risk to be passed on by generation and generation whilst being aware of it.",Vm Vform Vt Mec Mec Wci Trans,"Being the parent, you are not responsible for your next generations, since you allow the genetic risk to be passed on generation after generation whilst being aware of it.",Prep Mec Rloc- Trans Trans,"Being the parent, you are not responsible for future generations if you allow genetic risk to be passed on generation by generation while being aware of it.",Prep ArtOrDet Wci Mec Trans ArtOrDet Prep Prep Trans
Then it becomes troublesome about whether we need to tell our relatives who may carry this genetic risk as well.,,,,,,,,,,,,,,,"Consequently, it becomes troublesome about whether we need to tell our relatives, who may carry this genetic risk as well.",Trans Mec,,,,
"Once we found we were carrying this genetic risk, it is better for us to tell our family members because they may carry it as well.",,,,,,,"Once we discover that we carry this genetic risk, it is better for us to tell our family members because they may carry it as well.",Wci Trans Vform,,,,,,,,,,,,
And it is important for those young people.,It is important for young people.,Trans Mec ArtOrDet,,,,,it is important for young people because,Trans Rloc- Trans,,,,,,,,,It is important for young people;,Trans Mec Rloc- Mec,It is especially for young people:,Trans Mec Others ArtOrDet Mec
"However, some people may argue that why we want to interfere with their lives?",,,,,,,,,,,,,,,"However, some people may argue against why we would want to interfere with their lives.",Trans Vm Mec,,,,
"Imagine you are living like a normal person but suddenly one day your relative comes tells you that actually there are some possibilities that you may encounter some disease in the future, what kind of feeling are you going to have?","Imagine you are living like a normal person and suddenly, one day, your relative comes and tells you that actually there is a possibility that you may encounter a disease in the future, what kind of feelings are you going to have?",Trans Srun Srun Trans Vform ArtOrDet Nn ArtOrDet Nn,,,Imagine you are living like a normal person but suddenly one day your relative comes and tells you that actually there are some possibilities that you may contract some disease in the future. What kind of feeling would you have?,Trans Wci Srun Wci,Imagine you are living a normal life when suddenly one day your relative tells you that there is a possibility that you may encounter some disease in the future. How will you feel?,Rloc- Wci Trans Rloc- Wtone SVA ArtOrDet Nn Mec WOinc,"Imagine you are living like a normal person but suddenly one day your relative comes and tells you that actually there is a possibility that you may get some disease in the future, what kind of feelings are you going to have?",Trans SVA ArtOrDet Nn Wci Nn,,,,,Imagine you are living like a normal person but suddenly one day your relative comes and tells you that actually there are some possibilities that you may encounter some disease in the future. What kind of feeling are you going to have?,Trans Mec,,,"Imagine you are living a normal life, but suddenly one day your relative comes and tells you that actually there is a possibility that you may encounter some disease in the future, what kind of feelings are you going to have?",Rloc- Wci Trans SVA ArtOrDet Nn Nn
"At the same time, there will also be chances that the genetic test result is not correct which means they are actually wasting their lives worrying about this thing, so actually we are bringing trouble to them.",,,,,,,"At the same time, there will also be a chance that the genetic test result is not correct which could mean they are actually wasting their lives worrying about it and so actually we are bringing trouble to them.",Nn Vm Vt Pform Trans,,,,,,,,,,,,
It is only after we tell them will they start paying attention to their health.,,,,,,,It is only after we tell them that they will start paying attention to their health.,Trans WOinc,,,,,,,,,It is only after we tell them that they will start paying attention to their health.,Trans Rloc-,,
"I know it will have a huge impact on them, but we should know that they are our loved ones, we need to tell them and help them.",,,,,,,"I know it will have a huge impact on them, but we should remember that they are our loved ones and so we need to tell them and help them.",Others Trans,"I know it will have a huge impact on them, but we should know that they are our loved ones, and we need to tell them and help them.",Trans,,,,,,,"I know it will have a huge impact on them, but we should know that they are our loved ones, and we need to tell them and help them.",Trans,,
Sometimes life may even be saved if they are told early and conduct timely treatment.,,,,,,,,,,,,,,,"Sometimes lives may even be saved if they are told early, and therefore conduct timely treatment.",Nn Mec Trans,,,,
The son was died after one year's treatment and the couple got divorced later after that.,,,,,,,The son died after one year's treatment and the couple got divorced after that.,Vt Trans,,,,,,,,,,,,
"On the one hand, it can tell members of the carrier's family the possible disease they may have and can perform treatment in time if possible.",,,,,,,,,,,,,"First, it can tell members of the carrier's family the possible disease they may have and they can seek treatment in time if possible.",Trans Pref Wci,,,,,,
"On the other hand, it may pass the disease to the next generation if the carrier hides the truth.",,,,,,,,,,,,,"Second, it may pass the disease to the next generation if the carrier hides the truth.",Trans,,,,,,
"So I think whatever the genetic is or whether the gene is match with their parents, it should not be told to anyone even his or her family or relatives.",,,,,,,"So I think that whatever the gene is or whether the gene is shared with their parents, it should not be told to anyone, even his or her family or relatives.",Trans Wform Wci Mec,,,,,"So I think whatever the genetic situation is or whether the gene matches with their parents, it should not be told to anyone even family or relatives.",Others Vform Pref Trans Pref,,,,,,
"The parents give knowledge and love to the children, meanwhile they feel happy with the accompany of the children.",,,,,,,,,"The parents give knowledge and love to their children, and meanwhile they feel happy with the company of their children.",ArtOrDet Trans Wform ArtOrDet,,,,,,,"The parents give knowledge and love to the children, and meanwhile they feel happy with the company of the children.",Trans Wci,,
"Therefore, once people find they have carried the disease genes, they should be responsible to tell their relatives, at least their family members.","Therefore, once people find they carry a disease in their genes, they should be responsible for telling their relatives, or at least their family members.",Vform ArtOrDet Prep ArtOrDet Prep Vform Trans,"Therefore, once people find they carry the disease genes, they should be responsible and tell their relatives, at least their family members.",Vt Prep Trans,"Therefore, once people find out they are carrying the disease genes, it is their responsibility to tell their relatives, or at least their close family members.",Prep Vt WOinc Trans Others,,,,,"Therefore, once people find they carry the diseased genes, they should be responsible and tell their relatives, at least their family members.",Vt Vt Wform Trans,,,"Therefore, once people find they carry the genes associated with disease, they should be responsible to tell their relatives, and at least their family members.",Vt Vt WOadv Others Trans,,,"Therefore, once people find they carry the disease genes, they should be obligated to tell their relatives, or at least their family members.",Vt Wci Trans
"If the relatives carry that disease gene, they can share the experience with him or her and give some help, they will also teach him or her how to communicate with others about this issue.",,,,,,,"If the relatives carry a disease gene, they can share the experience with him or her and offer some help, and they can also teach him or her how to communicate with others about this issue.",ArtOrDet Wci Trans Vm,,,,,,,"If the relatives carry that gene, the person can share the experience with him or her and give some help. Thus, they will also teach him or her how to communicate with others about this issue.",Rloc- Pref Mec Trans,,,,
"A couple did not have a child after their marriage for a long time, their parents were anxious about that and asked them to go to hospital to check what was the problem.",,,,,"A couple did not have a child after being married for a long time, so their parents were anxious about that and asked them to go to the hospital to check what the problem was.",Others Trans ArtOrDet Vt,,,"A couple did not have a child after their marriage for a long time, and their parents were anxious about that and asked them to go to hospital to check what the problem was.",Trans WOinc,,,,,,,"A couple did not have a child after their marriage for a long time, and their parents were anxious about that and asked them to go to hospital to check what the problem was.",Trans WOinc WOinc,,
"By telling their relatives that they may have a risk of carrying the disease gene can make their family members bond closely, also many risks and conflicts can be avoided.",,,"By telling their relatives that they may have a risk of carrying the disease gene, family members can bond more closely and many risks and conflicts can be avoided.",Mec Others Rloc- Trans,"By telling their relatives that they may have a risk of carrying the disease gene, they can make their family members bond more closely, and many risks and conflicts can be avoided.",Mec Pref Wform Trans,Telling their relatives that they may be at risk of carrying a disease gene can make their family members bond closely and also many risks and conflicts can be avoided.,Prep Mec Wci ArtOrDet Trans,"By telling their relatives that they may have a risk of carrying the genetic disease, they can make their family members bond closely, and also many risks and conflicts can be avoided.",WOadv Pref Trans,,,,,"By telling their relatives that they may have a risk of carrying a gene associated with disease, they can make their family members bond closely, and also avoid many risks and conflicts.",ArtOrDet WOadv Others Others Trans WOinc Rloc-,"By telling their relatives that they may have a risk of carrying the disease, they can make their family members bond closely, and also many risks and conflicts can be avoided.",Mec Rloc- Others Trans,"By telling their relatives that they may have a risk of carrying the disease gene, they can make their family members bond closely, and many risks and conflicts can be avoided.",Mec Pref Trans
"However, there rises a family-related ethical dilemma if it is right to tell a carrier's family once the test has been conducted and the results are known.",,,,,"However, this gives rise to a family-related ethical dilemma regarding whether it is right to tell a carrier's family once the test has been conducted and the results are known.",Wci Prep Trans,,,"However, there arises a family-related ethical dilemma of whether it is right to tell a carrier's family once the test has been conducted and the results are known.",Wform Prep Trans,,,,,"However, there rises a family-related ethical dilemma, as to whether it is right to tell a carrier's family once the test has been conducted and the results are known.",Trans Wci,,,,
Then they are unable to have a suitable method to protect themselves and emotional preparations.,,,,,,,,,,,,,,,,,"If this is the case, they are unable to have a suitable method of protecting themselves and preparing emotionally.",Trans Prep Vform WOadv Spar,"They would be unable to have a suitable method of protecting themselves, or take emotional preparations.",Rloc- Mec Vm Prep Vform Mec Trans V0
"Taking Angeline Jolie for example, she is famous but she still revealed the truth about her genetic testing on the development of her breast cancer risk.",,,,,"Take Angeline Jolie, for example. She is famous but she still revealed the truth about her genetic testing and her breast cancer risk.",Vform Mec Mec Trans,,,,,"Taking Angeline Jolie, for example, she is famous but she still revealed the truth about her genetic testing and the development of her breast cancer risk.",Mec Trans,"Taking Angeline Jolie for example, she is famous but she still revealed the truth about her genetic testing and the development of her breast cancer risk.",Trans,"Taking Angeline Jolie for example, she is famous but she still revealed the truth about her genetic testing and the development of her risk of breast cancer.",Trans WOadv WOadv,,,,
"Moreover, the truth cannot be hidden forever but when it is revealed, more shocking and upset it will be.","Moreover, the truth cannot be hidden forever and when it is revealed, it will be more shocking and upsetting.",Trans WOinc Wform WOinc,,,,,"Moreover, the truth cannot be hidden forever and, when it is revealed, the more shocking and upsetting it will be.",Trans SVA Vform,,,,,,,"Moreover, the truth cannot be hidden forever, and when it is revealed, it will be more shocking and upsetting.",Mec Trans WOinc Wform WOinc,,,,
"In addition, emotional preparations and the ways you explain your genetic condition is also important so that you can convey the correct information to your family and relatives and if necessary to guide them if he/she wish to conduct a similar genetic testing.",,,,,,,,,,,,,,,"In addition, emotional preparation and the way in which you explain your genetic condition is also important, so that you can convey the correct information to your family and relatives and, if necessary, to guide them if they wish to conduct similar genetic testing.",Nn Nn Trans Mec Mec Mec Pform ArtOrDet,,,,
Social media has been playing a vital important role in our lives today.,,,,,,,,,Social media plays a vital and important role in our lives today.,Vt Trans,,,,,,,,,,
"And also, we get a chance to talk to public people like popular stars and know their life better.",We also get the chance to talk to public figures like popular stars and find out more about their lives.,Trans WOinc ArtOrDet Wci Wci,,,,,"and we also get a chance to talk to public figures, such as pop stars, and get to know them better.",Mec WOinc Wci Trans Wci Mec Wci Pform Rloc-,,,,,,,"Also, we get a chance to talk to public people like popular stars and know their life better.",Trans Mec,"Also, we get a chance to talk to public people like popular stars and know their life better.",Trans Mec,,
And actually lots of rescuing jobs are done with the help of social media like looking for people get lost and so on.,"And actually lots of rescues are completed with the help of social media, for example, looking for people who are lost and so on.",Wform Rloc- Wci Srun Trans Ssub Vform,,,,,"In fact much of their work is done with the help of social media, such as looking for missing people and so on.",Trans Wtone Wtone ArtOrDet Wci SVA Trans Wci Rloc- Rloc-,,,,,,,"Actually, lots of rescuing jobs are done with the help of social media like looking for people who are lost and so on.",Trans Mec Vform,,,,
"This kind of feeling makes people's relationship not as stable, secure and reliable than before.",,,,,,,,,,,,,,,,,"This kind of feeling makes people's relationships not as stable, secure or reliable than before.",Nn Trans,"This kind of feeling makes people's relationships not as stable, secure or reliable than before.",Nn Trans
"To some extent, this makes our life more luxry and blundering.",,,,,,,,,,,"To some extent, this makes our lives more luxurious blundering.",Nn Wform Trans Um,,,"To some extent, this makes our life more luxurious blundering.",Mec Trans Um,,,,
"While millions of users are connect at any one time, any information can be readily available at their perusal.",Millions of users are connected at any one time and any information can be readily available for their perusal.,Trans Mec Vform Srun Trans Prep,,,,,,,,,,,,,,,,,,
Having to meet and interact for talks allows one to be closer to the recepient.,Having to meet and interact while talking allows one to be closer to the recepient.,Trans Prep Vform,,,,,,,,,,,,,,,,,,
"Though social media need not be necessarily bad, it must be used accordingly - for work, family, friends.",,,"Though social media need not be necessarily bad, it must be used responsibly - for work, family and friends.",Wci Trans,,,,,"Though social media need not necessarily be bad, it must be used accordingly - for work, family, and friends.",WOadv Trans,"Though social media need not necessarily be bad, it must be used appropriately - for work, family and friends.",WOadv WOadv Wci Trans,,,"Though social media need not be necessarily bad, it must be used accordingly - for work, family, and friends.",Trans,"Though social media need not necessarily be bad, it must be used accordingly - for work, family, and friends.",WOinc WOinc Trans,"Though social media need not necessarily be bad, it must be used accordingly for work, family and friends.",WOadv Mec Trans
"However, thanks to facebook, I can still keep in touch with them and I know what they are doing recently as we living close to each other.",,,"However, thanks to facebook, I can still keep in touch with them and find out what they were doing recently as if we were living close to each other.",Rloc- Wci Vt Trans Vt,,,,,"However, thanks to Facebook, I can still keep in touch with them and I know what they are doing recently as if we were living close to each other.",Mec Trans V0,"However, thanks to facebook, I can still keep in touch with them and I know what they are doing recently as if we were living close to each other.",Trans V0,,,"However, thanks to Facebook, I can still keep in touch with them and I know what they are doing recently as if we are living close to each other.",Mec Trans V0,,,,
"In addition, with all those "" nice "" guys around on the social network website, one may neglect people surrounding him or her but just communicate with friends on facebook.","In addition, with all the "" nice "" guys around on social network websites, one may neglect the people surrounding them and just communicate with friends on facebook.",ArtOrDet ArtOrDet Nn ArtOrDet Pform Trans,,,"In addition, with all those "" nice "" guys around on the social network, one may neglect people surrounding one and just communicate with friends on Facebook.",Rloc- Pref Trans Mec,"In addition, with all these "" nice "" guys on the social network website, one may neglect people surrounding him or her and just communicate with friends on Facebook.",ArtOrDet Prep Trans Mec,"In addition, with all those "" nice "" people around on the social network websites, one may neglect the people surrounding them and only communicate with friends on Facebook.",Wtone Nn ArtOrDet Pref Trans Wci Mec,"In addition, with all those "" nice "" guys around on the social network website, one may neglect people surrounding him or her and just communicate with friends on facebook.",Trans,"In addition, with all those "" nice "" guys around on the social network website, one may neglect people surrounding him or her and just communicate with friends on facebook.",Trans,,,"In addition, with all those "" nice "" guys around on the social network website, one may neglect people surrounding them and just communicate with friends on Facebook.",Pref Trans Mec,,
"This had caused panic among the people who had flooded the local police department with numerous phone calls, and this had resulted temporarily closed of schools.",,,,,,,,,,,,,,,"This had caused panic among the people, who had then flooded the local police department with numerous phone calls, and this had resulted temporarily closed of schools.",Mec Trans,,,,
"But, there will still be unreliable sources spreading false information on social media sites despite high security to control almost every social networking movement.","However,, there are still unreliable sources spreading false information on social media sites despite high security controlling almost every social networking movement.",Trans Vform Rloc- Prep Vform,,,,,,,,,,,,,,,,,,
"However, in order for people to maintain their relationship as well as making new friends, it requires mutual trust and understanding between both parties.","However, in order for people to maintain their relationships and make new friends, mutual trust and understanding is required between both parties.",Nn Trans Vform Rloc- WOinc WOinc,,,,,,,,,,,,,,,,,,
"All-in-all, social media is the product of rapid technological advancement and there are more to come in future.",,,,,,,,,,,,,,,"All-in-all, social media is the product of rapid technological advancement of which there are more to come in future.",Trans,,,,
The society will adapt to such phenomenon as physical interaction are transformed into cyber interaction.,Society will adapt to such a phenomenon and physical interaction will be transformed into cyber interaction.,ArtOrDet Mec ArtOrDet Trans Vform,,,,,,,,,,,,,,,,,,
The danger of such media socialisation is the uncertainty of such communication due to lack of physical interaction.,,,,,,,,,,,,,,,The danger of such media socialisation is therefore the uncertainty of such communication due to lack of physical interaction.,Trans,,,,
Several arguments have been made regarding the social media actually have some inevitable disadvantages to people.,,,,,Several arguments have been made regarding whether social media actually have some inevitable disadvantages for people.,Trans ArtOrDet Prep,Several arguments have been made regarding the fact that social media actually has some inevitable disadvantages for people.,Trans SVA Prep,Several arguments have been made regarding whether social media actually has some inevitable disadvantages to people.,Trans SVA,,,,,Several arguments have been made regarding how social media actually has some inevitable disadvantages for people.,Trans SVA Prep,,,,
"Firstly, they have lost the courage to meet strangers, not even the courage to talk.",,,,,,,"Firstly, they will have lost the courage to meet strangers and even the courage to talk.",Vt Trans,"Firstly, they have lost the courage to meet strangers, and even the courage to talk.",Trans,"Firstly, they will have lost the courage to meet strangers, or even the courage to talk.",Vt Trans,,,,,,,"Firstly, they will lose the courage to meet strangers, or even the courage to talk.",Vt Trans
"When one of his friends who is not aware of this has failed to contact him via telephone calls, he might be able to get his whereabout using social media.","If one of his friends, who is not aware of this, fails to contact him via telephone calls, he might be able to find his whereabouts using social media.",Trans Srun Srun Vform Wci Mec,,,,,,,,,,,,,,,,,,
"This is because by the ease of technology such as airplane, some of our friends might be going overseas to continue their studies or even you are away from your family to pursue your studies or even careers in life.",,,,,,,"This is because, due to the ease of technology such as airplanes, some of our friends might be going overseas to continue their studies or even you yourself are going away from your family to pursue your studies or career in life.",Mec Trans Nn Others V0 Rloc- Nn,,,,,,,"Through the ease of technology such as airplane, some of our friends might be going overseas to continue their studies, or even you are away from your family to pursue your studies or even careers in life.",Trans Prep Mec,,,"This is because, with the ease of technology such as airplanes, some of our friends might go overseas to continue their studies. Maybe even you are away from your family, to pursue your studies or even your career.",Mec Prep Nn Vt Srun Trans Mec ArtOrDet Nn Prep Rloc-
This becomes a huge problem when they have no choice but have to face things in real life.,,,,,,,,,,,This becomes a huge problem when they have no choice and have to face things in real life.,Trans,,,,,,,,
"The reason why it is so addictive is, that the more people get into the social media, they seek attention from their friends.",The reason why it is so addictive and why more people are getting into social media is because they seek attention from their friends.,Trans Rloc- Ssub ArtOrDet Vform ArtOrDet Srun Trans,,,,,,,,,,,,,,,,,,
Social media definitely has some other strong benefits that make the users stay is the links among the people.,"Social media definitely has some other strong benefits that make users stay, for example, the links among people.",ArtOrDet Srun Rloc- Trans ArtOrDet,,,,,,,"Social media definitely has some other strong points that make the users stay, such as the links among people.",Wci Mec Trans ArtOrDet,Social media definitely has some other strong benefits that make the users stay like the links among the people.,Trans,,,"Social media definitely has some other strong benefits that make the users stay, particularly the links with people.",Mec Trans Prep ArtOrDet,,,,
"On another hand, we could update our profile by posting on the wall and our friends could read up on the newsfeed.",,,,,,,,,,,,,,,,,,,"On the other hand, we could update our profile by posting on our wall, which our friends could read on their newsfeeds.",ArtOrDet Wci ArtOrDet Mec Trans Ssub Prep ArtOrDet Nn
This allows friends that may not have the time for meet up to still connected in a way.,,,,,,,"This allows friends, who may not have the time for meet up, to still be connected in a way.",Mec Trans Mec Vt,,,,,,,,,,,,
The obvious disadvantage of using social media is that the time reduction on face-to-face contact.,,,,,,,The obvious disadvantage of using social media is the time reduction in face-to-face contact.,Trans Prep,,,,,,,"The obvious disadvantage of using social media, is the time reduction on face-to-face contact.",Mec Trans,,,,
The users of every social media sites need to strike a balance between the real world versus the virtual one.,The users of social media sites need to strike a balance between the real world and the virtual one.,Rloc- Trans,The users of social media sites need to strike a balance between the real world and the virtual one.,ArtOrDet Trans,,,The users of social media sites need to strike a balance between the real world and the virtual one.,Rloc- Trans,,,The users of every social media site need to strike a balance between the real world and the virtual one.,Nn Trans,,,,,,,The users of every social media site need to strike a balance between the real world and the virtual one.,Nn Trans
"Ultimately, the best way to enhance interpersonal skills is still through face-to-face meetings but social media sites are only the tools to enhance it.","Ultimately, the best way to enhance interpersonal skills is still through face-to-face meetings, social media sites are only the tools to enhance it.",Srun Trans,,,"Ultimately, the best way to enhance interpersonal skills is still through face-to-face meetings, and social media sites are only tools to enhance it.",Mec Trans ArtOrDet,"Ultimately, the best way to enhance interpersonal skills is still through face-to-face meetings and social media sites are only the tools to enhance it.",Trans,"Ultimately, the best way to enhance interpersonal skills is still through face-to-face contact, where social media sites are only tools to enhance it.",Wci Trans ArtOrDet,"Ultimately, the best way to enhance interpersonal skills is still through face-to-face meetings and social media sites are only the tools to enhance it.",Trans,,,,,,,"Ultimately, the best way to enhance interpersonal skills is still through face-to-face meetings, and social media sites are only tools to enhance it.",Mec Trans ArtOrDet
"Through the social media sites, we can chat with our friends who stay in Europe and New Zealand.",,,,,,,,,,,"Through social media sites, we can chat with our friends who stay in Europe or New Zealand.",ArtOrDet Trans,,,,,,,,
The auto correction software is so effective when using electronic device until we did not realize the importance of writing.,,,,,,,The auto correction software is so effective when using electronic device that we do not realize the importance of writing.,Trans Vt,,,,,,,The auto correction software is so effective when using electronic device that we do not realize the importance of writing.,Trans Vt,,,,
"Although it looks like no laws and it is your own space to speak and do anything you want, you are actually wrong.",,,,,,,,,"Although it looks like it is free and like it is your own space to speak and do anything you want in, you are actually wrong.",Wci Trans Prep,,,,,,,,,,
"On one side, it is obvioualy that many advantages have been brought to our lives.",,,,,,,,,,,,,"On one hand, it is obvious that many advantages have been brought to our lives.",Trans Wform,,,,,,
This is a potential danger for teenagers who are growing with social changes to get hurt.,,,,,,,,,There is a potential danger for teenagers who are growing and experiencing social changes to get hurt.,ArtOrDet Trans V0,,,,,,,,,"This is a potential danger for teenagers, who are growing and undergoing social changes, to get hurt.",Mec Trans Prep V0 Mec
Geographical and transportation borders are not a problem anymore because communication and information technologies were enhanced continuously.,Geographical borders are not a problem anymore because communication and information technology has been continuously enhanced.,Trans Rloc- Nn Vform WOadv,,,,,,,,,,,,,,,,,,
"Facebook is like a combination of message and chatting service, personal profile, media of sharing, and other entertainment add-on (i.e.",,,"Facebook is a combination of a message and chatting service, personal profile, media and sharing platform, and other entertainment add-on (i.e.",Rloc- ArtOrDet Trans Others,,,,,,,,,,,,,,,,
"For Facebook, a comprehensive way of sharing is offered since multiple photos and videos can be uploaded, long notes can be published, even documents and data can be shared through Facebook nowadays.",,,,,"With Facebook, a comprehensive way of sharing is offered, since multiple photos and videos can be uploaded, long notes can be published, and even documents and data can be shared through Facebook nowadays.",Prep Mec Trans,"For Facebook, a comprehensive way of sharing is offered since multiple photos and videos can be uploaded, long notes can be published, and documents and data can be shared.",Trans Rloc-,"For Facebook, a comprehensive way of sharing is offered since multiple photos and videos can be uploaded, long notes can be published, and even documents and data can be shared through Facebook nowadays.",Trans,,,,,"For Facebook, a comprehensive way of sharing is offered: multiple photos and videos can be uploaded; long notes can be published, and even documents and data can be shared through Facebook nowadays.",Mec Rloc- Mec Trans,"For Facebook, a comprehensive way of sharing is offered since multiple photos and videos can be uploaded and long notes can be published; even documents and data can be shared through Facebook nowadays.",Mec Trans Mec,"For Facebook, a comprehensive way of sharing is offered since multiple photos and videos can be uploaded, and long notes can be published. Even documents and data can be shared through Facebook nowadays.",Trans Srun
"As the consequence, it affects their interpersonal skills.",,,,,,,,,,,,,"As a consequence, interpersonal skills are affected.",Trans WOinc,,,,,,
"Because of this, other people start to think that our lives are full of happiness with no problem at all.","Because of this, other people might start to think that our lives are full of happiness and that we have no problems at all.",V0 Trans Prep V0 Nn,,,,,,,,,,,,,,,,,,
"As a result, people think of theirselves lowly and may lead to depression and mental disorder.","As a result, people might think of themselves as lowly which may lead to depression and mental illness.",V0 Pform Prep Trans Ssub Wci,,,,,,,,,,,,,"As a result, people think of theirselves poorly, which may lead to depression and mental disorder.",Wci Trans,,,,
"However, calling a person by using a phone and writing a person a letter require some cost, and sending a letter to a person who live far away, especially in villages, takes much time.","However, calling a person on the phone or writing them a letter costs money, and sending a letter to a person who lives far away, especially in a village, takes a lot of time.",Prep Rloc- ArtOrDet Trans Pform Rloc- ArtOrDet Others SVA ArtOrDet Wci Prep,"However, calling a person by phone or writing them a letter required some cost, and sending a letter to a person who lived far away, especially in villages, takes much time.",Rloc- Trans Others Vt Vt,,,,,,,,,,,,,,,,
"If phone and letter are the only way to contact them, we would probably not able to find them.",,,"If phone or letter is the only way to contact them, we would probably not be able to find them.",Trans SVA V0,,,,,,,,,,,,,,,,
"In addition, there are also some false reports and fake IDs occur on both social media sites that people use fake ID to insult or harass someone, like the case of Heather Chua occurred recently on Facebook.","In addition, there are also false reports and fake IDs on both social media sites; people often use these fake IDs to insult and harass people, like the case of Heather Chua which occurred recently on Facebook.",ArtOrDet Rloc- Srun Rloc- Others ArtOrDet Nn Trans Wci Ssub,"In addition, there are also false reports and fake IDs on both social media sites, such that people use fake IDs to insult or harass someone, like in the case of Heather Chua, which occurred recently on Facebook.",ArtOrDet Rloc- Mec Trans Nn Prep Ssub,,,"In addition, there are also some false reports and fake IDs on both social media sites that people use to insult or harass someone, like the case of Heather Chua which occurred recently on Facebook.",Rloc- Rloc- Trans,,,,,"In addition, there are some false reports and fake IDs on social media sites that people use to insult or harass someone, like the case of Heather Chua recently on Facebook.",Trans Sfrag ArtOrDet Sfrag Sfrag,"In addition, there are also some false reports and fake IDs occurring on both social media sites, that people use to insult or harass someone, like the case of Heather Chua which occurred recently on Facebook.",Vt Mec Rloc- Trans,,,"In addition, there are also some false reports and fake IDs appearing on social media sites, for example that sites people use fake IDs to insult or harass someone, like the case of Heather Chua which occurred recently on Facebook.",Wci ArtOrDet Mec Trans Nn Ssub
"This has been indicated in a report done by Boston University in 2012, 80% of information posted online is true while a person may like 3 out of 10 times in real life.","This was indicated in a report done by Boston University in 2012, 80% of information that is posted online is true whereas a person may lie 3 out of 10 times in real life.",Vform Ssub V0 Trans Wci,,,"It has been indicated in a report done by Boston University in 2012, that 80% of information posted online is true, while a person may lie 3 out of 10 times in real life.",Pref Trans Mec Mec,,,,,,,,,,,,,,
That is because we are acting who we are in reality while we have no reason to do that in the online virtual world.,,,That is because we act who we really are in reality but have no reason to do so in an online virtual world.,Vform Others Trans Rloc- Pref ArtOrDet,,,,,,,,,,,,,,,,
One of the examples is the 2012 riots happened in Egypt and Zambia.,,,,,,,One of the examples is the 2012 riots which happened in Egypt and Zambia.,Trans,One of the examples is the 2012 riots which happened in Egypt and Zambia.,Trans,,,,,One of the examples is the 2012 riots that happened in Egypt and Zambia.,Trans,,,,
These social media may be tools of their campaign and manipulating the thoughts of the public.,social media may be used as a tool in their campaign to manipulate the thoughts of the public.,ArtOrDet V0 Prep Prep Prep Trans Vform,,,,,,,,,,,,,,,,,"These social media may be tools of their campaign, manipulating the thoughts of the public.",Mec Trans
"Though because of this, social media is still a much fairer and more transparent online platform for the public to share ideas compared to other traditional medias.",,,,,,,,,,,,,"Despite this, social media is still a much fairer and more transparent online platform for the public to share ideas compared to other traditional medias.",Trans,,,,,,
It is commonly seen in a food court or restaurant that a group of people sitting together around a table with each of them having a cell phone in their hands.,,,"It is commonly seen in a food court or restaurant that a group of people sit together around a table, but each of them have a cell phone in their hands.",Vform Trans Prep Vform,,,"It is common to see, in a food court or restaurant, a group of people sitting together around a table with each of them having a cell phone in their hands.",Wform Vt Mec Trans,It is commonly seen in food courts and restaurants that a group of people sitting together around a table will each have a cell phone in their hands.,ArtOrDet Nn Trans Nn Vm Prep Rloc- Vform,,,,,,,,,,
"More and more advertisements can be found on Facebook, whether it is our friends who sell their products or professional brands selling their products online, we can get to buy and contact the sellers through those sites, which can be considered as an advantage for us, the buyers.",,,,,,,,,"More and more advertisements can be found on Facebook, whether it is our friends who are selling their products or professional brands selling their products online, and we get to buy and contact the sellers through those sites, which can be considered an advantage for us, the buyers.",V0 Trans Rloc- Rloc-,,,,,"More and more advertisements can be found on Facebook; whether it is our friends who sell their products, or professional brands selling their products online, we can get to buy and contact the sellers through those sites. This can be considered an advantage for us, the buyers.",Mec Mec Srun Trans,,,,
"Other than that, sometimes the message of one party cannot be delivered properly to the other one since the communication is done through written language, and thus the 'tone' of the message sent and when it is received may be different.","As well as that, sometimes the message of one party cannot be delivered properly to the other one since the communication is done through written language; the 'tone' of the message sent may be different when it is received.",Wci Srun Rloc- Trans WOinc WOinc,,,,,,,,,,,,,,,,,,
Some people fake their identities in media sites so that they can know more people or some may even cheat others.,"Some people fake their identities on media sites so that they can get to know more people, some may even cheat others.",Prep V0 Prep Srun Trans,Some people fake their identities on media sites so that they can meet more people and some may even cheat others.,Prep Wci Trans,,,,,"Some people fake their identities on media sites so that they can get to know more people, and some may even cheat others.",Prep V0 Mec Trans,,,,,,,,,,
Social media sites like Twitter and Facebook are popular among people in order for them to connect to others even from different countries.,Social media sites like Twitter and Facebook are popular among people because they connect them to people from different countries.,Trans Prep WOinc Wci Rloc-,,,,,,,,,,,,,,,,,"Social media sites like Twitter and Facebook are popular among people, because they connect them to others, even those in different countries.",Mec Trans Pref Prep Pref Mec Pref Prep
"One of the significant advantages of using a popular social media site is that people can reach other easily, even without contact for a long time.","One of the significant advantages of using a popular social media site is that people can reach other easily, even if they have not been in contact for a long time.",Trans Wci Prep,,,,,,,,,,,,,,,,,,
"In this fast pace and competitive world, people may not able to keep in touch with others.",,,,,,,,,,,,,"In the fast pace of our competitive world, people may not be able to keep in touch with others.",ArtOrDet Trans V0,,,,,,
Students can exchange their experiences in study even they are in different countries.,Students can exchange their experiences of studying even if they are in different countries.,Prep Vform Trans,Students can exchange their studying experiences even if they are in different countries.,Wci Trans,Students can exchange experiences in their studies even if they are in different countries.,ArtOrDet ArtOrDet Nn Trans,Students can exchange their experiences even if they are in different countries.,Rloc- Trans,,,,,Students can exchange their experiences about their studies even if they are in different countries.,Prep Nn Trans,"Students can exchange their experiences from studies, even when they are in different countries.",Prep Nn Trans,,,,
"People are able to share the culture or pretty photos online, therefore others can spread the joy with them.",,,,,"People are able to share culture or pretty photos online, and others can spread the joy with them.",ArtOrDet Trans,,,"People are able to share their culture or pretty photos online, and therefore others can share the joy with them.",ArtOrDet Trans Wci,,,"People are able to share cultures and pretty photos online. Therefore, others can spread joy to others.",ArtOrDet Nn Trans Mec Mec ArtOrDet Prep Pref,,,,,"People are able to share their culture or pretty photos online, so that others can share the joy with them.",ArtOrDet Trans Wci
Social media sites suppose be a very useful and convenient tool to use and bring people get closer in this globalised world.,,,Social media sites are supposed to be a very useful and convenient tool to use that brings people together in this globalised world.,Vform Prep Ssub Trans Nn Wci,,,,,,,,,Social media sites are supposed to be very useful and convenient tools to bring people closer together in this globalised world.,Vm ArtOrDet Nn Wci Trans Wci Wci,"Social media sites are supposed to be a very useful and convenient tool to use, bring people closer in this globalised world.",Vform Vform Mec Trans Vform,,,,
They are just scrolling down pages of pages of pictures and statuses and see one of them which they might think it funny.,they are just scrolling down pages upon pages of pictures and statuses until they see one which they think is funny.,Mec Prep Trans Pform Prep Rloc- Rloc- Wci,,,,,They are just scrolling down pages and pages of pictures and statuses and seeing one of them which they might think funny.,Trans Vt Pform,They are just scrolling down pages and pages of pictures and statuses and see one which they might think is funny.,Trans Prep Rloc- Mec,They are just scrolling down pages and pages of pictures and statuses and seeing one of them which they might think is funny.,Trans Vform Mec,,,,,,,"They are just scrolling down through pages and pages of pictures and statuses, and see one of them which they might think is funny.",Prep Prep Trans Mec Mec
"The communication does not focus on how we feel, or to say, each otherm, but whatever is interesting, or the content.",,,,,,,,,,,,,,,"The communication does not focus on how we feel, what to say, each other, but rather, whatever is interesting, or the content.",Trans Mec Trans,,,,
"There are advantages and disadvantages in itself, however, whether it is good or bad we are still not sure.",,,,,,,,,"There are advantages and disadvantages to it, however, but whether it is good or bad we are still not sure.",Prep Pform Trans,,,,,,,,,,
Updated news people care about can be easily obtained when you refresh your social media sites on your smart phones and laptops almost every time at any time.,,,,,,,Up to date news that people care about can be easily obtained when you refresh your social media sites on your smart phones and laptops almost every time and at any time.,Wci Trans Trans,,,,,,,"Updated news that people care about can be easily obtained when you refresh your social media sites on your smart phones and laptops, almost every time at any time.",Trans Mec,Updated news people care about can be easily obtained when you refresh your social media sites on your smart phones and laptops almost every time and at any time.,Trans,,
It is quite significant especially for those young teenagers since they would rather go to these sites to see the news and know what happened in this world than read the newspaper every day.,,,,,,,,,,,,,,,,,,,"This is quite significant, especially for young teenagers, since they would rather go to these sites to see news to find out what has happened in the world, than read the newspaper every day.",Pref Mec Pref Mec ArtOrDet Trans Wci Vt ArtOrDet Mec
We should keep in mind that there are still ways for us to contact with our family or friends.,We should keep in mind that there are still other ways for us to contact our family and friends.,ArtOrDet Prep Trans,,,,,,,We should keep in mind that there are still ways for us to contact our family and friends.,Prep Trans,,,,,,,,,,
"Moreover, people can be aware of what is going on in social situation and see the comments online and share their opinions on these websites.","Moreover, people can be aware of what is going on with a social situation, see the comments online and share their opinions on these websites.",Prep ArtOrDet Srun Trans,,,,,,,,,,,,,,,"Moreover, people can be aware of what is going on in social situations, see the comments online and share their opinions on these websites.",Nn Trans,,
"Actually, I have seen some people are very funny and interesting when I am chatting with them online.","Actually, I have thought some people were very funny and interesting after chatting to them online,",Wci Vt Trans Rloc- Vform Prep Srun,,,"Actually, I have seen that some people are very funny and interesting when I am chatting with them online.",Trans,,,,,,,,,,,,,,
"However, they behave quite boring when I talk to them in real life.",only to find that they are quite boring when I talk to them in real life.,Trans Wci,,,,,,,,,,,,,,,,,,
So we need to make best use of these social media and make it a fun way of adding some excitement when life is boring.,"So we need to make good use of social media, make it a fun way of adding some excitement when life is boring",Wci ArtOrDet Srun Trans Srun,,,,,,,,,,,,,,,,,,
"For example, on mother's day, people are shy to say "" I love you "" to their mothers so they can type it on his or her mother's facebook page.","For example, on mother's day, if people are too shy to say "" I love you "" to their mothers they can type it on their mother's facebook page.",Trans Others Rloc- Pform,,,"For example, on Mother's Day, people are too shy to say "" I love you "" to their mothers, but they can type it on their mother's Facebook page.",Mec Others Mec Trans Pref Mec,,,,,,,,,"For example, on Mother's Day, people are shy to say "" I love you "" to their mothers, so instead they can type it on his or her mother's facebook page.",Mec Mec Mec Trans,,,,
"Secondly, the social media sites cannot only connect people with their friends closely.",,,,,,,"Secondly, the social media sites cannot only connect people with their friends closely but also",Trans,,,,,,,"Secondly, social media sites cannot only connect people with their friends closely, but",ArtOrDet Trans,,,,
People even prefer talk to their friends and meet their friends online and gradually reject face-to-face communication.,"People even prefer talking to their friends and meeting their friends online and therefore, will gradually reject face-to-face communication.",Vform Vform Trans V0,,,,,,,,,Even people who prefer to talk to their friends will meet their friends online and gradually reject face-to-face communication.,WOadv WOadv Ssub Prep Trans V0,,,"People may even prefer to talk to their friends and meet their friends online, and then gradually reject face-to-face communication.",Vm Vt Mec Trans,,,,
Teenagers may believe these people and easily be cheat and lose money even their safe.,,,Teenagers may believe these people and be easily cheated and lose money or even their safety.,WOadv Vform Trans Wform,"Teenagers may believe these people and easily be cheated and lose money, or even their safety.",Vt Mec Trans Wform,Teenagers may believe these people and easily be cheated and lose money or even their safety.,Vt Trans Wform,,,Teenagers may believe these people and easily be cheated and lose money or even their safety.,Vform Trans Wform,,,"Teenagers may believe these people and be easily cheated, or even lose money, even if they're safe.",WOadv WOadv Vt Trans Mec Trans Mec,,,"Teenagers may believe these people and easily be cheated, and lose money or even their safety.",Vt Trans Wform
"Then, we need to talk about the advantages and disadvantages of using social media in your daily life and society.","Therefore, we need to talk about the advantages and disadvantages of using social media in our daily lives and society.",Trans Pform Nn,"Thus, we need to talk about the advantages and disadvantages of using social media in our daily lives and society.",Trans Pref Nn,"Therefore, we need to talk about the advantages and disadvantages of using social media in our daily life and society.",Trans ArtOrDet,,,,,,,"Thus,, It is importnat to examine the advantages and disadvantages of using social media in daily life and society.",Trans Wci Wci Pref,"Therefore, we need to talk about the advantages and disadvantages of using social media in daily life and society.",Trans Pref,,,"Therefore, we need to talk about the advantages and disadvantages of using social media in daily life and in society.",Trans ArtOrDet Prep
"If there is a joke on their facebook page, they may talk to others in this way, "" hi, look, how ridiculous this is "", then they laugh together.",,,,,,,,,,,,,,,,,,,"If there is a joke on their Facebook page, they may talk to others in this way: "" Hi, look, how ridiculous this is "", and then they laugh together.",Mec Mec Mec Trans
People should enjoy the advantages of social media while be aware of the disadvantages of that and try their best to avoid the disadvantages happen to them and their friends and family.,People should enjoy the advantages of social media while being aware of the disadvantages; trying their best to avoid the disadvantages happening to themselves and their friends and family.,Vform Srun Rloc- Trans Vform Vform Pform,,,,,,,,,,,,,,,,,"People should enjoy the advantages of social media while being aware of the disadvantages, and try their best to avoid the disadvantages from happening to them, their friends and their family.",Vform Mec Prep Pref Prep Vform Mec Trans ArtOrDet
"Last but not least, social media does affect human interpersonal skills when people increase the time on social sites and reject chances to expose to social daily life activities as well as interacting with people.","Last but not least, social media could affect human interpersonal skills if people increase the time they spend on social media and reject chances to take part in daily social activities as well as to interact with people.",Vm Trans Pform V0 Wci Wci Prep WOinc Rloc- Prep Vform,,,,,,,"Last but not least, social media does affect human interpersonal skills when people increase the time they spend on social media sites and reject chances to be exposed to daily social activities and interact with other people.",Others Others Vform WOadv Rloc- Trans Vform Others,,,,,,,,,,
