Original sentence,Expected sentence (Annotation 1),Mistake categories (Annotation 1),Expected sentence (Annotation 2),Mistake categories (Annotation 2),Expected sentence (Annotation 3),Mistake categories (Annotation 3),Expected sentence (Annotation 4),Mistake categories (Annotation 4),Expected sentence (Annotation 5),Mistake categories (Annotation 5),Expected sentence (Annotation 6),Mistake categories (Annotation 6),Expected sentence (Annotation 7),Mistake categories (Annotation 7),Expected sentence (Annotation 8),Mistake categories (Annotation 8),Expected sentence (Annotation 9),Mistake categories (Annotation 9),Expected sentence (Annotation 10),Mistake categories (Annotation 10)
"Although some people feel that an individual who is found to carry a dominant gene for Huntington's disease has an ethical obligation to disclose that fact to his or her siblings, there currently is no legal requirement to do so.","Although some people feel that an individual who is found to carry the dominant gene for Huntington's disease has an ethical obligation to disclose this fact to their siblings, there is currently no legal requirement to do so.",ArtOrDet Pform Pform WOadv,"Although some people feel that an individual who is found to carry a dominant gene for Huntington's disease has a moral obligation to disclose that fact to his or her siblings, there is currently no legal requirement to do so.",Wci WOadv,"Although some people feel that an individual who is found to carry a dominant gene for Huntington's disease has an ethical obligation to disclose that fact to his or her siblings, there is currently no legal requirement to do so.",WOadv,"Although some people feel that an individual who is found to carry a dominant gene for Huntington's disease has an ethical obligation to disclose that fact to their siblings, there is currently no legal requirement to do so.",Pref WOadv,""" Although some people feel that an individual who is found to carry a dominant gene for Huntington's disease has an ethical obligation to disclose that fact to his or her siblings, there currently is no legal requirement to do so.",Mec,,,,,,,,,,
"In fact, requiring someone to communicate his or her own genetic risk to family members who are therefore also at risk is considered by many to be ethically dubious.","In fact, requiring someone to communicate their own genetic risk to family members, who are also at risk, is considered by many to be ethically dubious.",Pform Srun Rloc- Srun,"In fact, requiring someone to communicate their own genetic risk to family members, who are therefore also at risk, is considered by many to be ethically dubious.",Wci Mec Mec,"In fact, requiring someone to communicate their own genetic risk to family members who are therefore also at risk is considered by many to be ethically dubious.",Pref,"In fact, requiring someone to reveal his or her own genetic risk to family members, who are therefore also at risk, is considered by many to be ethically dubious.",Wci Mec Mec,,,,,,,,,,,,
"For example, if a carrier is told that he/she has the risk to have diabetes.","For example, if a carrier is told that they are at risk of developing diabetes.",Pform Vform ArtOrDet Prep Wci,"For example, if a carrier is told that he/she is at risk of having diabetes.",Wci ArtOrDet Prep Prep Vform,"For example, if a carrier is told that he/she has the risk of having diabetes.",Prep Vform,"For example, if a carrier is told that they have the risk of having diabetes.",Pform SVA Vform,"For example, if a carrier is told that he/she has a risk of having diabetes.",ArtOrDet Prep Vform,"For example, if a carrier is told that he/she has the risk of diabetes.",Prep Rloc-,"For example, if a carrier is told that they have the risk of diabetes.",Pref SVA Wci,"For example, if a carrier is told that he/she has a high risk of developing diabetes.",ArtOrDet Wci Prep Wci,,,,
It is againt his or her human rights and it is against the law's spirit.,It would be againt their human rights and it would be against the spirit of the law.,Vt Pform Vt WOinc,It is againt their human rights and it is against the spirit of the law.,Spar Wci,It is againt his or her human rights and it is against the law's spirit as,Trans,It is againt their human rights and it is against the law's spirit.,Pref,it is against his or her human rights and it is against the law's spirit.,Ssub,it violates his or her human rights and it is against the law's spirit.,Mec Wci Rloc-,it is againt their human rights and it is against the law's spirit.,Mec Pref Rloc- Rloc-,It is against their human rights and it is against the spirit of the law.,Mec ArtOrDet Wci,,,,
"For a genetic risk carrier, there should be choice given with regards to informing his/her relatives.","For a genetic risk carrier, they should be given a choice with regards to informing their relatives.",Pform WOinc ArtOrDet WOinc Pform,"For a genetic risk carrier, a choice should be given with regards to informing his/her relatives.",WOinc,"For a genetic risk carrier, there should be a choice given with regards to informing his/her relatives.",ArtOrDet,"For a genetic risk carrier, there should be a choice with regards to informing his/her relatives or not.",ArtOrDet Rloc- Others,"For a genetic risk carrier, there should be a choice given with regards to informing their relatives.",ArtOrDet Pref,"For a genetic risk carrier, there should be a choice given regarding informing his/her relatives.",ArtOrDet Trans,"For a genetic risk carrier, there should be choice given with regards to informing his relatives.",Pref Pref,,,,,,
"However, there is a role and a sense of responsibility to inform their relatives since it is a genetic disorder.",,,,,,,,,,,"However, they have a to play and a responsibility to inform their relatives since it is a genetic disorder.",Pform Wci Wci Wci,"However, there is a role and a sense of responsibility to inform relatives, since it is a genetic disorder.",Pform Mec,,,,,,
There might be a possibility that the genetic disorder could also affect their relatives and any other families within the same family tree.,,,,,,,,,,,There is a possibility that the genetic disorder could also affect relatives and any other families within the same family tree.,Vm Vform Pform,,,,,,,,
"One may think that if the carrier is a caring person who loves his or her family more than himself, there is no doubt that he or she will tell his or her family about the issue.","One may think that if the carrier is a caring person who loves their family more than themselves, there is no doubt that they will tell their family about the issue.",Pform Pref Pform Pform,"One might think that if the carrier is a caring person who loves their family more than themself, there is no doubt that they will tell their family about the issue.",Vm Pref Pref Pref Pref,"One may think that if the carrier is a caring person who loves his or her family more than himself, then there is no doubt that he or she will tell his or her family about the issue.",Trans,"One may think that if the carrier is a caring person who loves their family more than themselves, there would be no doubt that he or she would tell their family about the issue.",Pref Pref Vm Vm Pref,"One may think that if the carrier is a caring person who loves his or her family more than him- or herself, there is no doubt that he or she will tell his or her family about the issue.",Pform,,,,,,,,,,
That is true and of course it is the obligation of a family member to protect and take care of the family.,This is true and of course it is the obligation of a family member to protect and take care of their family.,Pform ArtOrDet,"That is true and, of course, it is the obligation of a family member to protect and take care of the family.",Mec Mec,"That is true, and of course it is the obligation of a family member to protect and take care of their family.",Mec Pref,That is true and of course it is the obligation of a family member to protect and take care of their family.,Pform,"That is true, and of course it is the obligation of a family member to protect and take care of the family.",Mec,,,,,,,,,,
"In my opinion, the carrier should tell his or her relatives about it.","In my opinion, the carrier should tell their relatives about it.",Pform,"In my opinion, the carrier should tell his or her relatives about the genetic disease.",Others,"In my opinion, the carrier should tell their relatives about their risk of genetic disease.",Pref Rloc- Pref Others,"In my opinion, the carrier of a genetic disorder should tell his or her relatives about the disorder.",Pref Pref,,,,,,,,,,,,
"In conclusion, personally I feel that it is better for the carrier to inform her family members about the issue.","In conclusion, personally I feel that it is better for the carrier to inform their family members about the issue.",Pform,"In conclusion, I personally feel that it is better for the carrier to inform her family members about the issue.",WOadv,"In conclusion, personally, I feel that it is better for the carrier to inform their family members about the issue.",Mec Pref,"In conclusion, I personally feel that it would be better for the carrier to inform their family members about the issue.",WOadv Vm Pref,"In conclusion, personally I feel that it is better for the carrier to inform family members about the issue.",ArtOrDet,,,,,,,,,,
It could rather be better for him or her this way.,It might be better for them this way.,Vm Rloc- Pform,It could even be better for him or her that way.,Prep ArtOrDet,It could be better for him or her this way.,Rloc-,It could instead be better for them this way.,Wci Pref,It could even be better for him or her this way.,Wci,It could be better for them this way.,Rloc- Pref,,,,,,,,
"When we were born, we were surrounded by our family and relatives, with them welcoming us to this new world.","When we were born, we were surrounded by our family and relatives; they welcommed us into this new world.",Mec Prep Pform Vform Prep,"When we were born, we were surrounded by our relatives, with them welcoming us to this new world.",Rloc-,"When we are born we are surrounded by our family and relatives, with them welcoming us to this new world.",Vt Mec Vt,"When we are born, we are surrounded by our family and relatives, with them welcoming us into the world.",Vt Vt Prep ArtOrDet Rloc-,"When we were born we were surrounded by our family and relatives, with them welcoming us to this new world.",Mec,,,,,,,,,,
"In conclusion, in order to avoid the family-related ethical dilemma, it is best for any carrier of known genetic risk to inform his/her relatives.","In conclusion, in order to avoid family-related ethical dilemmas, it is best for any carrier of a known genetic risk to inform their relatives.",ArtOrDet Nn ArtOrDet Pform,"In conclusion, in order to avoid a family-related ethical dilemma, it is best for any carrier of a known genetic risk to inform his/her relatives.",ArtOrDet ArtOrDet,"In conclusion, in order to avoid family-related ethical dilemmas, it is best for any carrier of a known genetic risk to inform his/her relatives.",ArtOrDet Nn ArtOrDet,"In conclusion, in order to avoid the family-related ethical dilemma, it is best for any carrier of a known genetic risk to inform his/her relatives.",ArtOrDet,"In conclusion, in order to avoid a family-related ethical dilemma, it is best for any carrier of a known genetic risk to inform their relatives.",ArtOrDet ArtOrDet Pref,"In conclusion, in order to avoid the family-related ethical dilemma, it is best for any carrier of a known genetic risk to inform his/ relatives.",ArtOrDet Pref Pref,,,,,,,,
Families give you the courage and support which you cannot retrieve by yourself.,"Families give you courage and support, something you cannot achieve by yourself.",ArtOrDet Srun Rloc- Pform Wci,Families give you the courage and support which you cannot supply by yourself.,Wci,Families give you the courage and support which you cannot find by yourself.,Wci,Families give you the courage and support which you cannot get by yourself.,Wci,Family gives you the courage and support which you cannot muster by yourself.,Nn SVA Wci,Families give you the courage and support which you cannot retrieve yourself.,Prep,Families give you the courage and support which you cannot give yourself.,Wci Prep,,,,,,
The seriousness can be larger than our imagination.,The consequences may be greater than we can imagine.,Wci Vm Wci Pform Vform,The seriousness can be bigger than our imagination.,Wci,The seriousness can be beyond our imagination.,Wci Prep,The seriousness can be worse than our imagination.,Wci,The seriousness can be more severe than is imaginable.,Wci Rloc- Wform,,,,,,,,,,
"In conclusion, a carrier of a known genetic risk is encouraged to tell his or her relatives about the known genetic risk.","In conclusion, a carrier of a known genetic risk is encouraged to tell their relatives about the known genetic risk.",Pform,"In conclusion, a carrier of a known genetic risk should be encouraged to tell his or her relatives about the known genetic risk.",Vt,,,,,,,,,,,,,,,,
"However, if a dignosed carrier is obligated to tell his or her relatives, the relatives will be forced to know their higher chance of being genetic risk carriers.","However, if a diagnosed carrier is obliged to tell their relatives, the relatives will have been forced into knowing their increased chance of being genetic risk carriers.",Rloc- Wci Pform Vform Prep Vform Wci,"However, if a diagnosed carrier is obligated to tell his or her relatives, the relatives will be unable to avoid knowing about their higher chance of being genetic risk carriers.",Mec Wci,"However, if a diagnosed carrier is obligated to tell his or her relatives, the relatives will be forced to know their higher chance of being genetic risk carriers.",Mec,"However, if a diagnosed carrier is obligated to tell their relatives, the relatives will be forced to know about their higher chance of being genetic risk carriers.",Mec Pref Prep,"However, if a diagnosed carrier is obligated to tell his or her relatives, the relatives will be forced to know their higher chances of being genetic risk carriers.",Mec Nn,"However, if a dignosed carrier is obligated to tell his or her relatives, the relatives will be forced to know their higher risk of being genetic risk carriers.",Wci,"However, if a diagnosed carrier is obligated to tell their relatives, the relatives will be forced to know their higher chance of being genetic risk carriers.",Mec Pref,,,,,,
I agree that a carrier of a known genetic risk is obligated to tell his or her relatives.,I agree that a carrier of a known genetic risk is obliged to tell their relatives.,Wci Pform,I agree that a carrier of a known genetic risk should be obligated to tell his or her relatives.,Vt,I agree that a carrier of a known genetic risk should be obligated to tell their relatives.,Vm Pref,,,,,,,,,,,,,,
"If the carrier doesn't tell his or her relatives, it may be too late to get their support and prepare financially.","If the carrier doesn't tell their relatives, it may be too late to get their support and prepare financially.",Pform,"If the carrier does not tell his or her relatives, it may be too late to get their support and prepare financially.",Wtone,"If the carrier does not tell their relatives, it may be too late to get their support and prepare financially.",Wtone Pref,,,,,,,,,,,,,,
The question is whether a carrier of a known genetic risk should tell his or her relatives.,The question is whether the carrier of a known genetic risk should tell their relatives.,ArtOrDet Pform,The question is whether the carrier of a known genetic risk should tell his or her relatives.,ArtOrDet,The question is whether a carrier of a known genetic risk should tell their relatives.,Pref,,,,,,,,,,,,,,
"In my opinion, the carrier of a known genetic risk has to tell his or her relatives about this.","In my opinion, the carrier of a known genetic risk has to tell their relatives about it.",Pform Pform,"In my opinion, the carrier of a known genetic risk has to tell his or her relatives about it.",Pform,"In my opinion, the carrier of a known genetic risk has to tell his or her relatives about this,",Mec,"In my opinion, the carrier of a known genetic risk has to tell their relatives about this.",Pref,,,,,,,,,,,,
This is because his or her relatives have the right to know about this.,This is because their relatives have the right to know.,Pform Prep Pform,This is because his or her relatives have the right to know.,Wtone,This is because their relatives have the right to know about it.,Pref Pref,because his or her relatives have the right to know.,Rloc- Rloc-,This is because their relatives have the right to know about this.,Pref,This is because his or her relatives have the right to know about it.,Pref,,,,,,,,
This might be beneficial for his future if he is aware of the risk of having this disorder.,It might be beneficial for his future if he is aware of the risk of having this disorder.,Pform,This might be beneficial in his future if he is aware of the risks of having this disorder.,Prep Nn,This might be beneficial to his future if he is aware of the risk of having this disorder.,Prep,It might be beneficial to his future if he were aware of the risk of having this disorder.,Pref Prep Vt,,,,,,,,,,,,
"To sum up, a carrier of a known genetic risk should be obligated to tell his or her relatives.","To sum up, a carrier of a known genetic risk should be obliged to tell their relatives.",Wci Pform,"To sum up, a carrier of a known genetic risk should be obligated to tell their relatives.",Pref,,,,,,,,,,,,,,,,
"This is because many relate genetic diseases to those such as Bubble-Boy disease, autism or down-syndrome.",,,,,,,,,"This is because many people relate genetic diseases to ones such as Bubble-Boy disease, autism or down-syndrome.",Others Pform,"This is because many people correspond genetic diseases to disorders such as Bubble-Boy disease, autism or Down Syndrome.",Others Wci Pref Mec,"This is because many relate genetic diseases to those such as Bubble-Boy disease, autism or Down's down-Syndrome.",Mec Mec,"This is because many relate 'genetic diseases' to those such as Bubble-Boy disease, autism or Down syndrome.",Mec Mec Mec,,,,
"To prevent that from happening, I do feel that it is up to the person whether he wants to share the information with his family since his family may either be paranoid or judge him and act differently.","To prevent that from happening, I feel that it is up to the person to decide whether they want to share the information with their family since their family may either be paranoid or judge them and act differently.",Rloc- Prep V0 Pform SVA Pform Pform Pform,"To prevent that from happening, I do feel that it is up to the person whether he wants to share the information with his family, since his family may either be paranoid or judge him and act differently.",Mec,"To prevent that from happening, I feel that it is up to the person whether he wants to share the information with his family since his family may either be paranoid or judge him and act differently.",Rloc-,"To prevent that from happening, I do feel that it is up to the person whether he wants to share the information with his family since his family may either become paranoid or judge him and act differently.",Wci,"To prevent that from happening, I do feel that it is up to the person whether they want to share the information with their family since their family may either be paranoid, or judge them and act differently.",Pref SVA Pref Pref Mec Pref,,,,,,,,,,
"Especially when it is just a risk, the option is really his since he is not an actual sufferer.","Especially when it is just a risk, the option is really theirs since they are not an actual sufferer.",Pform Pform SVA,"Especially when it is just a risk, the option is really his, since he is not an actual sufferer.",Mec,"Especially when it is only a risk, the option is really his since he is not actually suffering from a disease yet.",Wtone ArtOrDet Wform Wform Others,Especially when it is just a risk. The option is really his since he is not an actual sufferer.,Srun,,,,,,,,,,,,
Therefore an entirely new dilemma is born: should a carrier of a known genetic risk be obligated to tell his or her relatives?,"Therefore, an entirely new dilemma is born: should the carrier of a known genetic risk be obliged to tell their relatives?",Mec ArtOrDet Wci Pform,Therefore an entirely new dilemma arises: should a carrier of a known genetic risk be obligated to tell his or her relatives?,Wci,"Therefore, an entirely new dilemma is born: should a carrier of a known genetic risk be obligated to tell his or her relatives?",Mec,Therefore an entirely new dilemma is born: should the carrier of a known genetic risk be obligated to tell his or her relatives?,ArtOrDet,Therefore an entirely new dilemma arises: should a carrier of a known genetic risk be obligated to tell their relatives?,Wci Pref,"Therefore, an entirely new dilemma is born: should a carrier of a known genetic risk be obligated to tell their relatives?",Mec Pref,,,,,,,,
"As citizens of a nation, they have the responsibility to support their country in many ways.",,,Citizens of a nation have the responsibility to support their country in many ways.,Rloc- Mec Mec Pform,,,,,,,,,,,,,,,,
I think a carrier of a known genetic risk should not be obligated to tell his or her relatives.,I think the carrier of a known genetic risk should not be obliged to tell their relatives.,ArtOrDet Wci Pform,I think a carrier of a known genetic risk should not be obligated to tell their relatives.,Pref,,,,,,,,,,,,,,,,
One can choose to tell their relatives if they are at risk.,,,Someone can choose to tell their relatives if they are at risk.,Pform,,,,,,,,,,,,,,,,
"This is the potential consequence if one does not have full control of his/her information, especially when the party that he is obliged to disclose his information to is a potentially large group (relatives).","This is the potential consequence if one does not have full control of their results, especially when the party that he is obliged to disclose his information to is potentially a large group.",Pform Wci ArtOrDet ArtOrDet Rloc-,"This is a potential consequence if someone does not have full control of his/her information, especially when the party that he is obliged to disclose his information to is a potentially large group (relatives).",ArtOrDet Pform,"This is the potential consequence if one does not have full control of one's information, especially when the party that one is obliged to disclose one's information to is a potentially large group (relatives).",Pref Pref Pref,"This is a potential consequence if one does not have full control of his/her information, especially when the party that he is obliged to disclose his information to is a potentially large group (relatives).",ArtOrDet,"This is a potential consequence if one does not have full control over their information, especially when the people that he is obliged to disclose his information to is potentially a large group (relatives).",ArtOrDet Prep Pref Wci WOadv,"This is the potential consequence if one does not have full control of his/her private information, especially when the party that he is obliged to disclose his information to is a potentially large group (relatives).",Others,"This is the potential consequence if one does not have full control of his/her information, especially when the party that he is obliged to disclose his information to is a potentially large group of relatives.",Mec,"This is the potential consequence if one does not have full control of his/ information, especially when the party that they are obliged to disclose their information to is a potentially large group (relatives).",Pref Pref Pref SVA Pref,,,,
"In conclusion, a carrier of a known genetic risk should not be obligated to tell his or her relatives.","In conclusion, the carrier of a known genetic risk should not be obliged to tell their relatives.",ArtOrDet Wci Pform,"In conclusion, a carrier of a known genetic risk should not be obligated to tell their relatives.",Pref,,,,,,,,,,,,,,,,
Tell them or keep this secret until we die?,Tell them or keep it a secret until we die?,Pform ArtOrDet,"Tell them, or keep the secret until we die?",Mec ArtOrDet,Tell them or keep it secret until we die?,Pref,,,,,,,,,,,,,,
He or she has the right not to tell anyone.,They have the right not to tell anyone.,Pform SVA,,,,,,,,,,,,,,,,,,
"However, in my opinion, it is the obligation of a carrier of a known genetic risk to tell his or her relatives about his or her actual situation.","However, in my opinion, it is the obligation of the carrier of a known genetic risk to tell their relatives about their actual situation.",ArtOrDet Pform Pform,"However, in my opinion, it is the obligation of the carrier of a known genetic risk to tell his or her relatives about his or her actual situation.",ArtOrDet,"However, in my opinion, it is the obligation of a carrier of a known genetic risk to tell their relatives about their actual situation.",Pref Pref,,,,,,,,,,,,,,
"Secondly, it can avoid genetic disease passed to the next generation when they intend to have babies.","Secondly, They can avoid the genetic disease being passed to the next generation if they intend on having babies.",Pform ArtOrDet Vform Trans Prep Vform,"Secondly, telling your relatives can prevent a genetic disease from being passed down to the next generation when they intend to have babies.",Others Wci ArtOrDet Prep Vform Prep,"Secondly, it can avoid genetic diseases being passed to the next generation if they intend to have babies.",Nn V0 Trans,"Secondly, it can prevent the genetic disease from being passed to the next generation if they intend to have babies.",Wci ArtOrDet Prep Vform Trans,"Secondly, it can avoid genetic disease being passed on to the next generation when they have babies.",V0 Prep Rloc- Prep,"Secondly, it can avoid genetic diseases being passed to the next generation when they intend to have children.",Nn Vform Wtone,"Secondly, it can avoid genetic disease being passed to the next generation when people intend to have babies.",Vt Pref,"Secondly, it can avoid genetic disease being passed to the next generation.",Vt Rloc-,,,,
They should let their spouse know about his or her situation before marriage.,They should let their spouse know about their situation before marriage.,Pform,They should let their spouse know about the situation before marriage.,ArtOrDet,A genetic risk carrier should let their spouse know about his or her situation before marriage.,Pref,,,,,,,,,,,,,,
"In a nutshell, a carrier of a known genetic risk has the responsibility to tell his or her relatives.","In a nutshell, the carrier of a known genetic risk has the responsibility of telling their relatives.",ArtOrDet Prep Vform Pform,"In summary, a carrier of a known genetic risk has the responsibility to tell his or her relatives.",Wtone,"In a nutshell, the carrier of a known genetic risk has the responsibility to tell his or her relatives.",ArtOrDet,"In a nutshell, a carrier of a known genetic risk has a responsibility to tell their relatives.",ArtOrDet Pref,"In a nutshell, a carrier of a known genetic risk has the responsibility to tell their relatives.",Pref,,,,,,,,,,
Other people should not be told without the person's permission even though they are his or her family or relatives.,Other people should not be told without the person's permission even if they are their family or relatives.,Trans Pform,"Other people should not be told without the person's permission, even if they are his or her family or relatives.",Mec Trans,Other people should not be told without the person's permission even if they are their relatives.,Trans Pref Rloc-,,,,,,,,,,,,,,
"Therefore, I think a known genetic risk should not be obligated to tell his or her family or relatives without the person's permission.","Therefore, I think a known genetic risk carrier should not be obliged to tell their family or relatives without the person's permission.",Others Wci Pform,"Therefore, I think a known genetic risk carrier should not be obligated to tell his or her family or relatives without the person's permission.",Others,"Therefore, I think a carrier of a known genetic risk should not be obligated to tell his or her family or relatives.",Others Rloc-,"Therefore, I think that the carrier of a known genetic risk should not be obligated to tell his or her family or relatives without the person's permission.",Others,"Therefore, I think a person with a known genetic risk should not be obligated to tell their relatives.",Others ArtOrDet Pref Rloc- Rloc-,"Therefore, I think a known genetic risk should not be obligatorily told to their family or relatives without the person's permission.",Wform Rloc- Vt Pref,"Therefore, I think a known genetic risk should not be told about to family or relatives without the carrier's permission.",Rloc- Vt ArtOrDet Prep Wci,,,,,,
A Carrier of a Known Genetic Risk Should be Obligated to Tell His or Her Relatives,A Carrier of a Known Genetic Risk Should be obliged to Tell their Relatives,Wci Pform,A carrier of a known genetic risk should be obligated to tell his or her relatives,Mec Mec Mec Mec Mec Mec Mec Mec Mec Mec,,,,,,,,,,,,,,,,
"Though it is said that genetic testing involves emotional and social risks due to the test results, while the potential negative impacts of the risk still exist, the consequence will be significant if other members of his or her family do not know.","Although it is said that genetic testing involves emotional and social risks due to the test results, while the potential negative impacts of the risk still exist, the consequences could be significant if other members of our family do not know.",Wci Nn Vm Pform,"Though it is said that genetic testing involves emotional and social risks, while the potential negative impacts of the risk still exist, the consequences are significant if the other members of the family do not know.",Rloc- Nn Vt ArtOrDet ArtOrDet,"Though it is said that genetic testing involves emotional and social risks due to the test results, while the potential negative impacts of the risk still exist, the consequences will be significant if other members of his or her family do not know.",Nn,"Though it is said that genetic testing involves emotional and social risks due to the test results, while the potential negative impacts of the risk still exist, the consequences will be significant if other members of their family do not know.",Nn Pref,"It is said that genetic testing involves emotional and social risks due to the test results. While the potential negative impacts of the risk still exist, the consequence will be significant if other members of his or her family do not know.",Trans Mec Mec Mec,"Though it is said that genetic testing involves emotional and social risks due to the test results, while the potential negative impacts of the risk still exist, the consequences will be more significant if other members of his or her family do not know.",Nn Trans,"Though it is said that genetic testing involves emotional and social risks due to the test results, while the potential negative impacts of the risk still exist, the conequences will be significant if other members of their family do not know.",Nn Pref,,,,,,
"However, I believe it is just a usual reaction to this situation.","However, I believe this is just a normal reaction to this situation.",Pform Wci,"However, I believe this is just a usual reaction to this situation.",Pform,"However, I believe it is just a normal reaction to this situation.",Wci,"However, I believe it is a common reaction to this situation.",Wtone Wci,"However, I believe that it is just a normal reaction to this situation.",Ssub Wci,"However, I believe it is just the usual reaction in this situation.",ArtOrDet Prep,,,,,,,,
It can be very difficult for them but necessary for the carriers and their family.,It may be very difficult for them but it is necessary for the carriers and their family.,Vm Pform V0,It may be very difficult for them but is necessary for the carriers and their family.,Vm V0,"It could be very difficult for them, but necessary for the carriers and their family.",Vm Mec,It could be very difficult for them but it is necessary for the carriers and their family.,Vm V0,It can be very difficult for them but it is necessary for the carriers and their families.,Pform V0 Nn,"It can be very difficult for them, but it is necessary for the carriers and their family.",Mec V0,"It can be very difficult for them, but necessary for the carriers and their family.",Mec,,,,,,
"In this case, the social network helps people to increase the frequency of talk.","In this case, the social network helps people to increase the amount they talk.",Wci Prep Pform,"In this case, a social network helps people to increase the frequency of their meetings.",ArtOrDet Wci,"In this case, the social network helps people to increase the frequency of communication.",Wci,"In this case, social networks help people to increase the frequency of communication.",ArtOrDet Nn SVA Wci,"In this case, social networks help people to increase the frequency of their interactions.",ArtOrDet Nn SVA ArtOrDet Wci,"In this case, social networks help people to increase the frequency of talk.",ArtOrDet Nn SVA,"In this case, the social network helps people to increase the frequency of conversation.",Wci,"In this case, social networks help people to increase the frequency of conversations.",ArtOrDet Nn SVA Wci,,,,
It can help us know more about each other.,They can help us to learn more about each other.,Pform Prep Wci,They can help us know more about each other.,Pref,It can help us learn more about each other.,Wci,It can help us to know more about each other.,Prep,,,,,,,,,,,,
It can make people become closer as well.,They can make people closer as well.,Pform Rloc-,They can make people become closer as well.,Pref,It can make people grow closer as well.,Wci,It can make people closer as well.,Vt,It can bring people closer as well.,Wci Rloc-,,,,,,,,,,
It will make him or her quite upset when they communicate in real life.,It would make them quite upset when they communicate in real life.,Vt Pform,It will make them quite upset when they communicate in real life.,Pref,It could make one quite upset when they communicate in real life.,Wci Pref Trans Pref,,,,,,,,,,,,,,
It might not be accurate to judge the other party's feelings over social media as one may cover up their emotions while on social media.,It might not be accurate to judge the other party's feelings over social media as they may cover up their emotions while on social media.,Pform,It might not be accurate to judge the other party's feelings over social media as one may hide their emotions while on social media.,Wci,"It might not be accurate to judge the other party's feelings over social media, as one may cover up their emotions while on social media.",Mec,,,,,,,,,,,,,,
This lowers the experience of human ability to interact with one another which can adversely shape one's behaviour.,,,,,,,,,This lowers the ability of humans to interact with one another which can adversely shape ones behaviour.,Wci Nn Wci Pform,"This lowers the level of the human ability to interact with one another, which can adversely shape one's behaviour.",Wci ArtOrDet Mec,,,,,,,,
"Nowadays, people can even use their phone to read news and everyone can be the first witnesses of what is happening in the world.",,,"Nowadays, since people can even use their phone to read news, anyone can be the first to witness what is happening in the world.",Others Mec Pform Others,"Nowadays, people can even use their phone to read the news and everyone can be the first witnesses of what is happening in the world.",ArtOrDet,"Nowadays, people can use their phone to read news and everyone can be the first to witness what is happening in the world.",Rloc- Prep Wform Prep,"Nowadays, people can even use their phone to read news, and everyone can be the first witness of what is happening in the world.",Mec Nn,"Nowadays, people can even use their phone to read news, and everyone can be the first witnesses of what is happening in the world.",Mec,"Nowadays, people can use their phone to read news, and anyone can be the first witness of what is happening in the world.",Rloc- Mec Wci Nn,,,,,,
It might not be able to replace the joy that you have when you are with your family but it could help to reduce the sadness of being away from your family.,It might not be able to replace the joy that you feel when you are with your family but it could help to reduce the sadness of being away from them.,Wci Pform,"It might not be able to replace the joy that you have when you are with your family, but it could help to reduce the sadness of being away from your family.",Mec,It might not be able to replace the joy that you feel when you are with your family but it could help to reduce the sadness of being away from your family.,Wci,"It might not be possible to replace the joy that you have when you are with your family, but it could help to reduce the sadness of being away from your family.",Wci Mec,,,,,,,,,,,,
"Moreover, this also provides an alternative way for people to contact a person whom they did not see for a very long time, such as their friends in primary school and secondary school.","Moreover, they also provides an alternative way for people to contact a person they have not seen for a very long time, such as their friends from primary school and secondary school.",Pform Rloc- Wci Vform Prep,"Moreover, this also provides an alternative way for people to contact a person whom they have not seen for a very long time, such as their friends from primary school and secondary school.",Vm Vform Prep,"Moreover, it also provides an alternative way for people to contact a person whom they have not seen for a very long time, such as their friends from primary school and secondary school.",Prep Vt Prep,"Moreover, this also provides an alternative way for people to contact a person who they have not seen for a very long time, such as their friends from primary school and secondary school.",Pform Wci Vform Prep,"Moreover, this also provides an alternative way for people to contact a person whom they have not seen for a very long time, such as their friends in primary school and secondary school.",Wci Vform,,,,,,,,,,
"Last but not least, social media sites also link people together through allowing us to create our own groups, pages or sites to share our hobbies, interests and studies in particular subjects.",,,,,,,,,"Last but not least, social media sites also link people together through allowing them to create their own groups, pages or sites to share hobbies, interests and studies in particular subjects.",Pform Pform ArtOrDet,"Last but not least, social media sites also link people together, by allowing us to create our own groups, pages or sites to share our hobbies, interests and studies in particular subjects.",Mec Prep,,,,,,,,
What we can do is to cautiously manage our time spent online and manage our words used online.,What we can do is cautiously manage the time we spend online and manage the words we use online.,Prep ArtOrDet Pform Vform ArtOrDet Pform Vform,What we can do is to cautiously manage our time spent online and manage the words we use online.,ArtOrDet Vform,What we can do is to cautiously manage our time spent online and monitor our words used online.,Wci,"What we can do is to cautiously manage our time spent online, and manage our words used online.",Mec,,,,,,,,,,,,
Social media has changed our ways of exchanging information and interpersonal relationships profoundly.,Social media has changed the ways we exchange information and our interpersonal relationships profoundly.,ArtOrDet Pform Prep Vform Pform,Social media has profoundly changed our way of exchanging information and interpersonal relationships.,WOadv Nn WOadv,Social media have changed our ways of exchanging information and conducting interpersonal relationships profoundly.,SVA V0,Social media has changed our ways of exchanging information and our interpersonal relationships profoundly.,ArtOrDet,,,,,,,,,,,,
Social media has reshaped the way of communication.,Social media has reshaped the way we communicate.,Pform Prep Vform,Social media have reshaped the way we communicate.,SVA Prep WOinc,Social media has reshaped forms of communication.,ArtOrDet Wci,Social media has reshaped our way of communication.,ArtOrDet,Social media has reshaped our way of communicating.,ArtOrDet Wform,Social media has reshaped communication.,Wci,,,,,,,,
We broadcast these facades of us to others.,,,We broadcast these facades of ourselves to others.,Pform,We broadcast these fa ç ades of ourselves to others.,Mec Pform,We broadcast these fa ç ades of us to others.,Mec,,,,,,,,,,,,
Advantages and disadvantages of using social media in daily life,The advantages and disadvantages of using social media in our daily lives.,ArtOrDet Pform Nn,,,,,,,,,,,,,,,,,,
The profile picture may not be the person who that user says he or she really is.,The profile picture displayed may not be the person who that user says they really are.,V0 Pform SVA,The profile picture may not be of the person who that user says he or she really is.,Prep,The profile picture may not be of the person that user says he or she really is.,Prep Rloc-,The profile picture may not be the person that the user says he or she really is.,Rloc- ArtOrDet,Their profile picture may not be the person that the user says they really are.,ArtOrDet Rloc- ArtOrDet Pref SVA,The profile picture may not be the person who that user says they really are.,Pref SVA,The profile picture may not be the person whom that user says he or she really is.,Wform,,,,,,
"The reason might just be that he or she just wants to "" decorate "" his or her face.","The reason might just be that they just want to "" decorate "" their face.",Pform SVA Pform,"The reason might be that he or she just wants to "" decorate "" his or her face.",Rloc-,"The reason might just be that they want to "" decorate "" their face.",Pref Rloc- SVA Pref,,,,,,,,,,,,,,
"Moreover, some wrong values on the websites will affect teenagers and confuse them.","Moreover, the wrong values you might find on these websites could affect teenagers and confuse them;",ArtOrDet Pform V0 ArtOrDet Vm Srun,"Moreover, the questionable values of some websites may affect teenagers and confuse them.",ArtOrDet Wci Prep ArtOrDet Vm,"Moreover, some wrong values on the websites will affect teenagers and confuse them.",Um,"Moreover, some bad values on the websites will affect teenagers and confuse them.",Wci,"Moreover, some inappropriate values on the websites will affect teenagers and confuse them.",Wci,"Moreover, some immoral content on websites will affect teenagers and confuse them.",Wci ArtOrDet,,,,,,,,
It can make our life simpler.,They can make our lives simpler.,Pform Nn,It can make our lives simpler.,Nn,,,,,,,,,,,,,,,,
Remember to send greetings to our friends and family frequently.,We should remember to send greetings to our friends and family frequently.,Pform,Remember to send greetings to your friends and family frequently.,Pform,And remember to send greetings to our friends and family frequently.,Trans,remembering to send greetings to our friends and family frequently.,Vform,We should remember that it is important to send greetings to our friends and family frequently.,Others,and remember to send greetings to our friends and family frequently.,Trans,,,,,,,,
Then his or her mother will also know the emotion and feel warm.,Then their mother will also know the emotion and feel warm.,Pform,Then their mother will also experience the emotion and feel loved.,Pref Wci Wci,Then their mothers will also receive emotion and feel warm.,ArtOrDet Nn Wci ArtOrDet,Then his or her mother will know their emotions and feel warm.,Rloc- ArtOrDet Nn,,,,,,,,,,,,
"They may collect information about that person by asking his friends, colleagues or family members.","They may collect information about that person by asking their friends, colleagues or family members",Pform Srun,"They could collect information about that person by asking their friends, colleagues or family members.",Vm Pref,"They could collect information about that person by asking his friends, colleagues or family members.",Vm,"They may have collected information about that person by asking his friends, colleagues or family members.",Vt Vt,"They may collect information about that person by asking their friends, colleagues or family members,",Pref Mec,"They may collect information about that person by asking friends, colleagues or family members.",ArtOrDet,,,,,,,,
And the information collected may not be intact and true.,but the information they collected may not be complete or true.,Trans Pform Wci Trans,And the information collected may not be complete or true.,Wci Trans,And the information collected might not be complete and true.,Vm Wci,And the information collected may not have been intact or true.,Vt Vt Trans,And the information collected may not be intact or true.,Trans,and the information collected may not be intact or true.,Mec Trans,,,,,,,,
Everyone can easily make up the personality and characteristics they want.,,,Anyone can easily make up the personality and characteristics they want.,Pform,Anyone can easily make up their personality and choose the characteristics that they want to share.,Pform ArtOrDet Others Others,,,,,,,,,,,,,,
"Then eventually, she discovered that eight people became one as he was using eight different identities to chat with her all the time.","Then eventually, she discovered that the eight people were actually one person using eight different identities to chat to her all the time.",ArtOrDet Wci Pform Rloc- Prep,"Then eventually, she discovered that the eight people were one as the person was using eight different identities to chat with her all the time.",ArtOrDet Wci Others,"Then eventually, she discovered that those eight people became one as he was using eight different identities to chat with her all the time.",ArtOrDet,Then eventually she discovered that the eight people became one as someone was using eight different identities to chat with her all the time.,Mec ArtOrDet Pref,"Then eventually, she discovered that the eight people became one as he was using eight different identities to chat with her at the same time.",ArtOrDet Prep Others,"Then eventually, she discovered that the eight people were one as the other person was using eight different identities to chat with her all the time.",ArtOrDet Wci Pref,"Then eventually, she discovered that the eight people were one, as he was using eight different identities to chat with her all the time.",ArtOrDet Wci Mec,"Then, eventually, she discovered that the eight people became one, as a man was using eight different identities to chat with her all the time.",Mec ArtOrDet Mec Pref,,,,
"People can use the information to deceive family and friends and banks to do bad things such as blackmail, ATM theft and so on.","People can use this information to deceive family, friends and banks and to do bad things such as blackmail, ATM theft and so on.",Pform Srun Trans Trans,"People can use the information to deceive family, friends and banks to do bad things such as blackmail, ATM theft and so on.",Mec,"People can use the information to deceive family and friends and banks to do bad things such as blackmailing, ATM theft and so on.",Vform,"People can use the information to deceive family, friends, and banks, to do bad things such as blackmail, ATM theft and so on.",Mec Trans Mec Mec,,,,,,,,,,,,
