Original sentence,Expected sentence (Annotation 1),Mistake categories (Annotation 1),Expected sentence (Annotation 2),Mistake categories (Annotation 2),Expected sentence (Annotation 3),Mistake categories (Annotation 3),Expected sentence (Annotation 4),Mistake categories (Annotation 4),Expected sentence (Annotation 5),Mistake categories (Annotation 5),Expected sentence (Annotation 6),Mistake categories (Annotation 6),Expected sentence (Annotation 7),Mistake categories (Annotation 7),Expected sentence (Annotation 8),Mistake categories (Annotation 8),Expected sentence (Annotation 9),Mistake categories (Annotation 9),Expected sentence (Annotation 10),Mistake categories (Annotation 10)
"For example, a grandmother may have more authority to pass on information than an aunt, even when she is not at genetic risk herself while the aunt is.","For example, a grandmother may have more authority to pass on information than an aunt, even if she is not at genetic risk herself and the aunt is.",Trans Trans,"For example, a grandmother may have more authority to pass on information than an aunt, even when she is not at risk herself while the aunt is.",Rloc-,"For example, a grandmother may have more authority to pass on information than an aunt, even when she is not at genetic risk herself, while the aunt is.",Mec,"For example, a grandmother may have more authority to pass on information than an aunt, even if she is not at risk herself, while the aunt is.",Wci Rloc- Mec,,,,,,,,,,,,
It is againt his or her human rights and it is against the law's spirit.,,,,,It is againt his or her human rights and it is against the law's spirit as,Trans,It is againt their human rights and it is against the law's spirit.,Pref,it is against his or her human rights and it is against the law's spirit.,Ssub,it violates his or her human rights and it is against the law's spirit.,Mec Wci Rloc-,it is againt their human rights and it is against the law's spirit.,Mec Pref Rloc- Rloc-,It is against their human rights and it is against the spirit of the law.,Mec ArtOrDet Wci,,,,
"For a genetic risk carrier, there should be choice given with regards to informing his/her relatives.",,,,,,,,,,,"For a genetic risk carrier, there should be a choice given regarding informing his/her relatives.",ArtOrDet Trans,"For a genetic risk carrier, there should be choice given with regards to informing his relatives.",Pref Pref,,,,,,
"However, there is a role and a sense of responsibility to inform their relatives since it is a genetic disorder.",,,,,,,"However, there should be a sense of responsibility to inform their relatives since it is a genetic disorder.",Vm ArtOrDet Rloc- Trans,"However, they have a role and a sense of responsibility to inform their relatives since it is a genetic disorder.",Pref Wci,"However, they have a to play and a responsibility to inform their relatives since it is a genetic disorder.",Pform Wci Wci Wci,"However, there is a role and a sense of responsibility to inform relatives, since it is a genetic disorder.",Pform Mec,,,,,,
"One may think that if the carrier is a caring person who loves his or her family more than himself, there is no doubt that he or she will tell his or her family about the issue.",,,,,"One may think that if the carrier is a caring person who loves his or her family more than himself, then there is no doubt that he or she will tell his or her family about the issue.",Trans,"One may think that if the carrier is a caring person who loves their family more than themselves, there would be no doubt that he or she would tell their family about the issue.",Pref Pref Vm Vm Pref,"One may think that if the carrier is a caring person who loves his or her family more than him- or herself, there is no doubt that he or she will tell his or her family about the issue.",Pform,,,,,,,,,,
"In my opinion, as long as we keep our mind healthy and strong, we can fight any disease as they come to us when we are fragile and weak.",,,,,"In my opinion, as long as we keep our mind healthy and strong, we can fight any disease, because they come to us when we are fragile and weak.",Mec Trans,"In my opinion, as long as we keep our minds healthy and strong we can fight any disease, as they come to us when we are fragile and weak.",Nn Mec Mec,"In my opinion, as long as we keep our mind healthy and strong, we can fight any disease as they come to us even if we are fragile and weak.",Ssub,"In my opinion, as long as we keep our minds healthy and strong, we can fight any disease as they come at us when we are fragile and weak.",Nn Prep,"In my opinion, as long as we keep our mind healthy and strong, we can fight any disease.",Others,,,,,,
"Of course, some people may do it to make their futures slightly happier, however, the carrier, before the testing, can choose not to go for the test and simply live with unknowns and accept the facts.",,,,,,,,,,,"Of course, some people may do it to make their futures slightly happier, but the carrier, before the test, can choose not to go and simply live with unknowns and accept the facts.",Trans Wform Rloc-,"Of course, some people may do it to make their futures slightly happier; however the carrier, before the testing, can choose not to go for the test, simply living with the unknown and accepting the facts.",Mec Mec Mec Trans Vform Nn Vform,"Of course, some people may do it to make their future slightly happier. However, the carrier, before the testing, can choose not to go for the test, and simply live with unknowns and accept the consequences.",Nn Srun Mec Wci,,,,
"Therefore, it is our responsibility to tell the relatives to prevent the occurrence of undesired consequences.","Therefore, it is our responsibility to tell our relatives in order to prevent the occurrence of undesired consequences.",ArtOrDet Trans,"Therefore, it is our responsibility to tell our relatives to prevent the occurrence of undesired consequences.",ArtOrDet,"Therefore, it is our responsibility to tell our relatives, to prevent the occurrence of undesired consequences.",ArtOrDet Mec,"Therefore, it is our responsibility to tell our relatives in order to prevent undesired consequences.",ArtOrDet Trans ArtOrDet Rloc- Prep,"Therefore, it is our responsibility to tell relatives to prevent the occurrence of undesired consequences.",ArtOrDet,,,,,,,,,,
It is a method that benefits two parties which is a win-win situation.,It is a method that benefits both parties and is a win-win situation.,Wci Rloc- Trans,"It is a method that benefits the two parties, which is a win-win situation.",ArtOrDet Mec,It is a method that benefits both parties which is a win-win situation.,Wform,"It is a method that benefits two which, which is a win-win situation.",Mec,It is an approach that benefits two parties which is a win-win situation.,ArtOrDet Wci,"It is a method that benefits both parties, which is a win-win situation.",ArtOrDet Mec,,,,,,,,
Or they can choose to keep silent until the next carrier is diagnosed.,,,,,,,"Alternatively, they can choose to keep silent until the next carrier is diagnosed.",Trans,or they can choose to keep silent until the next carrier is diagnosed.,Mec,,,,,,,,,,
"When people want to check whether they are genetic risk carriers, they can go and approach a doctor to consult about it.","If people want to check whether they are genetic risk carriers, they can go and consult a doctor about it.",Trans WOinc Rloc- Prep WOinc,"When people want to check whether they are genetic risk carriers, they can go and approach a doctor about it.",Rloc-,"When people want to check whether they are genetic risk carriers, consult a doctor about it.",Rloc- Trans Rloc- WOinc Prep WOinc,"When people want to check whether they are genetic risk carriers, they can approach a doctor to consult about it.",Rloc-,"When people want to check whether they are genetic risk carriers, they can go and approach a doctor to ask about it.",Wci,"When people want to check whether they are genetic risk carriers, they can go and approach a doctor to consult with.",Prep Pref,"When people want to check whether they are genetic risk carriers, they can approach a doctor to consult them about it.",Rloc- Trans Pref,,,,,,
"Genetic disorders are innate, but the great improvement of medical treatment makes it possible for humans to prevent the disorder or to reduce the negative effects of the disorder on themselves.","Genetic disorders are innate, but the great advances in medical treatment make it possible for humans to either prevent the disorder or reduce the negative effects of the disorder on themselves.",Wci Prep SVA Trans Prep,"Genetic disorders are innate, but great improvements in medical treatment make it possible for humans to prevent the disorder or to reduce its negative effects.",ArtOrDet Nn Prep SVA ArtOrDet Rloc-,"Genetic disorders are innate, but the great improvement of medical treatment makes it possible for humans to prevent the disorder or to reduce the negative effects of the disorder on them.",Pref,"Genetic disorders are innate, but the great improvement in medical treatment makes it possible for humans to prevent the disorder or to reduce the negative effects the disorder has on themselves.",Prep Prep V0,"Genetic disorders are innate, but the great improvement in medical treatment makes it possible for humans to prevent the disorder or to reduce the negative effects of the disorder on themselves.",Prep,"Genetic disorders are innate, but the great improvement of medical treatment makes it possible for humans to prevent the disorder occurring or to reduce the negative effects of the disorder on themselves.",Others,"Genetic disorders are innate, but the great improvement of medical treatment makes it possible for humans to prevent the disorder or to reduce the negative effects of the disorder on their lives.",Pref,"Genetic disorders are innate, but the great improvement of medical treatments makes it possible for humans to prevent the disorder, or to reduce the negative effects of the disorder.",Nn Mec Rloc-,,,,
"Admittedly, it is a social obligation to be responsible for the life of other people.",,,,,It is a social obligation to be responsible for the lives of other people.,Trans Mec Nn,,,,,,,,,,,,,,
"This is because many relate genetic diseases to those such as Bubble-Boy disease, autism or down-syndrome.","This is because many relate genetic diseases to those such as Bubble-Boy disease, Autism and Down-syndrome.",Mec Trans Mec,"This is because many genetic diseases are related to those such as Bubble-Boy disease, autism or down-syndrome.",WOinc,"This is because many relate genetic diseases to others such as Bubble-Boy disease, autism or Down's syndrome.",Pref Mec,"This is because many relate genetic diseases to those such as Bubble-Boy disease, autism or Down syndrome.",Mec,"This is because many people relate genetic diseases to ones such as Bubble-Boy disease, autism or down-syndrome.",Others Pform,"This is because many people correspond genetic diseases to disorders such as Bubble-Boy disease, autism or Down Syndrome.",Others Wci Pref Mec,"This is because many relate genetic diseases to those such as Bubble-Boy disease, autism or Down's down-Syndrome.",Mec Mec,"This is because many relate 'genetic diseases' to those such as Bubble-Boy disease, autism or Down syndrome.",Mec Mec Mec,,,,
"Or in a less extreme case, the child may be disabled.","In a less extreme case, the child may be disabled.",Trans Mec,"in a less extreme case, the child may be disabled.",Trans,"Or, in a less extreme case, the child may be disabled.",Mec,,,,,,,,,,,,,,
The other reason that parents should know the baby they have is a carrier of genetic risk is for a nation's good.,,,,,,,The other reason that parents should know if the baby they have is a carrier of a genetic risk is for the nation's good.,Trans ArtOrDet ArtOrDet,The other reason that parents should know the baby they have is a carrier of genetic risk is for the good of the nation.,ArtOrDet WOadv,The other reason that parents should know if the baby they have is a carrier of genetic risk is for a nation's good.,Others,The other reason that parents should know that the baby they have is a carrier of genetic risk is for the nation's good.,Ssub ArtOrDet,,,,,,
The results are disclosed to husbands and wifes.,,,,,,,The results should be disclosed to their husband or wife.,Vm ArtOrDet Trans Nn,The results are disclosed to the husband and wife.,ArtOrDet Nn Nn,The results are disclosed to husbands and wives.,Mec,,,,,,,,
This is not the case I am talking about here.,"However, this is not the case I am discussing here.",Trans Wtone Prep,,,,,,,,,,,,,,,,,,
They have the right to know whether they are at risk.,They have the right to know if they are at risk.,Trans,"Therefore, they have the right to know whether they are at risk.",Trans,,,,,,,,,,,,,,,,
This means one of his parents has gene A and one cost of testing could be saved.,,,,,then this means one of his parents has gene A and one cost of testing could be saved.,Trans,This means that one of his parents has gene A and the cost of one test can be saved.,Ssub WOadv Vm,this means one of his parents has gene A and one cost of testing could be saved.,Mec,"This means one of his parents has gene A, and one cost of testing could be saved.",Mec,this means one of his parents has gene A and the cost of one test could be saved.,Mec ArtOrDet ArtOrDet,"This means only one of his parents has gene A, and the cost of one test could be saved.",Others Mec Rloc- ArtOrDet Wci,,,,
And there are two basic reasons.,There are two basic reasons.,Trans Mec,There are two basic reasons:,Rloc- Mec,and there are two basic reasons.,Mec,and there are two basic reasons for this.,Mec Others,,,,,,,,,,,,
"Even though you cannot eliminate the risk completely, you can at least try to be alert to avoiding getting the disease.","Even though you cannot eliminate the risk completely, you can at least try to be alert in order to avoid getting the disease.",Trans Vform,"Even though you cannot eliminate the risk completely, you can at least try to be active in avoiding the disease.",Wci Prep Rloc-,"Even though you cannot eliminate the risk completely, you can at least try to be alert to avoid getting the disease.",Vform,,,,,,,,,,,,,,
Many people feel that we should tell our relatives since we really care about their health status.,,,Many people feel that we should tell our relatives if we really care about their health status.,Trans,Many people feel that we should tell our relatives since we care about their health.,Wtone Rloc-,Many people feel that we should tell our relatives since we really care about their health statuses.,Nn,,,,,,,,,,,,
Some say it is a kind of invasion of privacy for the carrier and should be protected.,Some say it is a kind of invasion of privacy and the carrier should be protected.,Prep Trans Trans,Some say it is a kind of invasion of privacy for the carrier who should be protected.,Trans,Some say it is a kind of invasion of privacy for the carrier and that privacy should be protected.,Others,Some say it is a kind of invasion of the carrier's privacy which should be protected.,WOinc Prep Npos WOinc,Some say it is a kind of invasion of privacy for the carrier and their privacy should be protected.,Others,"Some say it is a kind of invasion of privacy for the carrier, which should be protected.",Mec Trans,,,,,,,,
"Secondly, it can avoid genetic disease passed to the next generation when they intend to have babies.","Secondly, They can avoid the genetic disease being passed to the next generation if they intend on having babies.",Pform ArtOrDet Vform Trans Prep Vform,"Secondly, telling your relatives can prevent a genetic disease from being passed down to the next generation when they intend to have babies.",Others Wci ArtOrDet Prep Vform Prep,"Secondly, it can avoid genetic diseases being passed to the next generation if they intend to have babies.",Nn V0 Trans,"Secondly, it can prevent the genetic disease from being passed to the next generation if they intend to have babies.",Wci ArtOrDet Prep Vform Trans,"Secondly, it can avoid genetic disease being passed on to the next generation when they have babies.",V0 Prep Rloc- Prep,"Secondly, it can avoid genetic diseases being passed to the next generation when they intend to have children.",Nn Vform Wtone,"Secondly, it can avoid genetic disease being passed to the next generation when people intend to have babies.",Vt Pref,"Secondly, it can avoid genetic disease being passed to the next generation.",Vt Rloc-,,,,
They were told that the wife's family was carrying the polygenetic disorder and can pass only to boys rather than girls.,They were told that the wife's family carried a polygenetic disorder that could only be passed to boys and not girls.,Vform ArtOrDet Ssub Trans Vt Vform Wci,They were told that the wife's family was carrying a polygenetic disorder which can only be passed to boys rather than girls.,ArtOrDet Ssub WOadv,They were told that the wife's family was carrying the polygenetic disorder and could pass it only to boys rather than girls.,Vm Pref,They were told that the wife's family was carrying the polygenetic disorder which can pass only to boys rather than girls.,Trans,They were told that the wife's family was carrying the polygenetic disorder which can be passed only to boys rather than girls.,Trans V0,They were told that the wife's family was carrying the polygenetic disorder and could pass only to boys rather than girls.,Vt,They were told that the wife's family was carrying the polygenetic disorder which could pass only to boys rather than girls.,Trans Vt,,,,,,
"However, the wife actually had already known about the polygenetic disorder before the marriage and she did not tell her husband.",,,"However, the wife actually already knew about the polygenetic disorder before the marriage but did not tell her husband.",Vt Vform Trans Rloc-,"However, the wife had already known about the polygenetic disorder before the marriage and she did not tell her husband.",Wtone,"However, the wife had actually already known about the polygenetic disorder before the marriage and did not tell her husband.",WOadv WOadv Rloc-,"However, the wife actually had known about the polygenetic disorder before the marriage and she did not tell her husband.",Rloc-,"However, the wife had actually already known about the polygenetic disorder before the marriage and she had not told her husband.",WOadv WOadv Vt Vt,,,,,,,,
Other people should not be told without the person's permission even though they are his or her family or relatives.,Other people should not be told without the person's permission even if they are their family or relatives.,Trans Pform,"Other people should not be told without the person's permission, even if they are his or her family or relatives.",Mec Trans,Other people should not be told without the person's permission even if they are their relatives.,Trans Pref Rloc-,,,,,,,,,,,,,,
Once people's genetic information is told to other people.,,,"If people's genetic information is told to other people,",Trans Mec,Once people's genetic information is revealed to other people.,Wci,"Once people's genetic information is told to other people,",Mec,Once somebody's genetic information is told to other people.,ArtOrDet,,,,,,,,,,
"Finally, the technology of testing the gene is not very mature now.",,,,,,,,,,,,,"Finally, the technology of testing the gene is not very mature at this moment.",Trans,"Finally, the technology of testing genes is not very mature yet.",ArtOrDet Nn Wci,,,,
"However, not everybody is so lucky that they can make sure they do not carry any disease genes.",,,"However, not everybody is so lucky so they must make sure they do not carry any disease genes.",Trans Vm,"However, not everybody is so lucky that they can be sure they do not carry any genetic diseases.",Wci WOadv,"However, not everybody is so lucky that they do not carry any diseased genes.",Rloc- Rloc- Rloc- Rloc- Wform,"However, not everybody is so lucky that they can make sure they do not carry any diseased genes.",Vform,"However, not everybody is so lucky that they can make sure they do not carry any genes associated with disease.",WOadv Others,"However, not everybody is so lucky that they can make sure they do not carry any disease-carrying genes.",Wci,,,,,,
Then they can have a healthy baby with the help of the doctors.,,,so they can have a healthy baby with the help of the doctors.,Trans,,,,,,,,,,,,,,,,
There is a story I watched on TV.,,,There is a story I watched on TV where,Trans,There was a story I watched on television.,Vt Wa,,,,,,,,,,,,,,
"Though it is said that genetic testing involves emotional and social risks due to the test results, while the potential negative impacts of the risk still exist, the consequence will be significant if other members of his or her family do not know.",,,,,,,,,"It is said that genetic testing involves emotional and social risks due to the test results. While the potential negative impacts of the risk still exist, the consequence will be significant if other members of his or her family do not know.",Trans Mec Mec Mec,"Though it is said that genetic testing involves emotional and social risks due to the test results, while the potential negative impacts of the risk still exist, the consequences will be more significant if other members of his or her family do not know.",Nn Trans,"Though it is said that genetic testing involves emotional and social risks due to the test results, while the potential negative impacts of the risk still exist, the conequences will be significant if other members of their family do not know.",Nn Pref,,,,,,
"And if you are not on it, you will just get lost.","If you are not on it, you will just get lost.",Trans Mec,"And if you are not on it, you will just get left out.",Wci,"And if you are not on it, you will be lost.",Rloc- Wci,,,,,,,,,,,,,,
"In China, a lot of government organizations have open blogs to communicate with people, like firefighters, police stations and so on.","In China, a lot of government organizations have open blogs for communicating with people, for example, firefighters, police stations and so on.",Prep Vform Trans,"In China, a lot of government organizations have opened blogs to communicate with people like firefighters, policemen and so on.",Vform Mec Wci,"In China, a lot of government organizations have opened blogs to communicate with people, like firefighters, police stations and so on.",Vt,"In China, a lot of government organizations have open blogs to communicate with people like firefighters, police officers and so on.",Mec Wci,"In China, a lot of government organizations have open blogs to communicate with people, organizations like fire stations, police stations and so on.",Others Wci,,,,,,,,,,
This covenience can be percieved as almost in realtime.,,,,,,,,,This covenience can be percieved as if it is almost in realtime.,Trans,This convenience can be considered as almost immediate.,Mec Wci Prep Wci,This convenience can be percieved as almost in realtime.,Mec,This convenience can be percieved as almost in real time.,Mec Mec,,,,
"Unlike the use of social media, most of the interaction is done with thinking and typing.","Unlike the use of social media, where most of the interaction is done by thinking and typing.",Trans Prep,"This is unlike social media, where most of the interaction is done with thinking and typing.",Others Rloc- Ssub,"Unlike social media, where most of the interaction is done by thinking and typing.",Rloc- Pref Prep,"When using social media, most of the interaction is done with thinking and typing.",Wci ArtOrDet Vt Prep,"This is unlike the use of social media, in which most of the interaction is done via thinking and typing.",ArtOrDet Trans Prep,"Unlike the use of social media, where most of the interaction is done with thinking and typing.",Ssub,"This is unlike the use of social media, where of the interaction is done with thinking and typing.",Others Mec,,,,,,
"The types of use must also be taken note of - informing, interacting, discussion and others.","These types of use must also be taken note of - informing, interacting and discussing.",ArtOrDet Trans Vform Rloc-,"The types of use must also be taken note of - informing, interacting, discussing etc.",Wform Wci,"The types of use must also be taken note of - informing, interacting, discussing amongst others.",Wform Prep,"The types of use must also be taken note of - informing, interacting, discussion, and others.",Mec,"The types of use must also be taken note of: informing, interacting, discussing and other types.",Mec Vform Others,"The types of usage must also be taken note of - informing, interacting, discussion and others.",Wform,"The types of use must also be taken note of: informing, interacting, discussion and others.",Mec,,,,,,
It will make him or her quite upset when they communicate in real life.,,,,,It could make one quite upset when they communicate in real life.,Wci Pref Trans Pref,,,,,,,,,,,,,,
It is a common scene that two people sitting next to each other seldom talk with each other but just look at their cellphone.,It is a common for two people sitting next to each other to seldom talk to each other and just look at their cellphones.,Rloc- Rloc- Prep Prep Prep Trans Nn,"Two people sitting next to each other, seldom talking, but just looking at their cellphones is a common scene.",WOinc,It is a common scene that two people sitting next to each other seldom talk with each other but just look at their cellphones.,Nn,It is a common scene to see two people sitting next to each other hardly talking to each other but just looking at their cellphone.,V0 Wci Vt Prep Vt,"It is a common scene, two people sitting next to each other seldom talking with each other but just looking at their cellphones.",Mec Ssub Vform Vform Nn,It is a common scene that two people sitting next to each other seldom talk with each other but just look at their cell phones.,Nn,"It is a common scene that two people sitting next to each other seldom talk with each other, but just look at their cellphones.",Mec Nn,,,,,,
There might be false information or hoaxes spreading around on social media.,False information and hoaxes might be spread around social media.,Rloc- WOinc Mec Trans WOinc Vform Prep,There might be false information or hoaxes spreading on social media.,Prep,There might be false information or hoaxes spread around social media.,Vform Prep,,,,,,,,,,,,,,
This will result in unnecessary conflicts between two parties over miscommunication.,,,This will result in unnecessary conflicts between two parties because of miscommunication.,Trans,This will result in unnecessary conflicts between two parties over a miscommunication.,ArtOrDet,This results in unnecessary conflicts between two parties over miscommunication.,Vt,,,,,,,,,,,,
"With the help of social media tools, we can stay in contact and keep ourselves up to date with our family and friends even though we are away from them.",,,"With the help of social media tools, we can stay in contact and keep ourselves up-to-date with our family and friends even when we are away from them.",Mec Trans,"With the help of social media tools, we can stay in contact and keep ourselves up-to-date with our family and friends, even though we are away from them.",Mec Mec,,,,,,,,,,,,,,
"There are advantages and disadvantages in using social media sites, however in this case striking balance between social media and lives is the most important thing to do.",,,,,"There are advantages and disadvantages to using social media sites, but in this case, striking a balance between social media and life is the most important thing to do.",Prep Trans Mec ArtOrDet Nn,"There are advantages and disadvantages to using social media sites, however, in this case, striking a balance between social media and real life is the most important thing to do.",Prep Mec Mec ArtOrDet Wci,"There are advantages and disadvantages of using social media sites. However, in this case, striking a balance between social media and real life is the most important thing to do.",Prep Mec Mec Mec ArtOrDet Wci,"There are advantages and disadvantages to using social media sites, however, in this case, striking a balance between social media and our lives is the most important thing to do.",Prep Mec Mec ArtOrDet ArtOrDet,"There are advantages and disadvantages of using social media sites. However, in this case, striking balance between social media and life is the most important thing to do.",Prep Srun Mec Mec Nn,"There are advantages and disadvantages to using social media sites, however, in this case, striking a balance between social media and life is the most important thing to do.",Prep Mec Mec ArtOrDet Nn,,,,
"People post about their random thoughts or daily activities via Twitter and post different kinds of photos on Facebook frequently, to be connected with their so called friends.","People post statuses about their random thoughts or daily activities on Twitter and post different kinds of photos on Facebook frequently, in order to be connected with their so called friends.",Others Prep Trans,People post their random thoughts or daily activities via Twitter and post different kinds of photos on Facebook frequently to connect with their so-called friends.,Prep Mec Vform Mec,People post about their random thoughts or daily activities via Twitter and post different kinds of photos on Facebook frequently to be connected with their so-called friends.,Rloc- Mec,People post their random thoughts or daily activities on Twitter and post different kinds of photos on Facebook to be connected with their so called friends.,Rloc- Prep Rloc-,"People post their random thoughts or daily activities via Twitter and post different kinds of photos on Facebook frequently, to be connected with their so-called friends.",Prep Mec,"People post about their random thoughts or daily activities via Twitter and post different kinds of photos on Facebook frequently, to stay connected with their so-called friends.",Wci Mec,"People post about their random thoughts or daily activities via Twitter, and post different kinds of photos on Facebook frequently, to be connected with their so called friends.",Mec,"People frequently post about their random thoughts or daily activities via Twitter and different kinds of photos on Facebook, in order to be connected with their so-called friends.",WOadv Rloc- WOadv Trans Mec,,,,
"Not only that, new friends can be easily met through such online platforms.",,,"Not only that, but new friends can easily be met through such online platforms.",Trans WOadv,"Not only that, but new friends can be made easily through such online platforms.",Trans WOadv Wci WOadv,"Not only that, new friends can also be easily met through these online platforms.",Others ArtOrDet,"Not only that, new friends can be made easily through such online platforms.",WOadv Wci Wa,,,,,,,,,,
"People who are not good at public chatting may be more reluctant to talk to people, and their interpersonal skills can never be improved under this situation.","People who are not good at talking in public may be more reluctant to talk to people, and, therefore, their interpersonal skills will never improve.",Wci Trans Vm Vform Prep ArtOrDet Rloc-,"People who are not good at public speaking may be more reluctant to talk to people, so their interpersonal skills will never improve in this situation.",Wci Trans Vm Vform Prep,"People who are not good at face-to-face chatting may be more reluctant to talk to people, and their interpersonal skills can never be improved in this situation.",Wci Prep,"People who are not good at public speaking may be more reluctant to talk to people, and their interpersonal skills can never be improved in this situation.",Wci Prep,"People who are not good at public chatting may be more reluctant to talk to people, and their interpersonal skills can never be improved in this situation.",Prep,"People who are not good at public chatting may be more reluctant to talk to people, and their interpersonal skills can never be improved upon under this situation.",Prep,,,,,,,,
"social games) which allow users to communicate with remote people, and also to update and express themselves at the same time.",,,,,,,,,"social games). These allow users to communicate with remote people, and also to update and express themselves at the same time.",Srun Trans,"social games) which allows users to communicate with remote people, and also to update their status and express themselves at the same time.",SVA Others,,,,,,,,
Other people then are influenced by us and tend to do the same.,,,,,,,,,"Other people are then influenced by us, and tend to do the same.",Trans Trans Mec,,,,,,,,,,
"Therefore, this advantage of social media sites saves money and time, and also provides convenience for many people.",,,"Therefore, the advantages of social media sites not only save time and money, but also provide convenience for many people.",ArtOrDet Nn Others SVA Wci Trans SVA,"Therefore, an advantage of social media sites is saving money and time, and also being convenient for many people.",ArtOrDet V0 Vform Wci Wform,,,,,,,,,,,,,,
"As we graduate from a school, we will probably lose contact with some of our friends.","When we graduate from school, we will probably lose contact with some of our friends.",Trans ArtOrDet,"After we graduate from school, we will probably lose contact with some of our friends.",Trans ArtOrDet,"When we graduate from a school, we will probably lose contact with some of our friends.",Wci,"As we graduate from school, we will probably lose contact with some of our friends.",ArtOrDet,"As we graduate from a school, we probably lose contact with some of our friends.",Vt,,,,,,,,,,
"Last but not least, social media sites also link people together through allowing us to create our own groups, pages or sites to share our hobbies, interests and studies in particular subjects.","Last but not least, social media sites also link people together by allowing us to create our own groups, pages or websites in order to share our hobbies, interests and studies in particular subjects.",Prep Wci Trans,"Last but not least, social media sites also bring people together by allowing us to create our own groups, pages or sites to share our hobbies, interests and studies in particular subjects.",Wci Prep,"Last but not least, social media sites also link people together by allowing us to create our own groups, pages or sites to share our hobbies, interests and studies in particular subjects.",Prep,"Last but not least, social media sites also link people together by allowing us to create our own groups, pages, or sites to share our hobbies, interests and studies in particular subjects.",Prep Mec,"Last but not least, social media sites also link people together through allowing them to create their own groups, pages or sites to share hobbies, interests and studies in particular subjects.",Pform Pform ArtOrDet,"Last but not least, social media sites also link people together, by allowing us to create our own groups, pages or sites to share our hobbies, interests and studies in particular subjects.",Mec Prep,,,,,,,,
They are too busy with their way too many virtual friends and some of them neglect the feelings of their real-life friends.,They are so busy with their many virtual friends that some of them neglect the feelings of their real-life friends.,Wci Rloc- Trans Ssub,They are too busy with their too many virtual friends such that some of them neglect the feelings of their real-life friends.,Wtone Trans,They are too busy with their virtual friends and some of them neglect the feelings of their real-life friends.,Rloc-,They are too busy with their virtual friends and some of them will neglect the feelings of their real-life friends.,Rloc- Vm,They are too busy with too many virtual friends and some of them neglect the feelings of their real-life friends.,ArtOrDet Wtone,"They are too busy with their too many virtual friends, and some of them neglect the feelings of their real-life friends.",Rloc- Mec,They are too busy with their way too many virtual friends and some of them neglect the feelings of their real life friends.,Mec,They are too busy with their way-too-many virtual friends that some of them neglect the feelings of their real-life friends.,Mec Ssub Trans,,,,
"Twitter, Facebook and Skype are some social media sites which enable us to keep in touch with our friends or family who are in other cities or countries.",,,"Twitter, Facebook and Skype are some social media sites which enable us to keep in touch with our friends and family who are in other cities or countries.",Trans,"Twitter, Facebook and Skype are some social media sites that enable us to keep in touch with our friends or family who are in other cities or countries.",Ssub,,,,,,,,,,,,,,
Many people are very brave in telling people about their opinions online but in real life some of them can be very shy and not outspoken at all.,Many people are very brave and tell people about their opinions online but in real life some of them can be very shy and not outspoken at all.,Trans Prep Vform,"Many people are very brave in telling people their opinions online but in real life, some of them can be very shy and not outspoken at all.",Prep Mec,"Many people are very brave about telling people about their opinions online, but in real life, some of them can be very shy and not outspoken at all.",Prep Mec Mec,"Many people are very brave in telling people about their opinions online, but in real life some of them can be very shy and not outspoken at all.",Mec,"Many people are very brave when telling people about their opinions online, but in real life some of them can be very shy and not outspoken at all.",Prep Mec,,,,,,,,,,
And I am able to easily find a common topic when I contact them.,I am able to easily find a common topic when I do contact them.,Trans V0,Hence I am able to easily find a common topic when I contact them.,Trans,"Also, I am able to easily find a common topic when I contact them.",Trans,I am therefore able to easily find a common topic when I contact them.,Trans Trans,and I am able to easily find a common topic when I contact them.,Mec,,,,,,,,,,
When we use facebook and post pictures and statuses.,,,,,,,,,,,"When we use Facebook to post pictures and statuses,",Mec Trans Prep Mec,,,,,,,,
And people on the other side will only need a second to receive the message.,,,,,,,,,People on the other side will only need a second to receive the message.,Trans Mec,and people on the other side will only need a second to receive the message.,Mec,,,,,,,,
"For example, on Twitter, it is exciting to follow people that you adore like famous movie and series stars, business men and entrepreneurs.",,,,,,,,,,,,,"For example, on Twitter, it is exciting to follow people that you adore like famous movie and series stars, or business men and entrepreneurs.",Trans,"For example, on Twitter, it is exciting to follow people that you adore, like famous movie and TV series stars, business men and entrepreneurs.",Mec Others,,,,
And it becomes more convenient to obtain and update information by using social media.,It also becomes more convenient to obtain and update information by using social media.,Trans Mec,It becomes more convenient to obtain and update information by using social media.,Trans Mec,And it has become more convenient to obtain and update information by using social media.,Vt,,,,,,,,,,,,,,
Teenagers are developing their interpersonal skills and social skills when they are growing up.,Teenagers develop their interpersonal and social skills as they grow up.,Vform Rloc- Trans Vform,Teenagers develop their interpersonal skills and social skills as they grow up.,Vform Ssub Vform,Teenagers develop their interpersonal skills and social skills when they are growing up.,Vt,Teenagers are developing their interpersonal skills and social skills while they are growing up.,Prep,Teenagers develop their interpersonal skills and social skills while they are growing up.,Vt Vt Wci,Teenagers need to develop their interpersonal skills and social skills when they are growing up.,Vm Vform,Teenagers develop their interpersonal skills and social skills while they grow up.,Vt Wci Vt,,,,,,
Remember to send greetings to our friends and family frequently.,,,,,And remember to send greetings to our friends and family frequently.,Trans,remembering to send greetings to our friends and family frequently.,Vform,We should remember that it is important to send greetings to our friends and family frequently.,Others,and remember to send greetings to our friends and family frequently.,Trans,,,,,,,,
"As for the advantages, there are two aspects: more convenient to contact others, easier to know about others.","Starting with the advantages, there are two aspects: It is more convenient to contact others and it is easier to learn about others.",Trans Prep V0 Trans V0 Wci,"As for the advantages, there are two aspects: convenience in contacting others, and ease in getting to know about others.",Rloc- Wform Prep Vform Trans Wform Prep Wci,"As for the advantages, there are two aspects: it is more convenient to contact others, and it is easier to learn about others.",V0 Trans Wci,"For the advantages, there are two aspects: more convenient contact with others and easier access to information about others.",Trans Prep Prep Trans Wci Wci,"As for the advantages, there are two aspects. It is to contact others and easier to find out about others.",Mec Pref Trans Wci,"As for the advantages, there are two aspects: convenience to contact others, and ease of knowledge about others.",Rloc- Wform Trans Wform Prep Wform,"As for the advantages, there are two aspects: it is more convenient to contact others, and to know about others.",Others Trans,"As for the advantages, there are two aspects: social media are more convenient to contact others, and easier to know about others.",Others V0 Trans,,,,
And the information collected may not be intact and true.,but the information they collected may not be complete or true.,Trans Pform Wci Trans,And the information collected may not be complete or true.,Wci Trans,And the information collected might not be complete and true.,Vm Wci,And the information collected may not have been intact or true.,Vt Vt Trans,And the information collected may not be intact or true.,Trans,and the information collected may not be intact or true.,Mec Trans,,,,,,,,
"Nobody can deny social media's advantages as the benefit it provides in connecting people regardless of nationalities, races, cultures and languages.",,,,,,,,,"Nobody can deny social media's advantages in the benefit it provides in connecting people regardless of nationalities, races, cultures or languages.",Prep Trans,"Nobody can deny social media's advantages with regards to the benefit it provides in connecting people regardless of nationality, race, culture and language.",Prep Nn Nn Nn Nn,"Nobody can deny social media's advantage of connecting people, regardless of nationality, race, culture or language.",Nn Prep ArtOrDet Rloc- Pref Rloc- Prep Mec Nn Nn Nn Trans Nn,,,,,,
"People can use the information to deceive family and friends and banks to do bad things such as blackmail, ATM theft and so on.","People can use this information to deceive family, friends and banks and to do bad things such as blackmail, ATM theft and so on.",Pform Srun Trans Trans,"People can use the information to deceive family, friends and banks to do bad things such as blackmail, ATM theft and so on.",Mec,"People can use the information to deceive family and friends and banks to do bad things such as blackmailing, ATM theft and so on.",Vform,"People can use the information to deceive family, friends, and banks, to do bad things such as blackmail, ATM theft and so on.",Mec Trans Mec Mec,,,,,,,,,,,,
