Original sentence,Expected sentence (Annotation 1),Mistake categories (Annotation 1),Expected sentence (Annotation 2),Mistake categories (Annotation 2),Expected sentence (Annotation 3),Mistake categories (Annotation 3),Expected sentence (Annotation 4),Mistake categories (Annotation 4),Expected sentence (Annotation 5),Mistake categories (Annotation 5),Expected sentence (Annotation 6),Mistake categories (Annotation 6),Expected sentence (Annotation 7),Mistake categories (Annotation 7),Expected sentence (Annotation 8),Mistake categories (Annotation 8),Expected sentence (Annotation 9),Mistake categories (Annotation 9),Expected sentence (Annotation 10),Mistake categories (Annotation 10)
"It is a concern that will be with us during our whole life, because we will never know when the""potential bomb' ' will explode.","It is a concern that will be with us throughout our whole life, because we will never know when the""potential bomb' ' is going to explode.",Prep Vform Prep,"It is a concern that will be with us for our whole life, because we will never know when the potential "" bomb "" will explode.",Prep Mec,"It is a concern that will be with us our whole life, because we will never know when the""potential bomb' ' will explode.",Rloc-,"It is a concern that will be with us throughout our whole life, because we will never know when the""potential bomb' ' will explode.",Wci,"It is a concern that would be with us throughout our lives, because we would never know when the""potential bomb' ' might explode.",Vt Prep Rloc- Nn Vt Vm,"It is a concern that will be with us during our whole life, because we never know when the""potential bomb' ' will explode.",Vt,"It is a concern that will be with us during our whole lives, because we will never know when the""potential bomb' ' will explode.",Nn,,,,,,
"Hence, there were also tensions if participants felt that they could neither pass on information to relatives who needed to know (such as nieces and nephews) nor persuade those with authority (the parents) to do so.","Hence, there can also be tension if individuals feel that they can neither pass on the information to the relatives who need to know (such as nieces and nephews) nor persuade those with authority (the parents) to do so.",Vform V0 Nn Wci Vt Vm ArtOrDet ArtOrDet Vt,"Hence, there might also be tension if carriers feel that they can neither pass on information to relatives who need to know (such as nieces and nephews) nor persuade those with authority (the parents) to do so.",Vm WOadv Nn Wci Vt Vt Vt,"Hence, there would also be tension if participants felt that they could neither pass on information to relatives who needed to know (such as nieces and nephews), nor persuade those with authority (the parents) to do so.",Vm V0 Nn Mec,"Hence, there are also tensions if participants feel that they can neither pass on information to relatives who need to know (such as nieces and nephews) nor persuade those with authority (the parents) to do so.",Vt Vt Vt Vt,"Hence, there may be also tensions if participants felt that they could neither pass on information to relatives who needed to know (such as nieces and nephews) nor persuade those with authority (the parents) to do so.",V0 Vform,"Hence, there also may be tensions if participants of studies feel that they can neither pass on information to relatives who need to know (such as nieces and nephews) nor persuade those with authority (the parents) to do so.",Rloc- V0 Others Vt Vt,"Hence, there are also tensions if participants feel that they can neither pass on information to relatives who need to know (such as nieces and nephews), nor persuade those with the authority (the parents) to do so.",Vt Vt Vt Vt Mec ArtOrDet,,,,,,
The notion of authority also extended 'vertically'.,The notion of authority also extends 'vertically'.,Vform,,,,,,,,,,,,,,,,,,
"For example, if a carrier is told that he/she has the risk to have diabetes.","For example, if a carrier is told that they are at risk of developing diabetes.",Pform Vform ArtOrDet Prep Wci,"For example, if a carrier is told that he/she is at risk of having diabetes.",Wci ArtOrDet Prep Prep Vform,"For example, if a carrier is told that he/she has the risk of having diabetes.",Prep Vform,"For example, if a carrier is told that they have the risk of having diabetes.",Pform SVA Vform,"For example, if a carrier is told that he/she has a risk of having diabetes.",ArtOrDet Prep Vform,"For example, if a carrier is told that he/she has the risk of diabetes.",Prep Rloc-,"For example, if a carrier is told that they have the risk of diabetes.",Pref SVA Wci,"For example, if a carrier is told that he/she has a high risk of developing diabetes.",ArtOrDet Wci Prep Wci,,,,
Some will wish to keep it to themselves and hope to ensure that they will not bring in any pessimism into their family.,"Some may wish to keep it to themselves, hoping to ensure that they will not bring any pessimism to their family.",Vm Srun Rloc- Vform Prep Prep,Some will wish to keep it to themselves and hope to ensure that they will not bring any pessimism into their family.,Prep,Some will wish to keep it to themselves in the hope of ensuring that they will not bring any pessimism into their family.,Prep ArtOrDet Prep Vform Prep,Some may wish to keep it to themselves and hope that they will not bring in any distress to their family.,Vm Rloc- Wci Prep,Some will wish to keep it to themselves and hope that they will not bring any pessimism into their family.,Rloc- Prep,,,,,,,,,,
"With regard to this choice given, there must be some rules to regulate and exercise personal freedom of decision making.",,,,,,,,,,,"With regards to this choice being given, there must be some rules to regulate the exercise of personal freedom in decision making.",Nn Vform ArtOrDet Prep Prep,"With regard to the choice given, there must be some rules to regulate and exercise personal freedom of decision making.",ArtOrDet,,,,,,
There might be a possibility that the genetic disorder could also affect their relatives and any other families within the same family tree.,,,,,,,,,,,There is a possibility that the genetic disorder could also affect relatives and any other families within the same family tree.,Vm Vform Pform,,,,,,,,
"Of course, some people may do it to make their futures slightly happier, however, the carrier, before the testing, can choose not to go for the test and simply live with unknowns and accept the facts.",,,,,,,,,,,,,"Of course, some people may do it to make their futures slightly happier; however the carrier, before the testing, can choose not to go for the test, simply living with the unknown and accepting the facts.",Mec Mec Mec Trans Vform Nn Vform,"Of course, some people may do it to make their future slightly happier. However, the carrier, before the testing, can choose not to go for the test, and simply live with unknowns and accept the consequences.",Nn Srun Mec Wci,,,,
"When we were born, we were surrounded by our family and relatives, with them welcoming us to this new world.","When we were born, we were surrounded by our family and relatives; they welcommed us into this new world.",Mec Prep Pform Vform Prep,"When we were born, we were surrounded by our relatives, with them welcoming us to this new world.",Rloc-,"When we are born we are surrounded by our family and relatives, with them welcoming us to this new world.",Vt Mec Vt,"When we are born, we are surrounded by our family and relatives, with them welcoming us into the world.",Vt Vt Prep ArtOrDet Rloc-,"When we were born we were surrounded by our family and relatives, with them welcoming us to this new world.",Mec,,,,,,,,,,
The seriousness can be larger than our imagination.,The consequences may be greater than we can imagine.,Wci Vm Wci Pform Vform,The seriousness can be bigger than our imagination.,Wci,The seriousness can be beyond our imagination.,Wci Prep,The seriousness can be worse than our imagination.,Wci,The seriousness can be more severe than is imaginable.,Wci Rloc- Wform,,,,,,,,,,
"However, if a dignosed carrier is obligated to tell his or her relatives, the relatives will be forced to know their higher chance of being genetic risk carriers.","However, if a diagnosed carrier is obliged to tell their relatives, the relatives will have been forced into knowing their increased chance of being genetic risk carriers.",Rloc- Wci Pform Vform Prep Vform Wci,"However, if a diagnosed carrier is obligated to tell his or her relatives, the relatives will be unable to avoid knowing about their higher chance of being genetic risk carriers.",Mec Wci,"However, if a diagnosed carrier is obligated to tell his or her relatives, the relatives will be forced to know their higher chance of being genetic risk carriers.",Mec,"However, if a diagnosed carrier is obligated to tell their relatives, the relatives will be forced to know about their higher chance of being genetic risk carriers.",Mec Pref Prep,"However, if a diagnosed carrier is obligated to tell his or her relatives, the relatives will be forced to know their higher chances of being genetic risk carriers.",Mec Nn,"However, if a dignosed carrier is obligated to tell his or her relatives, the relatives will be forced to know their higher risk of being genetic risk carriers.",Wci,"However, if a diagnosed carrier is obligated to tell their relatives, the relatives will be forced to know their higher chance of being genetic risk carriers.",Mec Pref,,,,,,
"Moreover, telling their family members the truth is the fastest and easiest way to get their support.","Moreover, telling their family members the truth is the fastest and easiest way of getting their support.",Prep Vform,"Moreover, telling family members the truth is the fastest and easiest way to get their support.",ArtOrDet,"Moreover, telling your family members the truth is the fastest and easiest way to get their support.",Pref,,,,,,,,,,,,,,
"In those diseases, many who are affected do actually have different physical characteristics compared to those without the genetic diseases.",,,,,,,"In those diseases, many who are affected have different physical characteristics compared to those without the genetic disease.",Vform Rloc- Nn,,,,,,,,,,,,
"In my opinion, the responsibility of telling family and relatives is quite obvious.","In my opinion, the responsibility to tell family and relatives is quite obvious.",Prep Vform,"In my opinion, the responsibility of telling family and relatives is quite obvious",Mec,"In my opinion, the necessity of telling family and relatives is quite obvious.",Wci,"In my opinion, the responsibility of telling family and relatives is quite obvious,",Mec,,,,,,,,,,,,
"Even though you cannot eliminate the risk completely, you can at least try to be alert to avoiding getting the disease.","Even though you cannot eliminate the risk completely, you can at least try to be alert in order to avoid getting the disease.",Trans Vform,"Even though you cannot eliminate the risk completely, you can at least try to be active in avoiding the disease.",Wci Prep Rloc-,"Even though you cannot eliminate the risk completely, you can at least try to be alert to avoid getting the disease.",Vform,,,,,,,,,,,,,,
"As for those in your family who are more likely to be affected, they can go to the hospital to do the checks regularly.","As for those in your family who are most likely to be affected, they can go to the hospital to get checked regularly.",Wform Wci ArtOrDet Vform,"As for those in your family who are more likely to be affected, they can go to hospital to have check-ups regularly.",ArtOrDet Wci ArtOrDet Wform,"As for those in your family who are more likely to be affected, they can go to the hospital to have checks regularly.",Wci ArtOrDet,"As for those in your family who are more likely to be affected, they can go to the hospital to have the checks regularly.",Others,"As for those in your family who are most likely to be affected, they can go to the hospital to get check-ups regularly.",Wform Wci ArtOrDet Wform,"As for those in your family who are more likely to be affected, they can go to the hospital to get the checks regularly.",Wci,"As for those in your family who are more likely to be affected, they can go to the hospital to take the checks regularly.",Wci,,,,,,
They always have a choice about whether to undergo the genetic test or not.,,,,,,,They always have a choice about whether to undergo the genetic testing or not.,Vform,,,,,,,,,,,,
"Secondly, it can avoid genetic disease passed to the next generation when they intend to have babies.","Secondly, They can avoid the genetic disease being passed to the next generation if they intend on having babies.",Pform ArtOrDet Vform Trans Prep Vform,"Secondly, telling your relatives can prevent a genetic disease from being passed down to the next generation when they intend to have babies.",Others Wci ArtOrDet Prep Vform Prep,"Secondly, it can avoid genetic diseases being passed to the next generation if they intend to have babies.",Nn V0 Trans,"Secondly, it can prevent the genetic disease from being passed to the next generation if they intend to have babies.",Wci ArtOrDet Prep Vform Trans,"Secondly, it can avoid genetic disease being passed on to the next generation when they have babies.",V0 Prep Rloc- Prep,"Secondly, it can avoid genetic diseases being passed to the next generation when they intend to have children.",Nn Vform Wtone,"Secondly, it can avoid genetic disease being passed to the next generation when people intend to have babies.",Vt Pref,"Secondly, it can avoid genetic disease being passed to the next generation.",Vt Rloc-,,,,
They were told that the wife's family was carrying the polygenetic disorder and can pass only to boys rather than girls.,They were told that the wife's family carried a polygenetic disorder that could only be passed to boys and not girls.,Vform ArtOrDet Ssub Trans Vt Vform Wci,They were told that the wife's family was carrying a polygenetic disorder which can only be passed to boys rather than girls.,ArtOrDet Ssub WOadv,They were told that the wife's family was carrying the polygenetic disorder and could pass it only to boys rather than girls.,Vm Pref,They were told that the wife's family was carrying the polygenetic disorder which can pass only to boys rather than girls.,Trans,They were told that the wife's family was carrying the polygenetic disorder which can be passed only to boys rather than girls.,Trans V0,They were told that the wife's family was carrying the polygenetic disorder and could pass only to boys rather than girls.,Vt,They were told that the wife's family was carrying the polygenetic disorder which could pass only to boys rather than girls.,Trans Vt,,,,,,
"However, the wife actually had already known about the polygenetic disorder before the marriage and she did not tell her husband.",,,"However, the wife actually already knew about the polygenetic disorder before the marriage but did not tell her husband.",Vt Vform Trans Rloc-,"However, the wife had already known about the polygenetic disorder before the marriage and she did not tell her husband.",Wtone,"However, the wife had actually already known about the polygenetic disorder before the marriage and did not tell her husband.",WOadv WOadv Rloc-,"However, the wife actually had known about the polygenetic disorder before the marriage and she did not tell her husband.",Rloc-,"However, the wife had actually already known about the polygenetic disorder before the marriage and she had not told her husband.",WOadv WOadv Vt Vt,,,,,,,,
"In a nutshell, a carrier of a known genetic risk has the responsibility to tell his or her relatives.","In a nutshell, the carrier of a known genetic risk has the responsibility of telling their relatives.",ArtOrDet Prep Vform Pform,"In summary, a carrier of a known genetic risk has the responsibility to tell his or her relatives.",Wtone,"In a nutshell, the carrier of a known genetic risk has the responsibility to tell his or her relatives.",ArtOrDet,"In a nutshell, a carrier of a known genetic risk has a responsibility to tell their relatives.",ArtOrDet Pref,"In a nutshell, a carrier of a known genetic risk has the responsibility to tell their relatives.",Pref,,,,,,,,,,
The government should set the law to protect this kind of privacy.,,,,,,,The government should ensure the law protects this kind of privacy.,Wci Prep Vform,The government should make laws to protect this kind of privacy.,Wci ArtOrDet Nn,,,,,,,,,,
"However, not everybody is so lucky that they can make sure they do not carry any disease genes.","However, not everybody is so lucky in making sure that they do not carry any disease genes.",Prep Rloc- Vform Ssub,"However, not everybody is so lucky so they must make sure they do not carry any disease genes.",Trans Vm,"However, not everybody is so lucky that they can be sure they do not carry any genetic diseases.",Wci WOadv,"However, not everybody is so lucky that they do not carry any diseased genes.",Rloc- Rloc- Rloc- Rloc- Wform,"However, not everybody is so lucky that they can make sure they do not carry any diseased genes.",Vform,"However, not everybody is so lucky that they can make sure they do not carry any genes associated with disease.",WOadv Others,"However, not everybody is so lucky that they can make sure they do not carry any disease-carrying genes.",Wci,,,,,,
Genetic testing has become a beneficial way to predict and protect each individual at risk for a disorder.,Genetic testing has become a beneficial way of predicting and protecting individuals at risk from a disorder.,Prep Vform Vform ArtOrDet Nn Prep,Genetic testing has become a beneficial way to predict and protect each individual at risk of a disorder.,Prep,Genetic testing has become a beneficial way to identify and protect each individual at risk of a disorder.,Wci Prep,Genetic testing has become a beneficial way to predict for and protect each individual at risk of a disorder.,Prep Prep,Genetic testing has become a beneficial way to predict and protect individuals at risk for a disorder.,Rloc- Nn,Genetic testing has become a beneficial way to predict disease occurence and protect each individual at risk for a disorder.,Wci,,,,,,,,
"In some cases, a carrier can suffer tension within a family because the result is also related to the others' risk somehow.","In some cases, carriers can suffer from tension within a family because the results also relate to the risks of the others.",ArtOrDet Nn Prep Nn Rloc- Vform WOinc Rloc-,"In some cases, there can be tension within a carrier's family because the result also affects everyone else.",Others Vform Others,"In some cases, a carrier can suffer tension within the family because the result is also related to the others' risk somehow.",ArtOrDet,"In some cases, a carrier can suffer tension within their family because the result is also related to the others' risk somehow.",ArtOrDet,"In some cases, a carrier can suffer tension within a family because the result is also related to the others' risk.",Rloc-,"In some cases, a carrier can suffer tension within the family, because the result is also related to the others' risk somehow.",ArtOrDet Mec,,,,,,,,
"In China, a lot of government organizations have open blogs to communicate with people, like firefighters, police stations and so on.","In China, a lot of government organizations have open blogs for communicating with people, for example, firefighters, police stations and so on.",Prep Vform Trans,"In China, a lot of government organizations have opened blogs to communicate with people like firefighters, policemen and so on.",Vform Mec Wci,"In China, a lot of government organizations have opened blogs to communicate with people, like firefighters, police stations and so on.",Vt,"In China, a lot of government organizations have open blogs to communicate with people like firefighters, police officers and so on.",Mec Wci,"In China, a lot of government organizations have open blogs to communicate with people, organizations like fire stations, police stations and so on.",Others Wci,,,,,,,,,,
"The types of use must also be taken note of - informing, interacting, discussion and others.","These types of use must also be taken note of - informing, interacting and discussing.",ArtOrDet Trans Vform Rloc-,"The types of use must also be taken note of - informing, interacting, discussing etc.",Wform Wci,"The types of use must also be taken note of - informing, interacting, discussing amongst others.",Wform Prep,"The types of use must also be taken note of - informing, interacting, discussion, and others.",Mec,"The types of use must also be taken note of: informing, interacting, discussing and other types.",Mec Vform Others,"The types of usage must also be taken note of - informing, interacting, discussion and others.",Wform,"The types of use must also be taken note of: informing, interacting, discussion and others.",Mec,,,,,,
It is a common scene that two people sitting next to each other seldom talk with each other but just look at their cellphone.,,,,,,,,,"It is a common scene, two people sitting next to each other seldom talking with each other but just looking at their cellphones.",Mec Ssub Vform Vform Nn,It is a common scene that two people sitting next to each other seldom talk with each other but just look at their cell phones.,Nn,"It is a common scene that two people sitting next to each other seldom talk with each other, but just look at their cellphones.",Mec Nn,,,,,,
There might be false information or hoaxes spreading around on social media.,False information and hoaxes might be spread around social media.,Rloc- WOinc Mec Trans WOinc Vform Prep,There might be false information or hoaxes spreading on social media.,Prep,There might be false information or hoaxes spread around social media.,Vform Prep,,,,,,,,,,,,,,
"In addition, there are also chances for people to miscommunicate with each other as they cannot sense the tone of the other party over social media platforms.","In addition, there is also a chance that will miscommunicate with each other as they cannot sense the tone of the other party over social media platforms.",Vform ArtOrDet Prep Ssub Prep V0,"In addition, there are also chances for people to miscommunicate with each other as they cannot sense the tone of the other party on social media platforms.",Prep,"In addition, there are also chances for people to miscommunicate with each other, as they cannot sense the tone of the other party over social media platforms.",Mec,,,,,,,,,,,,,,
"However, there are risks of false information and chances of miscommunication.","However, there is a risk of false information being spread and a chance of miscommunication.",Vform ArtOrDet V0 ArtOrDet,"However, there are risks of false information being spread and chances of miscommunication.",Others,,,,,,,,,,,,,,,,
"Therefore, for an effective and efficient society, there is a need to have a balance of both social media interaction and face-to-face human interaction within its people.","Therefore, for an effective and efficient society, there needs to be a balance between both interaction on social media and face-to-face human interaction.",Rloc- SVA Vform Prep WOinc Rloc-,"Therefore, for an effective and efficient society, there is a need to have a balance of both social media interaction and face-to-face human interaction with people.",Prep Rloc-,"Therefore, for an effective and efficient society, there is a need to have a balance of both social media interaction and face-to-face human interaction.",Rloc-,"Therefore, for an effective and efficient society, there is a need to have a balance of both social media interaction and face-to-face human interaction for its people.",Prep,"Therefore, for an effective and efficient society, there is a need to have a balance of both social media interaction and face-to-face human interaction amongst its people.",Wci,"Therefore, for an effective and efficient society, there is a need to have a balance of both social media interaction and face-to-face human interaction by its people.",Prep,"Therefore, for an effective and efficient society, there is a need to have a balance of both social media interaction and face-to-face human interaction between its people.",Prep,,,,,,
"Thus, you can see that some students will browse facebook while attending lectures.",,,"Thus, you can see some students browsing facebook while attending lectures.",Rloc- Vt Vform,"Thus, you can see that some students will browse Facebook while attending lectures.",Mec,"Thus, you can see that some students browsing Facebook while attending lectures.",Vt Mec,,,,,,,,,,,,
"People post about their random thoughts or daily activities via Twitter and post different kinds of photos on Facebook frequently, to be connected with their so called friends.",,,People post their random thoughts or daily activities via Twitter and post different kinds of photos on Facebook frequently to connect with their so-called friends.,Prep Mec Vform Mec,People post about their random thoughts or daily activities via Twitter and post different kinds of photos on Facebook frequently to be connected with their so-called friends.,Rloc- Mec,People post their random thoughts or daily activities on Twitter and post different kinds of photos on Facebook to be connected with their so called friends.,Rloc- Prep Rloc-,"People post their random thoughts or daily activities via Twitter and post different kinds of photos on Facebook frequently, to be connected with their so-called friends.",Prep Mec,"People post about their random thoughts or daily activities via Twitter and post different kinds of photos on Facebook frequently, to stay connected with their so-called friends.",Wci Mec,"People post about their random thoughts or daily activities via Twitter, and post different kinds of photos on Facebook frequently, to be connected with their so called friends.",Mec,"People frequently post about their random thoughts or daily activities via Twitter and different kinds of photos on Facebook, in order to be connected with their so-called friends.",WOadv Rloc- WOadv Trans Mec,,,,
These sites play the role of connecting people around the world.,These sites are used to connect people around the world.,Wci Prep Vform,These sites play a role of connecting people around the world.,ArtOrDet,,,,,,,,,,,,,,,,
"People who are not good at public chatting may be more reluctant to talk to people, and their interpersonal skills can never be improved under this situation.","People who are not good at talking in public may be more reluctant to talk to people, and, therefore, their interpersonal skills will never improve.",Wci Trans Vm Vform Prep ArtOrDet Rloc-,"People who are not good at public speaking may be more reluctant to talk to people, so their interpersonal skills will never improve in this situation.",Wci Trans Vm Vform Prep,"People who are not good at face-to-face chatting may be more reluctant to talk to people, and their interpersonal skills can never be improved in this situation.",Wci Prep,"People who are not good at public speaking may be more reluctant to talk to people, and their interpersonal skills can never be improved in this situation.",Wci Prep,"People who are not good at public chatting may be more reluctant to talk to people, and their interpersonal skills can never be improved in this situation.",Prep,"People who are not good at public chatting may be more reluctant to talk to people, and their interpersonal skills can never be improved upon under this situation.",Prep,,,,,,,,
Other people then are influenced by us and tend to do the same.,Other people might then be influenced by us and do the same.,V0 Vform Rloc- Prep,Other people are then influenced by us and tend to do the same.,WOadv,Other people are influenced by us and tend to do the same.,Rloc-,Other people are then influenced by us and try to do the same.,WOadv Wci,"Other people are then influenced by us, and tend to do the same.",Trans Trans Mec,,,,,,,,,,
"As explained above, modern and sophisticated technology doesn't always give advantages.","As explained above, modern and sophisticated technology is not always advantageous.",Vform Rloc- Wform,"As explained above, modern and sophisticated technology does not always have advantages.",Wtone Wci,"As explained above, modern and sophisticated technology doesn't always bring advantages.",Wci,"As explained above, modern and sophisticated technology doesn't always provide advantages.",Wci,"As explained above, modern and sophisticated technology does not always give advantages.",Wtone,"As explained above, modern and sophisticated technology doesn't always give only advantages.",Others,,,,,,,,
"Therefore, this advantage of social media sites saves money and time, and also provides convenience for many people.",,,,,"Therefore, an advantage of social media sites is saving money and time, and also being convenient for many people.",ArtOrDet V0 Vform Wci Wform,,,,,,,,,,,,,,
"Moreover, this also provides an alternative way for people to contact a person whom they did not see for a very long time, such as their friends in primary school and secondary school.","Moreover, they also provides an alternative way for people to contact a person they have not seen for a very long time, such as their friends from primary school and secondary school.",Pform Rloc- Wci Vform Prep,"Moreover, this also provides an alternative way for people to contact a person whom they have not seen for a very long time, such as their friends from primary school and secondary school.",Vm Vform Prep,"Moreover, it also provides an alternative way for people to contact a person whom they have not seen for a very long time, such as their friends from primary school and secondary school.",Prep Vt Prep,"Moreover, this also provides an alternative way for people to contact a person who they have not seen for a very long time, such as their friends from primary school and secondary school.",Pform Wci Vform Prep,"Moreover, this also provides an alternative way for people to contact a person whom they have not seen for a very long time, such as their friends in primary school and secondary school.",Wci Vform,,,,,,,,,,
Another advantage of social media is in aiding the spread of democracy.,Another advantage of social media is that it aids the spread of democracy.,Ssub Vform,,,,,,,,,,,,,,,,,,
What we can do is to cautiously manage our time spent online and manage our words used online.,What we can do is cautiously manage the time we spend online and manage the words we use online.,Prep ArtOrDet Pform Vform ArtOrDet Pform Vform,What we can do is to cautiously manage our time spent online and manage the words we use online.,ArtOrDet Vform,What we can do is to cautiously manage our time spent online and monitor our words used online.,Wci,"What we can do is to cautiously manage our time spent online, and manage our words used online.",Mec,,,,,,,,,,,,
"Due to the popularity of social media, many people start to do their business via these sites.","Due to the popularity of social media, many people have started to do their business via these sites.",Vform,"Due to the popularity of social media, many people have started to conduct their business via these sites.",Vt Wci,"Due to the popularity of social media, many people are starting to do their business via these sites.",Vt,"Due to the popularity of social media, many people start their businesses via these sites.",Prep Rloc- Nn,"Due to the popularity of social media, many people start to conduct their business via these sites.",Wci,"Due to the popularity of social media, many people have started doing business via these sites.",Vt Vform ArtOrDet,,,,,,,,
Many people are very brave in telling people about their opinions online but in real life some of them can be very shy and not outspoken at all.,Many people are very brave and tell people about their opinions online but in real life some of them can be very shy and not outspoken at all.,Trans Prep Vform,"Many people are very brave in telling people their opinions online but in real life, some of them can be very shy and not outspoken at all.",Prep Mec,"Many people are very brave about telling people about their opinions online, but in real life, some of them can be very shy and not outspoken at all.",Prep Mec Mec,"Many people are very brave in telling people about their opinions online, but in real life some of them can be very shy and not outspoken at all.",Mec,"Many people are very brave when telling people about their opinions online, but in real life some of them can be very shy and not outspoken at all.",Prep Mec,,,,,,,,,,
Social media has changed our ways of exchanging information and interpersonal relationships profoundly.,Social media has changed the ways we exchange information and our interpersonal relationships profoundly.,ArtOrDet Pform Prep Vform Pform,Social media has profoundly changed our way of exchanging information and interpersonal relationships.,WOadv Nn WOadv,Social media have changed our ways of exchanging information and conducting interpersonal relationships profoundly.,SVA V0,Social media has changed our ways of exchanging information and our interpersonal relationships profoundly.,ArtOrDet,,,,,,,,,,,,
Social media has reshaped the way of communication.,Social media has reshaped the way we communicate.,Pform Prep Vform,Social media have reshaped the way we communicate.,SVA Prep WOinc,Social media has reshaped forms of communication.,ArtOrDet Wci,Social media has reshaped our way of communication.,ArtOrDet,Social media has reshaped our way of communicating.,ArtOrDet Wform,Social media has reshaped communication.,Wci,,,,,,,,
"However, when people become more and more addicted to this convenience and fail to communicate with people who are close to them, their face-to-face interpersonal skills are lost.","However, when people become more and more addicted to this convenience and fail to communicate with the people close to them, their face-to-face interpersonal skills will be lost.",ArtOrDet Rloc- Vform,"However, when people become more and more addicted to this convenience and fail to communicate with the people who are close to them, their face-to-face interpersonal skills are lost.",ArtOrDet,"However, when people become more and more addicted to this convenience, and fail to communicate with people who are close to them, their face-to-face interpersonal skills are lost.",Mec,,,,,,,,,,,,,,
"For more convenience, sentences are shortened to simply three or four words such as lol (which means laugh intensively) and "" asap "" (which means as soon as possible).",,,,,,,,,,,,,,,"For more convenience, sentences are shortened to simply three or four words, such as lol (which means laughing intensively) and "" asap "" (which means as soon as possible).",Mec Vform,,,,
"As stated above, I strongly believe that if we can use social media wisely rather than abusing it, we will all live a better life.",,,"As stated above, I strongly believe that if we can use social media wisely rather than abuse it, we will all live a better life.",Vform,"As stated above, I strongly believe that if we can use social media wisely rather than abusing them, we will all live a better life.",Pref,"As stated above, I strongly believe that if we can use social media wisely, rather than abusing it, we will all live better lives.",Mec ArtOrDet Nn,,,,,,,,,,,,
"Firstly of all, social media can make it more convenient for people to make friends and contact each other.","First of all, social media makes it more convenient for people to make friends and contact each other.",Wform Vform,"First of all, social media can make it more convenient for people to make friends and contact each other.",Wform,"Firstly, social media can make it more convenient for people to make friends and contact each other.",Rloc-,,,,,,,,,,,,,,
Teenagers are developing their interpersonal skills and social skills when they are growing up.,Teenagers develop their interpersonal and social skills as they grow up.,Vform Rloc- Trans Vform,Teenagers develop their interpersonal skills and social skills as they grow up.,Vform Ssub Vform,Teenagers develop their interpersonal skills and social skills when they are growing up.,Vt,Teenagers are developing their interpersonal skills and social skills while they are growing up.,Prep,Teenagers develop their interpersonal skills and social skills while they are growing up.,Vt Vt Wci,Teenagers need to develop their interpersonal skills and social skills when they are growing up.,Vm Vform,Teenagers develop their interpersonal skills and social skills while they grow up.,Vt Wci Vt,,,,,,
Remember to send greetings to our friends and family frequently.,,,,,,,remembering to send greetings to our friends and family frequently.,Vform,We should remember that it is important to send greetings to our friends and family frequently.,Others,and remember to send greetings to our friends and family frequently.,Trans,,,,,,,,
The appearance of social media sites truly connects people closely.,The emergence of social media sites has truly connected people closely.,Wci Vform,The appearance of social media sites has truly connected people..,Vt Vt Rloc-,The appearance of social media sites closely connects people.,Rloc- WOadv,The appearance of social media sites has truly connected people closely.,V0 Vt,,,,,,,,,,,,
"As for the advantages, there are two aspects: more convenient to contact others, easier to know about others.",,,"As for the advantages, there are two aspects: convenience in contacting others, and ease in getting to know about others.",Rloc- Wform Prep Vform Trans Wform Prep Wci,"As for the advantages, there are two aspects: it is more convenient to contact others, and it is easier to learn about others.",V0 Trans Wci,"For the advantages, there are two aspects: more convenient contact with others and easier access to information about others.",Trans Prep Prep Trans Wci Wci,"As for the advantages, there are two aspects. It is to contact others and easier to find out about others.",Mec Pref Trans Wci,"As for the advantages, there are two aspects: convenience to contact others, and ease of knowledge about others.",Rloc- Wform Trans Wform Prep Wform,"As for the advantages, there are two aspects: it is more convenient to contact others, and to know about others.",Others Trans,"As for the advantages, there are two aspects: social media are more convenient to contact others, and easier to know about others.",Others V0 Trans,,,,
"Nobody can deny social media's advantages as the benefit it provides in connecting people regardless of nationalities, races, cultures and languages.","Nobody can deny the advantages of social media as it connects people regardless of their nationalities, races, cultures and languages.",WOinc ArtOrDet Rloc- Rloc- Prep Vform ArtOrDet,"Nobody can deny social media's advantages with the benefits it provides in connecting people regardless of nationality, race, culture and language.",Prep Nn Nn Nn Nn Nn,"Nobody can deny social media's advantages in view of the benefit they provide in connecting people regardless of nationalities, races, cultures and languages.",Prep Pref SVA,"Nobody can deny social media's advantages in the benefits it provides in connecting people regardless of nationality, race, culture and language.",Prep Nn Nn Nn Nn Nn,"Nobody can deny social media's advantages in the benefit it provides in connecting people regardless of nationalities, races, cultures or languages.",Prep Trans,"Nobody can deny social media's advantages with regards to the benefit it provides in connecting people regardless of nationality, race, culture and language.",Prep Nn Nn Nn Nn,"Nobody can deny social media's advantage of connecting people, regardless of nationality, race, culture or language.",Nn Prep ArtOrDet Rloc- Pref Rloc- Prep Mec Nn Nn Nn Trans Nn,,,,,,
No more worries about the time it takes to deliver letters and packages.,You no longer have to worry about the time it takes to deliver letters and packages.,Wci Vform,There are no more worries about the time it takes to deliver letters and packages.,V0,,,,,,,,,,,,,,,,
"People can use the information to deceive family and friends and banks to do bad things such as blackmail, ATM theft and so on.",,,,,"People can use the information to deceive family and friends and banks to do bad things such as blackmailing, ATM theft and so on.",Vform,"People can use the information to deceive family, friends, and banks, to do bad things such as blackmail, ATM theft and so on.",Mec Trans Mec Mec,,,,,,,,,,,,
