Original sentence,Expected sentence (Annotation 1),Mistake categories (Annotation 1),Expected sentence (Annotation 2),Mistake categories (Annotation 2),Expected sentence (Annotation 3),Mistake categories (Annotation 3),Expected sentence (Annotation 4),Mistake categories (Annotation 4),Expected sentence (Annotation 5),Mistake categories (Annotation 5),Expected sentence (Annotation 6),Mistake categories (Annotation 6),Expected sentence (Annotation 7),Mistake categories (Annotation 7),Expected sentence (Annotation 8),Mistake categories (Annotation 8),Expected sentence (Annotation 9),Mistake categories (Annotation 9),Expected sentence (Annotation 10),Mistake categories (Annotation 10)
It is againt his or her human rights and it is against the law's spirit.,It would be againt their human rights and it would be against the spirit of the law.,Vt Pform Vt WOinc,It is againt their human rights and it is against the spirit of the law.,Spar Wci,It is againt his or her human rights and it is against the law's spirit as,Trans,It is againt their human rights and it is against the law's spirit.,Pref,it is against his or her human rights and it is against the law's spirit.,Ssub,it violates his or her human rights and it is against the law's spirit.,Mec Wci Rloc-,it is againt their human rights and it is against the law's spirit.,Mec Pref Rloc- Rloc-,It is against their human rights and it is against the spirit of the law.,Mec ArtOrDet Wci,,,,
"By doing this,they may be able to save some lives of their relatives.",,,,,,,"By doing this, they may be able to save the lives of some of their relatives.",Mec WOinc,,,,,,,,,,,,
"For a genetic risk carrier, there should be choice given with regards to informing his/her relatives.","For a genetic risk carrier, they should be given a choice with regards to informing their relatives.",Pform WOinc ArtOrDet WOinc Pform,"For a genetic risk carrier, a choice should be given with regards to informing his/her relatives.",WOinc,"For a genetic risk carrier, there should be a choice given with regards to informing his/her relatives.",ArtOrDet,"For a genetic risk carrier, there should be a choice with regards to informing his/her relatives or not.",ArtOrDet Rloc- Others,"For a genetic risk carrier, there should be a choice given with regards to informing their relatives.",ArtOrDet Pref,"For a genetic risk carrier, there should be a choice given regarding informing his/her relatives.",ArtOrDet Trans,"For a genetic risk carrier, there should be choice given with regards to informing his relatives.",Pref Pref,,,,,,
"With regard to this choice given, there must be some rules to regulate and exercise personal freedom of decision making.",,,,,,,,,"In regard to being given this choice, there must be some rules to regulate and exercise the personal freedom of decision making.",Prep WOinc ArtOrDet,"With regards to this choice being given, there must be some rules to regulate the exercise of personal freedom in decision making.",Nn Vform ArtOrDet Prep Prep,"With regard to the choice given, there must be some rules to regulate and exercise personal freedom of decision making.",ArtOrDet,,,,,,
I believe that some of the carriers will choose to not reveal their disease to the family members as they do not want to make their family members worry and feel uncomfortable or even feel ostracized by them.,,,I believe that some of the carriers will choose not to reveal their disease to their family members as they do not want to make their family members worry and feel uncomfortable.,WOinc ArtOrDet Mec Others,"I believe that some carriers will choose not to reveal their disease to family members, as they do not want to make their family members worry and feel uncomfortable or even to feel ostracized by them.",Rloc- WOadv ArtOrDet Mec Spar,I believe that some of the carriers will choose not to reveal their disease to the family members as they do not want to make their family members worry and feel uncomfortable or even feel ostracized by them.,WOinc,"I believe that some carriers would choose to not reveal their disease to their family members as they would not want to make their family members worry and feel uncomfortable, or even to feel ostracized by them.",Prep ArtOrDet Vm Pref Vm Mec Prep,I believe that some of the carriers will choose not to reveal their disease to their family members as they do not want to make their family members worry and feel uncomfortable or even be ostracized by them.,WOadv WOadv Pref Wci,"I believe that some of the carriers will choose to not reveal their disease to the family members as they do not want to make their family members worry and feel uncomfortable, or even feel ostracized by them.",Mec,"I believe that some of the carriers choose to not reveal their disease to the family members as they do not want to make their family members worry and feel uncomfortable, or even because the carrier does not want to feel ostracized by their family.",Vt Mec WOinc Pref,,,,
"By informing them, the carrier is never alone in fighting the battle of such disorder risk.",,,,,,,"By informing them, the carrier will never be alone in fighting the battle against the risk of such a disorder.",Vm V0 Prep WOinc,"By informing them, the carrier is never alone in fighting the battle of a disorder risk.",ArtOrDet,"By informing them, the carrier is never alone in fighting the battle against such a disorder risk.",Prep ArtOrDet,"By informing them, the carrier is never alone in fighting the battle of such a disorder risk.",ArtOrDet,"By informing them, the carrier is never alone in fighting the battle of such disorder risks.",Nn,,,,
A known genetic risk can also affect our next generation critically.,"Critically, a known genetic risk can also affect future generations.",WOinc ArtOrDet Wci Nn WOinc,A known genetic risk can also dramatically affect our next generation.,WOadv,A known genetic risk can also critically affect the next generation.,WOadv,A known genetic risk can also affect the next generation critically.,ArtOrDet,A known genetic risk can also critically affect our next generation.,WOadv WOadv,,,,,,,,,,
Or they can choose to keep silent until the next carrier is diagnosed.,Or can they choose to keep silent until the next carrier is diagnosed.,WOinc,Or should they choose to keep silent until the next carrier is diagnosed?,WOinc Mec,Or they could choose to keep silent until the next carrier is diagnosed.,Vm,"Alternatively, they can choose to keep silent until the next carrier is diagnosed.",Trans,or they can choose to keep silent until the next carrier is diagnosed.,Mec,,,,,,,,,,
"When people want to check whether they are genetic risk carriers, they can go and approach a doctor to consult about it.","If people want to check whether they are genetic risk carriers, they can go and consult a doctor about it.",Trans WOinc Rloc- Prep WOinc,"When people want to check whether they are genetic risk carriers, they can go and approach a doctor about it.",Rloc-,"When people want to check whether they are genetic risk carriers, consult a doctor about it.",Rloc- Trans Rloc- WOinc Prep WOinc,"When people want to check whether they are genetic risk carriers, they can approach a doctor to consult about it.",Rloc-,"When people want to check whether they are genetic risk carriers, they can go and approach a doctor to ask about it.",Wci,"When people want to check whether they are genetic risk carriers, they can go and approach a doctor to consult with.",Prep Pref,"When people want to check whether they are genetic risk carriers, they can approach a doctor to consult them about it.",Rloc- Trans Pref,,,,,,
"In a nutshell, a carrier of a known genetic risk should have their own right to decide whether to tell their relatives or not.","In a nutshell, a carrier of a known genetic risk should have the right to decide whether or not to tell their relatives.",ArtOrDet Rloc- WOinc WOinc,"In summary, a carrier of a known genetic risk should have the right to decide whether to tell their relatives or not.",Wtone ArtOrDet Rloc-,"In a nutshell, the carrier of a known genetic risk should have their own right to decide whether to tell their relatives or not.",ArtOrDet,,,,,,,,,,,,,,
"Once you suffer from cancer, the medication cost is very expensive.",,,,,,,,,"Once you suffer from cancer, the cost of medication is very expensive.",WOinc,"Once you suffer from cancer, medication is very expensive.",ArtOrDet Rloc-,,,,,,,,
"Awareness of having a genetic disorder may help in diagnosing a genetic disorder for a person, and therefore, this may make the prevention of a certain disorder possible.",,,,,,,,,,,"Awareness of having a genetic disorder may help in diagnosing a person with a genetic disorder, and therefore this may make the prevention of a certain disorder possible.",WOinc WOinc Mec,,,,,,,,
"This is because many relate genetic diseases to those such as Bubble-Boy disease, autism or down-syndrome.",,,"This is because many genetic diseases are related to those such as Bubble-Boy disease, autism or down-syndrome.",WOinc,"This is because many relate genetic diseases to others such as Bubble-Boy disease, autism or Down's syndrome.",Pref Mec,"This is because many relate genetic diseases to those such as Bubble-Boy disease, autism or Down syndrome.",Mec,"This is because many people relate genetic diseases to ones such as Bubble-Boy disease, autism or down-syndrome.",Others Pform,"This is because many people correspond genetic diseases to disorders such as Bubble-Boy disease, autism or Down Syndrome.",Others Wci Pref Mec,"This is because many relate genetic diseases to those such as Bubble-Boy disease, autism or Down's down-Syndrome.",Mec Mec,"This is because many relate 'genetic diseases' to those such as Bubble-Boy disease, autism or Down syndrome.",Mec Mec Mec,,,,
This information needs to be at least acknowledged by the other party before they make the decision to get married and have children.,,,This information needs to at least be acknowledged by the other party before they make the decision to get married and have children.,WOinc,,,,,,,,,,,,,,,,
"With the improvements of technology, a new life with genetic risk can be detected.","With the improvements of technology, a genetic risk can be detected within a new life.",WOinc ArtOrDet WOinc,"With improvements in technology, we can now detect a genetic risk in new-born babies.",ArtOrDet Prep WOinc,"With the improvements in technology, a new life with a genetic risk can be detected.",Prep ArtOrDet,"With the improvements in technology, the possibility of living with a genetic risk can be detected.",Prep ArtOrDet Wci Prep ArtOrDet,"With improvements to technology, a new life with a genetic risk can be detected.",ArtOrDet Prep ArtOrDet,"With the improvements of technology, a new life with a genetic risk can be detected.",ArtOrDet,,,,,,,,
The awareness of your relatives and families about your genetic risk is good for your self-wellness and health of your relatives.,,,Your relatives' and family's awareness of your genetic risk is good for your well-being and health of your relatives.,WOinc Wci,Your relatives' awareness of your genetic risk is good for your own health and the health of your relatives.,WOinc Prep Wci ArtOrDet,Knowing about your genetic risk is good for the well-being and health of your relatives,Rloc- ArtOrDet Wci Mec,Telling of your relatives about your genetic risk is good for your wellbeing and the health of your relatives.,ArtOrDet Wci Rloc- Wci ArtOrDet,The awareness of your relatives and family about your genetic risk is good for your wellness and the health of your relatives.,Nn Wci ArtOrDet,"Your relatives and families' awareness of your genetic risk is good for your own wellbeing and also, the health of your relatives.",WOadv Mec Npos WOadv Wci Mec ArtOrDet,The awareness of your relatives and families about your genetic risk is good for your wellness and the health of your relatives.,Rloc- ArtOrDet,,,,
Some say it is a kind of invasion of privacy for the carrier and should be protected.,,,,,,,Some say it is a kind of invasion of the carrier's privacy which should be protected.,WOinc Prep Npos WOinc,Some say it is a kind of invasion of privacy for the carrier and their privacy should be protected.,Others,"Some say it is a kind of invasion of privacy for the carrier, which should be protected.",Mec Trans,,,,,,,,
"Therefore, telling the relatives about the situation may avoid a lot of trouble in this way and save much time for proper treatment.",,,"Therefore, telling relatives about the situation may avoid a lot of trouble and, in this way, save much time for proper treatment.",ArtOrDet WOinc,"Therefore, telling the relatives about the situation may prevent a lot of trouble in this way and allow time for proper treatment.",Wci Wci,"Therefore, telling their relatives about the situation may avoid a lot of trouble in this way and save time for proper treatment.",ArtOrDet Rloc-,"Therefore, telling the relatives about the situation may avoid a lot of trouble in this way and save a lot of time for proper treatment.",ArtOrDet Wci Prep,"Therefore, telling the relatives about the situation may help avoid a lot of trouble, and allow time for proper treatment.",V0 Mec Rloc- Wci Rloc-,,,,,,,,
The relationship between the parents and their children should not be tested only in the genetic way; it is something much deeper and tighter.,,,,,,,,,,,,,,,The relationship between parents and their children is not only genetic; it is something much deeper and tighter.,ArtOrDet Vm WOinc Rloc- Prep ArtOrDet Rloc-,,,,
"Finally, the technology of testing the gene is not very mature now.",,,,,,,"Finally, the technology of genetic testing is not very advanced currently.",WOinc ArtOrDet Wform WOinc Wci Wtone,"Finally, the technology of gene testing is not very advanced yet.",WOinc Wci Wci,"Finally, the technology of genetic testing is not very mature now.",Wci ArtOrDet Wci,"Finally, the technology of testing the gene is not very mature at this moment.",Trans,"Finally, the technology of testing genes is not very mature yet.",ArtOrDet Nn Wci,,,,
There also exists some probability of wrong testing.,,,,,,,Some probability of inaccurate testing also exists.,Rloc- WOinc Mec Wci WOinc,There exists some possibility of wrong results.,Rloc- Wci Wci,There also exists some probability of testing errors.,Others,There also exists some probability of wrong test results.,Wci,There also exists the probability of false results.,ArtOrDet Wci Wci,,,,
There is a story I watched on TV.,I watched a story on TV.,Rloc- WOinc,There is a story I watched on TV where,Trans,There was a story I watched on television.,Vt Wa,,,,,,,,,,,,,,
"In some cases, a carrier can suffer tension within a family because the result is also related to the others' risk somehow.","In some cases, carriers can suffer from tension within a family because the results also relate to the risks of the others.",ArtOrDet Nn Prep Nn Rloc- Vform WOinc Rloc-,"In some cases, there can be tension within a carrier's family because the result also affects everyone else.",Others Vform Others,"In some cases, a carrier can suffer tension within the family because the result is also related to the others' risk somehow.",ArtOrDet,"In some cases, a carrier can suffer tension within their family because the result is also related to the others' risk somehow.",ArtOrDet,"In some cases, a carrier can suffer tension within a family because the result is also related to the others' risk.",Rloc-,"In some cases, a carrier can suffer tension within the family, because the result is also related to the others' risk somehow.",ArtOrDet Mec,,,,,,,,
"Howard Garner mentioned that the different intelligences can be charted, in accordance of utilising tests, and ranked.",,,,,,,,,,,,,"Howard Garner mentioned that the different intelligences can be charted in accordance of utilising tests, and ranked.",WOinc,"Howard Garner mentioned that the different intelligences can be charted by utilising tests, and ranked.",Mec Prep Rloc- Prep,,,,
It is a common scene that two people sitting next to each other seldom talk with each other but just look at their cellphone.,,,"Two people sitting next to each other, seldom talking, but just looking at their cellphones is a common scene.",WOinc,It is a common scene that two people sitting next to each other seldom talk with each other but just look at their cellphones.,Nn,It is a common scene to see two people sitting next to each other hardly talking to each other but just looking at their cellphone.,V0 Wci Vt Prep Vt,"It is a common scene, two people sitting next to each other seldom talking with each other but just looking at their cellphones.",Mec Ssub Vform Vform Nn,It is a common scene that two people sitting next to each other seldom talk with each other but just look at their cell phones.,Nn,"It is a common scene that two people sitting next to each other seldom talk with each other, but just look at their cellphones.",Mec Nn,,,,,,
"They can even make new friends over similar interests on these platforms, which will be able to connect almost everyone closely in many parts of the world.",,,"They can even make new friends with similar interests on these platforms, which enables almost everyone to connect in many parts of the world.",Prep Vt WOinc Rloc-,"They can even make new friends with similar interests on these platforms, which will be able to connect almost everyone closely in many parts of the world.",Prep,"They can even make new friends over similar interests on these platforms, which can connect almost everyone in many parts of the world.",Vm Rloc-,"They can even make new friends with similar interests on these platforms, which will be able to closely connect almost everyone in many parts of the world.",Prep WOadv,"They can even make new friends with similar interests on these platforms, which are be able to connect almost everyone closely from many parts of the world.",Prep Vt Prep,"They can even make new friends with similar interests on these platforms, who is are able to connect almost to everyone closely in many parts of the world.",Prep Ssub V0 Vt Others,"They can even make new friends over similar interests on these platforms, which are able to connect almost everyone in many parts of the world.",Vt Rloc-,,,,
There might be false information or hoaxes spreading around on social media.,False information and hoaxes might be spread around social media.,Rloc- WOinc Mec Trans WOinc Vform Prep,There might be false information or hoaxes spreading on social media.,Prep,There might be false information or hoaxes spread around social media.,Vform Prep,,,,,,,,,,,,,,
"Therefore, for an effective and efficient society, there is a need to have a balance of both social media interaction and face-to-face human interaction within its people.","Therefore, for an effective and efficient society, there needs to be a balance between both interaction on social media and face-to-face human interaction.",Rloc- SVA Vform Prep WOinc Rloc-,"Therefore, for an effective and efficient society, there is a need to have a balance of both social media interaction and face-to-face human interaction with people.",Prep Rloc-,"Therefore, for an effective and efficient society, there is a need to have a balance of both social media interaction and face-to-face human interaction.",Rloc-,"Therefore, for an effective and efficient society, there is a need to have a balance of both social media interaction and face-to-face human interaction for its people.",Prep,"Therefore, for an effective and efficient society, there is a need to have a balance of both social media interaction and face-to-face human interaction amongst its people.",Wci,"Therefore, for an effective and efficient society, there is a need to have a balance of both social media interaction and face-to-face human interaction by its people.",Prep,"Therefore, for an effective and efficient society, there is a need to have a balance of both social media interaction and face-to-face human interaction between its people.",Prep,,,,,,
"Indeed, I myself use Facebook just because of the friends' contacts that I want to keep.","Indeed, I myself use Facebook just because of the friends that i want to keep in contact with.",Npos WOinc,"Indeed, I myself use Facebook just for the friends' contacts that I want to keep.",Prep,"Indeed, I myself use Facebook just because of the contact with friends that I want to keep.",Wform,"Indeed, I myself use Facebook just because of friendships that I want to keep.",Wci,"Indeed, I myself use Facebook just because of the friends that I want to keep in contact with.",Npos WOinc,"Indeed, I myself use Facebook just because of the friend contacts that I want to keep.",Npos,,,,,,,,
"With the wide spread of advanced technology, social media sites are becoming more and more popular.","With the wide spread advances of technology, social media sites are becoming more and more popular.",WOinc,"With the spread of advanced technology, social media sites are becoming more and more popular.",Rloc-,"With the widespread advanced technology, social media sites are becoming more and more popular.",Mec Others,"With the wide advancement of technology, social media sites are becoming more and more popular.",Prep WOinc Wform WOinc,"With advanced technology becoming widespread, social media sites are becoming more and more popular.",ArtOrDet WOinc,"With the current wide spread of advanced technology, social media sites are becoming more and more popular.",Others,,,,,,,,
"social games) which allow users to communicate with remote people, and also to update and express themselves at the same time.",,,,,"social games) which allow users to communicate with people who are far away, and also to keep up to date and express themselves at the same time.",WOinc Wci,"social games) which allows users to communicate with remote people, and also to update and express themselves at the same time.",SVA,"social games). These allow users to communicate with remote people, and also to update and express themselves at the same time.",Srun Trans,"social games) which allows users to communicate with remote people, and also to update their status and express themselves at the same time.",SVA Others,,,,,,,,
Social media has reshaped the way of communication.,,,Social media have reshaped the way we communicate.,SVA Prep WOinc,Social media has reshaped forms of communication.,ArtOrDet Wci,Social media has reshaped our way of communication.,ArtOrDet,Social media has reshaped our way of communicating.,ArtOrDet Wform,Social media has reshaped communication.,Wci,,,,,,,,
This saves a lot of time for me in reading newspapers and watching TV.,This saves me from wasting time reading newspapers and watching TV.,WOinc Rloc- Prep V0 Prep WOinc Prep,This saves a lot of time for me reading newspapers and watching TV.,Prep,This saves a lot of time for me from reading newspapers and watching TV.,Prep,This saves a lot of time for me compared to reading newspapers and watching TV.,Wci Prep,This saves a lot of time for me instead of reading newspapers and watching television.,Prep Wa,,,,,,,,,,
"Instead, all of them were more interested in posting pictures of this "" cheerful "" meeting on their social media sites.","Instead, they were all more interested in posting pictures of this "" cheerful "" meeting on their social media sites.",WOinc,"Instead, all of them are more interested in posting pictures of this "" cheerful "" meeting to their social media accounts.",Vt Prep Wci,,,,,,,,,,,,,,,,
And people on the other side will only need a second to receive the message.,and people on the other side will receive the message in a second.,Mec Rloc- WOinc Prep WOinc,And the people on the other side will only need to wait a second to receive the message.,ArtOrDet Others,And people on the other side will only take a second to receive the message.,Wci,And people on the other end will only need a second to receive the message.,Wci,People on the other side will only need a second to receive the message.,Trans Mec,and people on the other side will only need a second to receive the message.,Mec,,,,,,,,
"Nobody can deny social media's advantages as the benefit it provides in connecting people regardless of nationalities, races, cultures and languages.","Nobody can deny the advantages of social media as it connects people regardless of their nationalities, races, cultures and languages.",WOinc ArtOrDet Rloc- Rloc- Prep Vform ArtOrDet,"Nobody can deny social media's advantages with the benefits it provides in connecting people regardless of nationality, race, culture and language.",Prep Nn Nn Nn Nn Nn,"Nobody can deny social media's advantages in view of the benefit they provide in connecting people regardless of nationalities, races, cultures and languages.",Prep Pref SVA,"Nobody can deny social media's advantages in the benefits it provides in connecting people regardless of nationality, race, culture and language.",Prep Nn Nn Nn Nn Nn,"Nobody can deny social media's advantages in the benefit it provides in connecting people regardless of nationalities, races, cultures or languages.",Prep Trans,"Nobody can deny social media's advantages with regards to the benefit it provides in connecting people regardless of nationality, race, culture and language.",Prep Nn Nn Nn Nn,"Nobody can deny social media's advantage of connecting people, regardless of nationality, race, culture or language.",Nn Prep ArtOrDet Rloc- Pref Rloc- Prep Mec Nn Nn Nn Trans Nn,,,,,,
"Recent research has shown that the more people spend time on social media sites, the less they become ambitious.","Recent research has shown that the more people spend time on social media sites, the less ambitious they become.",WOinc,"Recent research has shown that the more time people spend on social media sites, the less ambitious they become.",WOinc WOadv,"Recent research has shown that the more people spend time on social media sites, the less ambitious they are.",WOinc WOinc WOinc,"Recent research has shown that the more time people spend on social media sites, the less they become ambitious.",Ssub WOinc,,,,,,,,,,,,
