Original sentence,Expected sentence (Annotation 1),Mistake categories (Annotation 1),Expected sentence (Annotation 2),Mistake categories (Annotation 2),Expected sentence (Annotation 3),Mistake categories (Annotation 3),Expected sentence (Annotation 4),Mistake categories (Annotation 4),Expected sentence (Annotation 5),Mistake categories (Annotation 5),Expected sentence (Annotation 6),Mistake categories (Annotation 6),Expected sentence (Annotation 7),Mistake categories (Annotation 7),Expected sentence (Annotation 8),Mistake categories (Annotation 8),Expected sentence (Annotation 9),Mistake categories (Annotation 9),Expected sentence (Annotation 10),Mistake categories (Annotation 10),21
If a law requires someone to tell others' his or her privacy especially when the one is not willing to do so.,If a law required someone to tell others' their secrets especially when they are not willing to do so.,Vform Pform Wci ArtOrDet Pform SVA,"If the law requires someone to tell others and violate their privacy, especially when they are not willing to do so.",ArtOrDet Npos V0 Pref Mec ArtOrDet Pform SVA,"If a law requires someone to tell others their private details, especially when they are not willing to do so.",Mec Pref Wci Mec ArtOrDet Spar,"If a law requires someone to tell others his or her private information especially when they are not willing to do so, then",Npos Wci ArtOrDet Pref SVA Ssub,"If a law requires someone to tell others their private matters, especially when they are not willing to do so.",Npos Pref Wci Pform SVA,If a law requires someone to tell others his or her secrets especially when the one is not willing to do so.,Mec Wci,If a law requires someone to tell others his or her privacy especially when one is not willing to do so.,Npos ArtOrDet,"If a law requires someone to tell others his or her private details, particularly when one is not willing to do so,",Npos Wci Wci ArtOrDet Mec,"If a law requires someone to share with others their private information, especially when one is not willing to do so,",Wci Npos Pref Rloc- Rloc- Wci ArtOrDet Sfrag,"If a law requires someone to tell others their private details, especially when they are not willing to do so.",Npos ArtOrDet Wci ArtOrDet Pref Vform,"{
    ""Wci"": 8,
    ""ArtOrDet"": 8,
    ""Npos"": 7,
    ""Pref"": 6,
    ""SVA"": 4,
    ""Mec"": 4,
    ""Pform"": 3,
    ""Vform"": 2,
    ""V0"": 1,
    ""Spar"": 1,
    ""Ssub"": 1,
    ""Rloc-"": 1,
    ""Sfrag"": 1
}"
"If the genetic risk carrier is a minor or a child, then most likely the decision of informing the relative should be made with the consideration of the patients parents or legal guardian.","If the genetic risk carrier is a minor or a child, then it is most likely that the decision of informing the relatives should be made with the consent of the patients parents or legal guardians.",Pform V0 Ssub Nn Wci Nn,"If the genetic risk carrier is a minor or a child, then most likely the decision to inform relatives should be made with the consideration of the patient's parents or legal guardian.",Prep Vform ArtOrDet Nn Npos,"If the genetic risk carrier is a minor, then most likely the decision about informing the relatives should be made by the patient's parents or legal guardian.",Rloc- Prep Nn Prep Npos,"If the genetic risk carrier is a minor or a child, then most likely the decision of informing the relative should be made with the consideration of the patient's parents or legal guardian.",Npos,"If the genetic risk carrier is a minor or a child, then most likely the decision of informing their relatives should be made with the consideration of the patient's parents or legal guardians.",Pform Nn Npos Nn,"If the genetic risk carrier is a minor or a child, then most likely the decision of informing the relatives should be made with the consideration of the patient's parents or legal guardians.",Nn Mec Nn,"If the genetic risk carrier is a minor, then most likely the decision of informing the relative should be made with the consideration of the patient's parents or legal guardian.",Wci Npos,"If the genetic risk carrier is a minor or a child, then most likely the decision of informing the relatives should be made with the consideration of the patient's parents or legal guardian.",Nn Npos,"If the genetic risk carrier is a minor or a child, then most likely the decision of informing the relative should be made with the consideration of the patient's parents or legal guardian.",Npos,"If the genetic risk carrier is a minor or a child, then most likely the decision of informing the relative should be made with the consideration of the patient's parents or legal guardians.",Npos Nn,"{
    ""Npos"": 8,
    ""Nn"": 7,
    ""Pform"": 2,
    ""Wci"": 2,
    ""Prep"": 2,
    ""V0"": 1,
    ""Ssub"": 1,
    ""Vform"": 1,
    ""ArtOrDet"": 1,
    ""Rloc-"": 1,
    ""Mec"": 1
}"
True enough that there are lots of cancer's patient who were given second choice to live as a normal person as they have a strong mental support from their loved one.,There are lots of cancer patients who were given a second chance to live as a normal person because they had strong mental support from their loved ones.,Rloc- Mec Npos Nn ArtOrDet Wci Trans Vt ArtOrDet Nn,It is true that there are lots of cancer patients who were given a second chance to live as a normal person because they had strong mental support from their loved ones.,Wtone Npos Nn ArtOrDet Wci Trans Vt ArtOrDet Nn,There are lots of cancer patients who were given a second chance to live as normal people because they had strong moral support from their loved ones.,Wtone Npos Nn ArtOrDet Wci ArtOrDet Nn Trans Vt ArtOrDet Wci Nn,It is true that there are many cancer patients who were given a second chance to live a normal life with strong emotional support from their loved one.,Wtone Wci Npos Nn ArtOrDet Wci Prep Wci Prep ArtOrDet Vt,"True enough, there are lots of cancer patients who were given a second chance to live as a normal person as they had strong emotional support from their loved ones.",Mec ArtOrDet Npos Nn ArtOrDet Wci Vt ArtOrDet Wci Nn,It is true that there are lots of cancer patients who were given a second chance to live as a normal person due to having strong psychological support from their loved ones.,Pform V0 Wform Nn ArtOrDet Wci Trans Prep Vform ArtOrDet Wci Nn,True enough there are lots of cancer patients who are given second chances to live as normal people as they have strong mental support from their loved ones.,Ssub Npos Nn Vt Wci ArtOrDet Nn ArtOrDet Nn,True enough that there are lots of cancer patients who were given second chances to live as a normal person because they have a strong mental support from their loved ones.,Npos Nn Mec Trans Nn,"It is true enough that there are lots of cancer patients who were given a second chance to live as a normal person, as they have strong mental support from their loved ones.",Others Npos Nn ArtOrDet Wci Mec ArtOrDet Nn,"True enough, there are lots of cancer patients who were given a second chance to live as a normal person, as they had strong mental support from their loved ones.",Mec Rloc- Npos Nn ArtOrDet Wci Mec Vt ArtOrDet Nn,"{
    ""Nn"": 10,
    ""Npos"": 9,
    ""ArtOrDet"": 9,
    ""Wci"": 9,
    ""Vt"": 7,
    ""Mec"": 5,
    ""Trans"": 5,
    ""Wtone"": 3,
    ""Rloc-"": 2,
    ""Prep"": 2,
    ""Pform"": 1,
    ""V0"": 1,
    ""Wform"": 1,
    ""Vform"": 1,
    ""Ssub"": 1,
    ""Others"": 1
}"
"Together with the advancement of technology over past decades,medical advancement has increased exponentially and further enhancements are still constantly upgrading.Empower doctors with advance medical knowledge,doctors are able to diagnose and undergo genetic testing for patients to help them prevent and take necessary steps to protect their life.However, once a test has been conducted and the results are known,a question of disclosing the results to his or her relatives become a challenging issue to both patient and doctor.In my opinion,I feel the strong urge to support the obligation to inform patient relatives.","Together with the advancement of technology over past decades, medical advancements have progressed exponentially and further enhancements are still constantly being made. This empowers doctors with advance medical knowledge; doctors are able to diagnose and provide genetic testing for patients to help them prevent and take necessary steps to protect their life. However, once a test has been conducted and the results are known, the question of whether to disclose the results to relatives becomes a challenging issue for both patients and doctors. In my opinion, I feel a strong urge to support the obligation to inform patients' relatives.",Mec Nn SVA Wci Wci Srun Wci Mec ArtOrDet Prep Vform ArtOrDet SVA Prep Nn Nn Mec ArtOrDet Npos,"Along with the advancement of technology over the past few decades, medical advancement has increased exponentially, and further enhancements are still being made. By empowering doctors with advanced medical knowledge, doctors are able to diagnose and carry out genetic testing on patients to help them prevent disease and take necessary steps to protect their lives. However once a test has been conducted and the results are known, the question of disclosing the results to his or her relatives becomes a challenging issue to both patient and doctor. In my opinion, I feel a strong urge to support the obligation to inform a patient's relatives.",Wci ArtOrDet Wci Mec Mec Wci Smod Wform Vt Wci Prep Others Mec Mec SVA Mec Mec ArtOrDet ArtOrDet Npos,"Together with the advancement of technology over recent decades,medical progress has increased exponentially and further enhancements are still constantly being added. Empowered with advanced medical knowledge,doctors are able to diagnose and carry out genetic testing for patients to help them prevent illness and take the necessary steps to protect their life.However, once a test has been conducted and the results are known,the question of disclosing the results to relatives becomes a challenging issue for both patient and doctor.I feel a strong urge to support the obligation to inform patients' relatives.",Wci Wci Wci Rloc- Wform Wci Others ArtOrDet ArtOrDet Rloc- SVA Prep Rloc- ArtOrDet Npos,"Together with the advancement of technology over the past decades,medical advancement has increased exponentially and further enhancements are still constantly being upgraded.Empower doctors with advanced medical knowledgeand they will be able to conduct genetic testing on patients to help them prevent disease and take the necessary steps to protect their life.However, once a test has been conducted and the results are known,the question of disclosing the results to his or her relatives become a challenging issue to both patient and doctor.In my opinion,I strongly support the patient's obligation to inform relatives.",ArtOrDet Vform Vt Trans Vt Wci Prep Others ArtOrDet ArtOrDet Wci WOinc,"Together with the advancement of technology over past decades, medical advancement has increased exponentially and further enhancements are still constantly happening. upgrading.By empowering doctors with advanced medical knowledge, they are able to diagnose and perform genetic testing for patients to help them prevent disease and take the necessary steps to protect their lives. However, once a test has been conducted and the results are known, the question of disclosing the results to their relatives becomes a challenging issue for both patients and doctors. In my opinion, I feel a strong urge to support the obligation to inform patient's relatives.",Mec Wci Prep Wform Pref Wci Others ArtOrDet Nn ArtOrDet Pref SVA Prep Nn Nn Mec ArtOrDet Npos,"Together with the development of technology over recent decades, medical advancements have increased exponentially and further enhancements are still constantly upgrading. Empowered with advanced medical knowledge, doctors are able to diagnose and perform genetic testing for patients to help them prevent diseases and take necessary steps to protect their life. However, once a test has been conducted and the results are known, the question of disclosing the results to his or her relatives becomes a challenging issue for both the patient and the doctor. In my opinion, I feel a strong urge to support the obligation of patients to inform their relatives.",Wci Wci Mec Nn SVA Wform Rloc- Wform Mec Wci Others Mec ArtOrDet SVA Prep ArtOrDet ArtOrDet Mec ArtOrDet Prep Wci Pform,"Together with the advancement of technology over past decades,medical advancement has increased exponentially and further enhancements are still constantly evolving. By empowering doctors with advance medical knowledge,doctors are able to diagnose and conduct genetic testing for patients to help prevent illness and take necessary steps to protect their life.However, once a test has been conducted and the results are known,the question of disclosing the results to his or her relatives becomes a challenging issue to both patient and doctor.In my opinion,I support the obligation to inform patients' relatives.",Wci Wci Pref Others ArtOrDet SVA Sfrag Npos,"Together with the advancement of technology over past decades, medical advancement has increased exponentially, and further enhancements are still constantly upgrading, empowering doctors with advanced medical knowledge. Doctors are able to diagnose and provide genetic testing for patients, to help them prevent disease and take necessary steps to protect their life. However, once a test has been conducted and the results are known, a question of disclosing the results to his or her relatives becomes a challenging issue for both patient and doctor. In my opinion, I feel a strong urge to support obligation to inform the patient's relatives.",Mec Mec Wci Wform Wform Mec Wci Mec Others Mec Mec SVA Prep Mec Mec ArtOrDet ArtOrDet Npos,"Together with the advancement of technology, over past decades, medical advancement has increased exponentially and further enhancements are constantly upgrading. Empowering doctors with advanced medical knowledge, the advancement means they are able to diagnose and perform genetic testing for patients to help them prevent disease and take necessary steps to protect their life. However, once a test has been conducted and the results are known, the question of disclosing the results to their relatives becomes a challenging issue for both patient and doctor. In my opinion, I feel the strong urge to support the obligation to inform patients' relatives.",Mec Mec Rloc- Mec Mec Mec Wci Others Mec Mec Pref SVA Prep Mec Mec Npos,"Together with the advancement of technology over past decades, medical advancement has increased exponentially, and further enhancements are still constantly upgrading. Empowering doctors with advanced medical knowledge, doctors are able to diagnose and run genetic testing of patients, to help them prevent and take the necessary steps to protect their life. However, once a test has been conducted and the results are known, the question of disclosing the results to his or her relatives becomes a challenging issue to both patient and doctor. In my opinion, I feel a strong urge to support the obligation to inform patients' relatives.",Mec Mec Vform Mec Mec Wci Prep Mec ArtOrDet Mec ArtOrDet SVA Mec Mec ArtOrDet Npos,"{
    ""Wci"": 10,
    ""SVA"": 9,
    ""ArtOrDet"": 9,
    ""Prep"": 9,
    ""Npos"": 8,
    ""Others"": 8,
    ""Mec"": 7,
    ""Wform"": 5,
    ""Nn"": 3,
    ""Vform"": 3,
    ""Rloc-"": 3,
    ""Pref"": 3,
    ""Vt"": 2,
    ""Srun"": 1,
    ""Smod"": 1,
    ""Trans"": 1,
    ""WOinc"": 1,
    ""Pform"": 1,
    ""Sfrag"": 1
}"
"As it is a genetic risk,the patient next-of-skin might have a high chance of carrying the risk,hence the need to inform their relatives is important so that necessary prevention actions could be taken before unforeseen circumstances might occur.For example,if you are the only child in a family and unfortunately,you are suffering from a genetic disease that the genetic trait might be passed on to your next generation if you have a child,hence by letting your family members aware of the situation,it would lessen family stresses and suffering on forcing you to settle down and have children.However, social ethic issues like discrimination and privacy are biggest concerns and potential barriers to enforce patients or doctors to disclose information to patients relatives.It challenges the confidentiality and privacy principles.Currently, under the Health Insurance Portability and Accountability Act of 1996 (HIPAA) in the United States,there is no legal obligation requirement to disclose information to relatives,it is up to the patient's wish to disclose to their family members.Early disclosement to family members brings in positive reaction and prevention,as in the case of Angelina Jolie,she chose to disclose information and underwent treatment to reduce the risk of breast cancer significantly to under five percent.I still can recall her reason for disclosing her own story was that she does not want to live under the shadow of cancer.","As it is a genetic risk, the patient's next-of-kin will have a high chance of carrying the risk, informing relatives is important so that the necessary preventative actions can be taken before unforeseen circumstances occur. For example, if you are the only child in your family and unfortunately, you suffer from a genetic disease that genetic trait might be passed on to your next generation if you have a child. By making your family members aware of the situation, this could stop your family from stressing and pressuring you to settle down and have children. However, social and ethical issues like discrimination and privacy are the biggest concerns and potential barriers in forcing patients or doctors to disclose information to patients' relatives. It challenges confidentiality and privacy principles. Currently, under the Health Insurance Portability and Accountability Act of 1996 (HIPAA) in the United States, there is no legal requirement to disclose information to relatives, it is up to the patient to disclose the information to their family members. Disclosing the information to family members early on brings positive reactions and prevention, as in the case of Angelina Jolie. She chose to disclose the information and underwent treatment to reduce the risk of breast cancer significantly to under five percent. I can still recall that her reason for disclosing her own story was because she did not want to live under the shadow of cancer.",Mec Npos Wci Vm Mec ArtOrDet Rloc- Pform Prep Vform ArtOrDet ArtOrDet Wform Vm Rloc- Mec Mec ArtOrDet Mec Vform ArtOrDet Srun Mec Wci Pform Vm Wci ArtOrDet Vform Rloc- Prep Wci Mec Trans Wform ArtOrDet Prep Wci Npos Mec ArtOrDet Mec Mec Rloc- Mec Npos Rloc- Others WOinc Wci WOinc Prep Prep Nn Mec Srun ArtOrDet Mec WOadv Ssub Trans Vform,"As it is a genetic risk, the patient's next-of-kin might have a high chance of carrying the risk; hence the need to inform their relatives is important so that the necessary prevention actions can be taken before unforeseen circumstances occur. For example, if you are the only child in a family and, unfortunately, you are suffering from a genetic disease such that the genetic trait might be passed on to your next generation if you have a child, making your family members aware of the situation might reduce family stresses and suffering on forcing you to settle down and have children. However, social ethical issues like discrimination and privacy are the biggest concerns and potential barriers to enforcing patients or doctors to disclose information to a patient's relatives. It challenges the confidentiality and privacy principles. Currently, under the Health Insurance Portability and Accountability Act of 1996 (HIPPA) in the United States, there is no legal obligation or requirement to disclose information to relatives; it is up to the patient to tell their family members. Early disclosure to family members has a positive effect on prevention, such as in the case of Angelina Jolie, who chose to disclose information and undergo treatment to reduce the risk of breast cancer significantly to under five percent. I can still recall that her reason for disclosing her own story was that she does not want to live under the shadow of cancer.",Mec Npos Mec Srun ArtOrDet Vt Vm Mec Mec Mec Mec Trans Mec Prep Wci Mec Vm Wci Mec Wform ArtOrDet Vform ArtOrDet Npos Mec Mec Mec Mec Trans Srun Npos Rloc- Wci Vt Wform Wci Prep ArtOrDet Wci Prep Vt Pref Spar Vt WOadv Others,"As it is a genetic risk,the patient's next-of-kin might have a high chance of carrying the risk. Hence, the need to inform their relatives is important so that necessary preventative measures can be taken before unforeseen circumstances arise.For example,if you are the only child in a family and, unfortunately,you are suffering from a genetic disease, the genetic trait might be passed on to the next generation if you have a child. Hence, by making your family members aware of the situation,you would lessen family stresses and suffering owing to their forcing you to settle down and have children.However, social ethical issues like discrimination and privacy are the biggest concerns and potential barriers to forcing patients or doctors to disclose information to patients' relatives.It challenges confidentiality and privacy principles.Currently, under the Health Insurance Portability and Accountability Act of 1996 (HIPAA) in the United States,there is no legal obligation to disclose information to relatives. It is up to the patient what they wish to disclose to their family members.Early disclosure to family members brings a positive reaction and prevention,as in the case of Angelina Jolie. She chose to disclose information and underwent treatment to reduce the risk of breast cancer significantly to under five percent.I still can recall her reason for disclosing her own story was that she does not want to live in the shadow of cancer.",Npos Mec Srun Wform Wci Vm Rloc- Wci Mec Mec Rloc- ArtOrDet Srun Wci Pref Prep ArtOrDet Wform ArtOrDet Wci Npos ArtOrDet Rloc- Srun Npos Others Wform Prep ArtOrDet Srun Prep,"As it is a genetic risk,the patient's next of kin might have a high chance of carrying the risk,hence the need to inform their relatives so that the necessary preventative actions can be taken before unforeseen circumstances occur.For example,if you are the only child in a family and, unfortunately,you are suffering from a genetic disease, then the genetic trait might be passed on to your child. by letting your family members know of the situation,it would lessen family stress and suffering on forcing you to settle down and have children.However, social ethical issues, like discrimination and privacy, are important concerns and potential barriers to forcing patients or doctors to disclose information to the patient's relatives.It challenges the confidentiality and privacy principles.Currently, under the Health Insurance Portability and Accountability Act of 1996 (HIPAA) in the United States,there is no legal requirement to disclose information to relatives.it is up to the patient to decide whether to disclose to their family members.Early disclosure to family members brings about positive reactions and prevention,as in the case of Angelina Jolie,she chose to disclose information and underwent treatment to reduce her risk of breast cancer significantly to under five percent.I recall that her reason for disclosing her story was that she did not want to live under the shadow of cancer.",Npos Mec Rloc- ArtOrDet Wform Vm Vm Mec Trans Wci Mec Wci Nn Wform Mec Mec Wform Vform ArtOrDet Npos Rloc- Mec Npos Wci Wform Wci Nn Pform Rloc- Trans Rloc- Vt,"As it is a genetic risk, the patient's next-of-kin might have a high chance of carrying the risk, hence the need to inform their relatives is an important one so that the necessary prevention actions can be taken before unforeseen circumstances might occur. For example, if you are the only child in a family and, unfortunately, you are suffering from a genetic disease where the genetic trait might be passed on to the next generation if you have a child. Hence, by making your family members know about the situation, it would lessen your family's stress and insistence on forcing you to settle down and have children. However, social ethics issues like discrimination and privacy are big concerns and can be barriers toward enforce patients or doctors to disclose information to patients' relatives. It challenges the principles of privacy and confidentiality. Currently, under the Health Insurance Portability and Accountability Act of 1996 (HIPAA) in the United States, there is no legal obligation to disclose information to relatives, and it is up to the patient to disclose it to their family members. Early disclosure to family members brings a positive reaction and prevention, as in the case of Angelina Jolie, when she chose to disclose the information and underwent treatment to reduce the risk of breast cancer significantly, to under five percent. I still can recall her reason for disclosing her own story was that she does not want to live under the shadow of cancer.",Mec Npos Mec Mec ArtOrDet ArtOrDet Vm Mec Mec Mec Prep ArtOrDet Mec Wci Wci Prep Mec Pref Nn Wci Mec Nn Wform V0 Prep Npos Mec WOinc Mec Rloc- Trans Npos Rloc- Pref Mec Wform ArtOrDet Mec Trans ArtOrDet Mec Mec,"As it is a genetic risk, the patient's next-of-kin might have a high chance of carrying the risk, hence informing their relatives is important so that necessary precautions can be taken before unforeseen circumstances might occur. For example, if you are the only child in a family and, unfortunately, you are suffering from a genetic disease with a genetic trait that might be passed on to the next generation if you have a child, hence by making your family members aware of the situation, it might lessen family stress and suffering from forcing you to settle down and have children. However, social ethical issues like discrimination and privacy are the biggest concerns and potential barriers to enforcing patients' or doctors' disclosure of information to patients' relatives. It challenges the principles of confidentiality and privacy principles. Currently, under the Health Insurance Portability and Accountability Act of 1996 (HIPAA) in the United States, there is no legal obligation to disclose information to relatives, it is up to the patient to disclose the information to their family members. Early disclosure to family members brings a positive reaction and prevention, as in the case of Angelina Jolie who chose to disclose her risk and underwent treatment to reduce the risk of breast cancer significantly to under five percent. I can still recall her reason for disclosing her own story was that she did not want to live under the shadow of cancer.",Mec Nn Mec Mec ArtOrDet Rloc- Prep Vform Wci Rloc- Vt Mec Mec Mec Mec Prep ArtOrDet Ssub ArtOrDet Mec Wci Mec Vm Nn Prep Mec Wform ArtOrDet Vform Npos Npos Prep Wform Prep Npos Mec WOinc Prep WOinc Mec Rloc- Mec Rloc- Rloc- ArtOrDet Others Mec Wform ArtOrDet Mec Ssub ArtOrDet Wci Mec WOadv WOadv Vt,"As it is a genetic risk,the patient's next-of-skin might have a high chance of carrying the risk,hence the need to inform relatives is important so that necessary preventive actions can be taken before unforeseen circumstances might occur.For example,if you are the only child in a family and unfortunately,you are suffering from a genetic disease, the genetic trait might be passed on to your next generation if you have a child. Hence by making your family members aware of the situation,it might lessen family pressure and suffering forcing you to settle down and have children.However, social ethical issues like discrimination and privacy are the biggest concerns forcing patients or doctors to disclose information to patients' relatives.These challenge confidentiality and privacy principles.Currently, under the Health Insurance Portability and Accountability Act of 1996 (HIPAA) in the United States,there is no legal requirement to disclose information to relatives; it is up to the patient's wish..Early disclosement to family members brings in a positive reaction and facilitates prevention. As in the case of Angelina Jolie who chose to disclose information and underwent treatment to reduce the risk of breast cancer significantly to under five percent.I can still recall her reason for disclosing her own story; It was that she did not want to live under the shadow of cancer.",Npos Pref Wform Vt Mec Ssub Mec Wci Vm Wci Prep Wform ArtOrDet Rloc- Wci Npos Pform SVA ArtOrDet Wci Mec Mec Spar ArtOrDet V0 Mec Ssub WOinc Mec Pref Vt,"As it is a genetic risk, the patient's next-of-kin might have a high chance of carrying the risk. Accordingly, the need to inform their relatives is important so that necessary prevention actions could be taken before unforeseen circumstances might occur. For example, if you are the only child in a family and you are unfortunately suffering from a genetic disease, then the genetic trait might be passed on to your next generation if you have child. Therefore, by letting your family members aware of the situation, it would lessen family stresses and suffering from forcing you to settle down and have children. However, social ethical issues like discrimination and privacy are the biggest concerns and potential barriers to enforcing patients or doctors to disclose information to patient's relatives. It challenges the confidentiality and privacy principles. Currently, under the Health Insurance Portability and Accountability Act of 1996 (HIPAA) in the United States, there is no legal obligation to disclose information to relatives: it is the patient's choice whether to disclose to their family members. Early disclosure to family members brings in positive reactions, and encourages prevention, as in the case of Angelina Jolie. She chose to disclose information and underwent treatment to reduce the risk of breast cancer significantly to under five percent. I still can recall her reason for disclosing her own story: she did not want to live under the shadow of cancer.",Mec Npos Mec Mec Mec Mec WOadv WOadv Mec Trans ArtOrDet Nn Mec Mec Prep Mec Wform ArtOrDet Vform Npos Mec Mec Mec Rloc- Mec Prep Wci Trans Mec Wform Nn V0 Mec Mec Mec Mec Rloc- Mec Vt,"As it is a genetic risk, the patient's next of kin might have a high chance of carrying the risk, hence the need to inform their relatives is important so that necessary preventative actions can be taken before unforeseen circumstances might occur. For example, if you are the only child in a family and unfortunately you are suffering from a genetic disease, the genetic trait might be passed on to your next generation if you have a child. child, By making your family members aware of the situation, it would lessen family stresses and suffering with regards to forcing you to settle down and have children. However, social and ethical issues like discrimination and privacy are big concerns and potential barriers to enforcing patients or doctors to disclose information to patients' relatives. It challenges confidentiality and privacy principles. Currently, under the Health Insurance Portability and Accountability Act of 1996 (HIPAA) in the United States, there is no legal requirement to disclose information to relatives; it is up to the patient to disclose information to their family members. Early disclosement to family members brings in positive reactions and prevention of disease, as in the case of Angelina Jolie; she chose to disclose information and underwent treatment to significantly reduce the risk of breast cancer to under five percent. I can still recall that her reason for disclosing her own story was that she did not want to live under the shadow of cancer.",Mec Npos Mec Mec Wform Vt Mec Mec Mec Mec Rloc- Srun Rloc- Mec Wci Mec Prep Mec Trans Wform Wform Vform Npos Mec ArtOrDet Mec Mec Rloc- Mec Npos Rloc- Others Mec Nn Mec Mec WOadv WOadv Mec WOadv WOadv Others Vt,"As it is a genetic risk, the patient's next-of-kin might have a high chance of carrying the risk, hence the need to inform relatives is important, so that necessary prevention actions can be taken before unforeseen circumstances occur. For example, if you are the only child in a family and unfortunatelyyou are unfortunately suffering from a genetic disease from a genetic trait that might be passed on to your next generation if you have a child, making your family members aware of the situation, it would reduce the family stress and suffering of forcing you to settle down and have children. However, social ethical issues like discrimination and privacy are the biggest concerns of and potential barriers to enforcing patients or doctors to disclose information to patients' relatives. It challenges the confidentiality and privacy principles. Currently, under the Health Insurance Portability and Accountability Act of 1996 (HIPAA) in the United States, there is no legal obligation to disclose information to relatives; it is up to the patient's wishes to disclose to their family members. Early disclosure to family members brings a positive reaction and prevention, as in the case of Angelina Jolie: she chose to disclose information and underwent treatment to reduce the risk of breast cancer significantly to under five percent. I can still recall the reason for disclosing her own story was that she does not want to live under the shadow of cancer.",Mec Npos Mec Mec ArtOrDet Mec Vm Vm Mec Mec WOadv Mec WOadv Prep Ssub ArtOrDet Ssub Mec Mec Wci ArtOrDet Nn Prep Mec Wform ArtOrDet Prep Vform Npos Mec Mec Mec Rloc- Mec Nn ArtOrDet Mec Prep ArtOrDet Mec Srun Mec WOadv ArtOrDet,"{
    ""Mec"": 10,
    ""Npos"": 10,
    ""Wci"": 10,
    ""ArtOrDet"": 10,
    ""Rloc-"": 10,
    ""Wform"": 10,
    ""Prep"": 9,
    ""Vm"": 8,
    ""Vform"": 7,
    ""Nn"": 7,
    ""Trans"": 6,
    ""WOadv"": 6,
    ""Vt"": 6,
    ""Srun"": 5,
    ""Others"": 5,
    ""WOinc"": 4,
    ""Ssub"": 4,
    ""Pref"": 4,
    ""Pform"": 3,
    ""V0"": 3,
    ""Spar"": 2,
    ""SVA"": 1
}"
"However,there are still people against the decision of revealing private information.As in the case of Alzheimer patients,it is up to the patient's own choice to disclose information.However,research has shown that doctors have tried to interpret who,how and whom will Alzheimer disease be disclosed to minimise potential negative impact to families members (DementiaToday,2012).There are associations provide helps to Alzheimer patients like Alzheimer's Association (Alzheimer's Association,1980).Although there are still thousand of genetic risk diseases out there that might not be receiving all helps and supports from everyone,the needs to receive immediate understanding and support from family members is an utmost help that patients need in their difficult time.","However,there are still people who are against the decision of revealing private information. In the case of Alzheimer patients, it is up to the patient to disclose the information. However, research has shown that doctors have tried to influence who, how and whom Alzheimer disease will be disclosed in order to minimise potential negative impact on families members (Dementia Today, 2012). There are associations that provide help to Alzheimer patients like Alzheimer's Association (Alzheimer's Association,1980). However, there are still thousands of genetic risk diseases out there that may not be receiving help and support from everyone. Recieving immediate understanding and support from family members is very helpful for patients during this difficult time.",Ssub V0 Trans Mec Mec Npos Rloc- ArtOrDet Mec Wci Mec WOinc WOinc Trans Prep Mec Ssub Vform Wci Nn Vm Rloc- Nn Nn Srun Rloc- Prep Vform Wci Wform Rloc- Prep Rloc- Prep Pform,"However, there are still people against the idea of revealing private information. For example, in the case of Alzheimer patients, it is up to the patient to disclose information. However, research has shown that doctors have tried to investigate who Alzheimer disease should be disclosed to, to minimise the potential negative impact on family members (DementiaToday, 2012). There are associations that provide help to Alzheimer patients like the Alzheimer's Association (Alzheimer's Association, 1980). Although there are still thousands of genetic risk carriers out there that might not be receiving help and support from everyone, the need to receive immediate understanding and support from family members is an utmost help that patients need in their difficult time.",Mec Wci Trans Vt Npos Rloc- Mec Wci Rloc- Vt Vm Prep ArtOrDet Prep Npos Mec Ssub Nn ArtOrDet Vt Nn Wci Rloc- Nn Nn Vt Nn,"However,there are still people who are against the decision to reveal private information.As in the case of Alzheimer's patients,it is the patient's own choice to disclose information.However,research has shown that doctors have tried to interpret how and to whom Alzheimer's disease will be disclosed to minimise potential negative impact on family members (DementiaToday,2012).There are associations who provide help to Alzheimer's patients, like the Alzheimer's Association (Alzheimer's Association,1980).Although there are still thousands of people with genetic diseases out there that might not be receiving help and support from everyone,the need to receive immediate understanding and support from family members is the utmost help that patients need in their difficult time.",Others Prep Vform Npos Prep Rloc- Prep WOinc Prep Nn Pref Nn Mec Mec ArtOrDet Nn Others Rloc- Rloc- Nn Nn Nn ArtOrDet,"However,there are people against the decision of revealing private information. in the case of Alzheimer patients,it is the patient's own choice to disclose information.However,research has shown that doctors have tried to interpret how and to whom Alzheimer disease should be disclosed to in order to the potential negative impact on family members (DementiaToday,2012).There are associations that provide help to Alzheimer patients, for example Alzheimer's Association (Alzheimer's Association,1980).Although there are thousands of genetic diseases that might not be receiving all the help and support of everyone,the immediate understanding and support of family members is of the utmost help to patients in their difficult time.",Wtone Rloc- Rloc- Rloc- Prep Rloc- Vm Others ArtOrDet Prep Nn Trans Nn Wci Wtone Nn Rloc- Rloc- ArtOrDet Nn Prep Rloc- Prep Prep ArtOrDet Prep Rloc-,"However, there are still people who are the decision of revealing private information. As in the case of Alzheimer's patients, it is up to the patient to disclose the information. However, research has shown that doctors have tried to interpret who,how and to whom should Alzheimer's disease be disclosed to minimise potential negative impact to family members (DementiaToday, 2012). There are associations which provide help to Alzheimer's patients, such as Alzheimer's Association (Alzheimer's Association, 1980). Although there are still thousands of genetic risk diseases out there that might not receive help and support from everyone, the need to receive immediate understanding and support from family members is a great help that patients need in their difficult time.",Mec V0 Mec Npos Mec Npos Rloc- Mec Prep Vm Npos Nn Mec Mec ArtOrDet Nn Npos Mec Trans Mec Wform Rloc- Vform Rloc- Nn Nn Mec Nn ArtOrDet Wci,"However, there are still people against revealing this private information. As in the case of Alzheimer patients, it is up to the patient to disclose information. However, research has shown that doctors have tried to interpret who, how and to whom Alzheimer's patients will disclose it to to minimise the potential negative impact to family members (DementiaToday, 2012). There are associations who provide help to Alzheimer's patients such as Alzheimer's Association (Alzheimer's Association,1980).However there are still thousands of genetic risk carriers out there that might not be receiving the help and support they need to receive. Immediate understanding and support from family members is the utmost help that patients need in their difficult time.",Mec ArtOrDet Rloc- Prep ArtOrDet Mec Mec Rloc- Rloc- Rloc- Mec Mec Prep WOinc Npos Wci WOinc Vform Pform Prep ArtOrDet Nn Mec Ssub Nn Npos Wtone Wtone Wci Nn Wci ArtOrDet Nn Nn Rloc- Wci SVA Srun ArtOrDet,"However,there are still people against the decision of revealing private information.As in the case of Alzheimer patients,it is up to the patient's own choice to disclose information.However,research has shown that doctors have tried to interpret how and to whom should Alzheimer disease be disclosed to minimise the potential negative impact to family members (DementiaToday,2012).There are associations that provide help to Alzheimer patients like the Alzheimer's Association (Alzheimer's Association,1980).However, there are still thousands of people with genetic risk diseases out there that might not be receiving enough help and support from these organizations. Therefore need to receive immediate understanding and support from family members is the minimum that patients need in their difficult time.",Ssub Pform Vm ArtOrDet Nn Ssub Wform ArtOrDet Trans Nn Others ArtOrDet Wform Wform Others Nn Wci,"However, there are still people against the decision of revealing private information, as in the case of Alzheimer's patients,where it is the patient's own choice to disclose information. However, research has shown that doctors have tried to interpret to who and how Alzheimer's disease could be disclosed to minimise potential negative impact to families members (Dementia Today, 2012). There are associations that provide help to Alzheimer's patients, such as The Alzheimer's Association (Alzheimer's Association, 1980). Athough there are still thousands of genetic risk diseases out there that might not be receiving help and support from everyone, the need to receive immediate understanding and support from family members is the greatest help that patients need in their difficult time.",Mec Mec Npos Trans Prep Mec Trans Rloc- Npos Vm Cit Mec Ssub SVA Npos Mec Trans ArtOrDet Mec Nn Rloc- Nn Nn Mec Nn ArtOrDet Wci,"However, there are still people against the decision to reveal private information. As in the case of Alzheimer patients, it is up to the patient to disclose information. However, research has shown that doctors have tried to calculate how and to whom Alzheimer disease will be disclosed to minimise potential negative impacts to family members (Dementia Today, 2012). There are associations that provide help to Alzheimer patients like Alzheimer's Association (Alzheimer's Association, 1980). Although there are still thousands of people with genetic risk diseases out there that might not be receiving help and support from anyone, the need to receive immediate understanding and support from family members is of the utmost importance that patients need in their difficult time.",Mec Prep Vform Mec Mec Npos Rloc- Rloc- Mec Wci Rloc- Prep WOinc Wci Nn Nn Mec Mec Others Vform Mec Nn Others Rloc- Nn Nn Wci Nn ArtOrDet Wci,"However, there are still people against the decision of revealing private information. As in the case of Alzheimer patients, it is up to the patient's own choice to disclose information. However, research has shown that doctors have tried to interpret how and to whom Alzheimer disease should be disclosed to minimise potential negative impacts on families members (DementiaToday, 2012).There are associations to provide help to Alzheimer patients like Alzheimer's Association (Alzheimer's Association, 1980). Although there are still thousands of genetic risk diseases out there that are not receiving enough help and support from everyone, the need to receive immediate understanding and support from family members is something that patients need in their difficult time.",Mec Mec Mec Mec Rloc- Prep WOinc WOinc Nn Prep Mec Prep Nn Mec Mec Nn Vm WOinc SVA WOinc Others Nn Nn Mec Nn Others,"{
    ""Nn"": 10,
    ""Rloc-"": 9,
    ""ArtOrDet"": 9,
    ""Prep"": 9,
    ""Mec"": 8,
    ""Wci"": 8,
    ""Npos"": 7,
    ""Vm"": 7,
    ""Trans"": 6,
    ""Ssub"": 5,
    ""WOinc"": 5,
    ""Vform"": 5,
    ""Others"": 5,
    ""Wform"": 3,
    ""Pform"": 3,
    ""SVA"": 3,
    ""V0"": 2,
    ""Srun"": 2,
    ""Wtone"": 2,
    ""Vt"": 1,
    ""Pref"": 1,
    ""Cit"": 1
}"
"Secondly, social network may leak certain personal informations to the public, as the cyber environment is not perfect and not safe, people may not protect their privacy online effectively and sometimes, some people may use others personal information to deceive.","Secondly, social networks may leak personal information to the public, as the cyber environment is not perfect and not safe. People may not protect their privacy online effectively and sometimes people may use the personal information of others to deceive.",Nn ArtOrDet Nn Srun Mec Srun ArtOrDet WOinc,"Secondly, social networks may leak certain personal information to the public. As the cyber environment is not perfect and not safe, people may not protect their privacy online effectively and sometimes, some people may use others' personal information to deceive.",Nn Nn Srun Npos,"Secondly, social networks may leak certain personal information to the public. As the cyber environment is not perfect and not safe, people may not protect their privacy online effectively and, sometimes, some people may use others' personal information to deceive.",Nn Nn Srun Mec Mec,"Secondly, social networks may leak certain personal information to the public. The cyber environment is not perfect and not safe and people may not protect their privacy online effectively and sometimes, some people may use others' personal information fraudulently.",Nn Nn Mec Rloc- Mec Trans Npos Wci,"Secondly, social networks may leak certain personal information to the public, as the cyber environment is not perfect or safe. People may not be able to protect their privacy online effectively and sometimes, some people may use others' personal information to deceive.",Nn Nn Trans Mec V0 Prep Npos,"Secondly, social networks may leak certain personal information to the public. As the cyber environment is not perfect and not safe, people may not protect their privacy online effectively and, sometimes, some people may use others' personal information to deceive people.",Nn Nn Srun Mec Npos Others,"Secondly, social network may leak certain personal information to the public, as the cyber environment is not perfect and not safe so people may not protect their privacy online effectively and sometimes, some people may use others' personal information to deceive.",Nn Trans Npos,"Secondly, social networks may leak certain personal information to the public. As the cyber environment is not perfect and not safe, people may not protect their privacy online effectively and sometimes, some people may use other's personal information for deception.",Nn Nn Mec Npos Prep Wform,"Secondly, social networks may leak certain personal information to the public, as the cyber environment is not perfect and not safe. People may not protect their privacy online effectively and sometimes, some people may use others' personal information to deceive.",Nn Nn Srun Mec Npos,"Secondly, social networks may leak certain personal information to the public, as the cyber-environment is not perfect and not safe. People may not protect their privacy online effectively, and sometimes, some people may use others' personal information to deceive.",Nn Mec Mec Srun Mec Npos,"{
    ""Nn"": 10,
    ""Mec"": 8,
    ""Npos"": 8,
    ""Srun"": 6,
    ""Trans"": 3,
    ""Prep"": 2,
    ""ArtOrDet"": 1,
    ""WOinc"": 1,
    ""Rloc-"": 1,
    ""Wci"": 1,
    ""V0"": 1,
    ""Others"": 1,
    ""Wform"": 1
}"
"While social media brings convenience to people life, people are more and more willing to use social media for chatting instead of face-to-face chatting which has a time and place requirement.","While social media brings convenience to people's lives, people are more and more willing to use social media to chat instead of meeting face-to-face which has a time and place requirement.",Npos Nn Prep Vform V0 Rloc-,"While social media brings convenience to people's lives, people are more and more willing to use social media for chatting instead of face-to-face chatting which has a time and place requirement.",Npos Nn,"While social media bring convenience to people's lives, people are more and more willing to use social media for chatting instead of face-to-face chatting, which has a time and place requirement.",SVA Npos Nn Mec,"While social media brings convenience to people's lives, people are more and more willing to use social media for chatting instead of face-to-face chatting which has a time and place requirement.",Npos Nn,"Because social media brings convenience to people lives, people are more and more willing to use social media for chatting instead of face-to-face chatting, which has a time and place requirement.",Wci Nn Mec,"While social media brings convenience to people's lives, people are more and more willing to use social media for chatting instead of face-to-face chatting which has a time and place requirement.",Npos Nn,"While social media brings convenience to people in life people are more and more willing to use social media for chatting instead of face-to-face chatting, which has a time and place requirement.",Prep Ssub,"While social media brings convenience to people's lives, people are more and more willing to use social media for chatting instead of face-to-face chatting, which has a time and place requirement.",Npos Nn Mec,"While social media brings convenience to people's life, people are more and more willing to use social media for chatting instead of face-to-face chatting which has a time and place requirement.",Npos,"While social media bring convenience to people's lives, people are more and more willing to use social media for chatting instead of face-to-face chatting, which has a time and place requirement.",SVA Npos Nn Mec,"{
    ""Npos"": 8,
    ""Nn"": 8,
    ""Mec"": 4,
    ""Prep"": 2,
    ""SVA"": 2,
    ""Vform"": 1,
    ""V0"": 1,
    ""Rloc-"": 1,
    ""Wci"": 1,
    ""Ssub"": 1
}"
All users' needs are an internet connection and an email account so that everyone can have a Facebook or Twitter ID to start their journey in social media life.,All users' need is internet connection and an email account; anyone can create a Facebook or Twitter ID and start their journey on social media.,SVA SVA ArtOrDet Srun Rloc- Rloc- Wci Wci Prep Trans Prep Rloc-,"All users need is an internet connection and an email account, so anyone can make a Facebook or Twitter ID to start their journey in social media.",Npos Vform SVA Mec Rloc- Pform Wci Rloc-,All users need are an internet connection and an email account so that everyone can have a Facebook or Twitter ID to start their journey in social media.,Mec SVA Rloc-,All users need is an internet connection and an email account so that everyone can have a Facebook or Twitter ID to start their journey in social media life.,Npos SVA SVA,All users need is an internet connection and an email account so that everyone can have a Facebook or Twitter ID to start their journey in social media life.,Npos SVA SVA,"All users need is an internet connection and an email account, so everyone can have a Facebook or Twitter ID to start their journey in social media life.",Npos SVA SVA Mec Ssub,All users need are an internet connection and an email account so that everyone can have a Facebook or Twitter ID to start their journey in social media life.,Npos SVA,"All users need is an internet connection and an email account, so that everyone can have a Facebook or Twitter ID to start their journey in social media life.",Npos SVA SVA Mec,"All users need is an internet connection and an email account, so everyone can have a Facebook or Twitter ID to start their journey in a social media life.",Npos SVA SVA Mec Rloc- ArtOrDet,"All users needs are an internet connection and an email account, so everyone can get a Facebook or Twitter ID to start their journey in social media life.",Npos Mec Ssub Wci,"{
    ""SVA"": 9,
    ""Npos"": 8,
    ""Mec"": 6,
    ""Rloc-"": 4,
    ""Wci"": 3,
    ""ArtOrDet"": 2,
    ""Ssub"": 2,
    ""Srun"": 1,
    ""Prep"": 1,
    ""Trans"": 1,
    ""Vform"": 1,
    ""Pform"": 1
}"
It not only is convenient and beneficial in connecting people and developing the business but it also can damage people relationships and interpersonal skills.,"It is not only convenient and beneficial in connecting people and developing businesses, it can also damage people's relationships and interpersonal skills.",WOinc ArtOrDet Nn Trans WOinc Npos,"They are not only convenient and beneficial for connecting people and developing a business, but can also damage people's relationships and interpersonal skills.",Pref WOadv Prep ArtOrDet Mec Rloc- WOadv Npos,"It is not only convenient and beneficial for connecting people and developing business, but it also can damage people's relationships and interpersonal skills.",WOinc Prep ArtOrDet Mec Npos,It not only is convenient and beneficial in connecting people and developing businesses but it can also damage people's relationships and interpersonal skills.,ArtOrDet Nn WOinc Npos,It not only is convenient and beneficial for connecting people and developing businesses but it can also damage people's relationships and interpersonal skills.,Prep ArtOrDet Nn WOadv Npos,It is convenient and beneficial in connecting people and developing a business but it can also damage people's relationships and interpersonal skills.,Wci Wci ArtOrDet WOadv WOadv Npos,These are not only convenient and beneficial in connecting people and developing business but also in damaging relationships and interpersonal skills.,WOinc ArtOrDet Pref V0 Wci Rloc-,"It not only is convenient and beneficial in connecting people and developing business, but it also can damage people's relationships and interpersonal skills.",ArtOrDet Mec Npos,"It not only is convenient and beneficial in connecting people and developing business, but it also can damage people's relationships and interpersonal skills.",ArtOrDet Mec Npos,"It is not only convenient and beneficial in connecting people and developing business, but it also can damage people's relationships and interpersonal skills.",WOinc WOinc ArtOrDet Mec Npos,"{
    ""ArtOrDet"": 10,
    ""Npos"": 9,
    ""WOinc"": 5,
    ""Mec"": 5,
    ""Nn"": 3,
    ""WOadv"": 3,
    ""Prep"": 3,
    ""Pref"": 2,
    ""Rloc-"": 2,
    ""Wci"": 2,
    ""Trans"": 1,
    ""V0"": 1
}"
