Original sentence,Expected sentence (Annotation 1),Mistake categories (Annotation 1),Expected sentence (Annotation 2),Mistake categories (Annotation 2),Expected sentence (Annotation 3),Mistake categories (Annotation 3),Expected sentence (Annotation 4),Mistake categories (Annotation 4),Expected sentence (Annotation 5),Mistake categories (Annotation 5),Expected sentence (Annotation 6),Mistake categories (Annotation 6),Expected sentence (Annotation 7),Mistake categories (Annotation 7),Expected sentence (Annotation 8),Mistake categories (Annotation 8),Expected sentence (Annotation 9),Mistake categories (Annotation 9),Expected sentence (Annotation 10),Mistake categories (Annotation 10),21
The reason behind is that after WOWII the population of China decreased dramatically and so the government encourage the people to give more birth.,The reason behind this is that after WOWII the population of China decreased dramatically and so the government encouraged people to have more babies.,Pform Vform ArtOrDet Wci Wci,"The reason for this is that after WWII, the population of China decreased dramatically and so the government encouraged the people to have more children.",Prep Others Wa Vt Wci Wci,The reason behind this is that after WWII the population of China decreased dramatically and so the government encouraged the people to have more children.,Pref Wa Vt WOinc,The reason for this is that after WWII the population of China decreased dramatically and so the government encouraged the people to have more children.,Prep Wa Vt Wci,"The reason behind is that after World War II, the population of China decreased dramatically and so the government encouraged the people to have more babies.",Wa Vt Wci,The reason behind this is that after WWII the population of China decreased dramatically and so the government encouraged the people to have more children.,Pform Mec Vt Wci Wci,The underlying reason is that after WOWII the population of China decreased dramatically and so the government encouraged the people to have more children.,Wci Rloc- Vm Wci,The reason behind this is that after WWII the population of China decreased dramatically and so the government encouraged the people to have more children.,Pref Wa Vt Wci Wci,"The reason behind this is that after World War Two the population of China decreased dramatically, and so the government encouraged people to give birth to more children.",Prep Wa Mec Vt ArtOrDet ArtOrDet Wci,"The reason behind this is that after World War II the population of China decreased dramatically, and so the government encouraged the people to have more births.",Pref Wa Mec Vt Wci Nn,"{
    ""Wci"": 9,
    ""Vt"": 8,
    ""Wa"": 7,
    ""Prep"": 3,
    ""Pref"": 3,
    ""Mec"": 3,
    ""Pform"": 2,
    ""ArtOrDet"": 2,
    ""Vform"": 1,
    ""Others"": 1,
    ""WOinc"": 1,
    ""Rloc-"": 1,
    ""Vm"": 1,
    ""Nn"": 1
}"
